   1              		.syntax unified
   2              		.cpu cortex-m4
   3              		.eabi_attribute 27, 3
   4              		.eabi_attribute 28, 1
   5              		.fpu fpv4-sp-d16
   6              		.eabi_attribute 20, 1
   7              		.eabi_attribute 21, 1
   8              		.eabi_attribute 23, 3
   9              		.eabi_attribute 24, 1
  10              		.eabi_attribute 25, 1
  11              		.eabi_attribute 26, 1
  12              		.eabi_attribute 30, 6
  13              		.eabi_attribute 34, 1
  14              		.eabi_attribute 18, 4
  15              		.thumb
  16              		.file	"stm32f429i_discovery_sdram.c"
  17              		.section	.text.SDRAM_Init,"ax",%progbits
  18              		.align	2
  19              		.global	SDRAM_Init
  20              		.thumb
  21              		.thumb_func
  23              	SDRAM_Init:
  24              		@ args = 0, pretend = 0, frame = 72
  25              		@ frame_needed = 1, uses_anonymous_args = 0
  26 0000 80B5     		push	{r7, lr}
  27 0002 92B0     		sub	sp, sp, #72
  28 0004 00AF     		add	r7, sp, #0
  29 0006 FFF7FEFF 		bl	SDRAM_GPIOConfig
  30 000a 4FF00100 		mov	r0, #1
  31 000e 4FF00101 		mov	r1, #1
  32 0012 FFF7FEFF 		bl	RCC_AHB3PeriphClockCmd
  33 0016 4FF00203 		mov	r3, #2
  34 001a 3B60     		str	r3, [r7, #0]
  35 001c 4FF00703 		mov	r3, #7
  36 0020 7B60     		str	r3, [r7, #4]
  37 0022 4FF00403 		mov	r3, #4
  38 0026 BB60     		str	r3, [r7, #8]
  39 0028 4FF00703 		mov	r3, #7
  40 002c FB60     		str	r3, [r7, #12]
  41 002e 4FF00203 		mov	r3, #2
  42 0032 3B61     		str	r3, [r7, #16]
  43 0034 4FF00203 		mov	r3, #2
  44 0038 7B61     		str	r3, [r7, #20]
  45 003a 4FF00203 		mov	r3, #2
  46 003e BB61     		str	r3, [r7, #24]
  47 0040 4FF00103 		mov	r3, #1
  48 0044 FB61     		str	r3, [r7, #28]
  49 0046 4FF00003 		mov	r3, #0
  50 004a 3B62     		str	r3, [r7, #32]
  51 004c 4FF00403 		mov	r3, #4
  52 0050 7B62     		str	r3, [r7, #36]
  53 0052 4FF01003 		mov	r3, #16
  54 0056 BB62     		str	r3, [r7, #40]
  55 0058 4FF04003 		mov	r3, #64
  56 005c FB62     		str	r3, [r7, #44]
  57 005e 4FF4C073 		mov	r3, #384
  58 0062 3B63     		str	r3, [r7, #48]
  59 0064 4FF00003 		mov	r3, #0
  60 0068 7B63     		str	r3, [r7, #52]
  61 006a 4FF40063 		mov	r3, #2048
  62 006e BB63     		str	r3, [r7, #56]
  63 0070 4FF00003 		mov	r3, #0
  64 0074 FB63     		str	r3, [r7, #60]
  65 0076 4FF40053 		mov	r3, #8192
  66 007a 3B64     		str	r3, [r7, #64]
  67 007c 3B46     		mov	r3, r7
  68 007e 7B64     		str	r3, [r7, #68]
  69 0080 07F11C03 		add	r3, r7, #28
  70 0084 1846     		mov	r0, r3
  71 0086 FFF7FEFF 		bl	FMC_SDRAMInit
  72 008a FFF7FEFF 		bl	SDRAM_InitSequence
  73 008e 07F14807 		add	r7, r7, #72
  74 0092 BD46     		mov	sp, r7
  75 0094 80BD     		pop	{r7, pc}
  77 0096 00BF     		.section	.text.SDRAM_GPIOConfig,"ax",%progbits
  78              		.align	2
  79              		.global	SDRAM_GPIOConfig
  80              		.thumb
  81              		.thumb_func
  83              	SDRAM_GPIOConfig:
  84              		@ args = 0, pretend = 0, frame = 8
  85              		@ frame_needed = 1, uses_anonymous_args = 0
  86 0000 80B5     		push	{r7, lr}
  87 0002 82B0     		sub	sp, sp, #8
  88 0004 00AF     		add	r7, sp, #0
  89 0006 4FF07E00 		mov	r0, #126
  90 000a 4FF00101 		mov	r1, #1
  91 000e FFF7FEFF 		bl	RCC_AHB1PeriphClockCmd
  92 0012 4FF00203 		mov	r3, #2
  93 0016 3B71     		strb	r3, [r7, #4]
  94 0018 4FF00203 		mov	r3, #2
  95 001c 7B71     		strb	r3, [r7, #5]
  96 001e 4FF00003 		mov	r3, #0
  97 0022 BB71     		strb	r3, [r7, #6]
  98 0024 4FF00003 		mov	r3, #0
  99 0028 FB71     		strb	r3, [r7, #7]
 100 002a 4FF48060 		mov	r0, #1024
 101 002e C4F20200 		movt	r0, 16386
 102 0032 4FF00501 		mov	r1, #5
 103 0036 4FF00C02 		mov	r2, #12
 104 003a FFF7FEFF 		bl	GPIO_PinAFConfig
 105 003e 4FF48060 		mov	r0, #1024
 106 0042 C4F20200 		movt	r0, 16386
 107 0046 4FF00601 		mov	r1, #6
 108 004a 4FF00C02 		mov	r2, #12
 109 004e FFF7FEFF 		bl	GPIO_PinAFConfig
 110 0052 4FF06003 		mov	r3, #96
 111 0056 3B60     		str	r3, [r7, #0]
 112 0058 3B46     		mov	r3, r7
 113 005a 4FF48060 		mov	r0, #1024
 114 005e C4F20200 		movt	r0, 16386
 115 0062 1946     		mov	r1, r3
 116 0064 FFF7FEFF 		bl	GPIO_Init
 117 0068 4FF40060 		mov	r0, #2048
 118 006c C4F20200 		movt	r0, 16386
 119 0070 4FF00001 		mov	r1, #0
 120 0074 4FF00C02 		mov	r2, #12
 121 0078 FFF7FEFF 		bl	GPIO_PinAFConfig
 122 007c 4FF00103 		mov	r3, #1
 123 0080 3B60     		str	r3, [r7, #0]
 124 0082 3B46     		mov	r3, r7
 125 0084 4FF40060 		mov	r0, #2048
 126 0088 C4F20200 		movt	r0, 16386
 127 008c 1946     		mov	r1, r3
 128 008e FFF7FEFF 		bl	GPIO_Init
 129 0092 4FF44060 		mov	r0, #3072
 130 0096 C4F20200 		movt	r0, 16386
 131 009a 4FF00001 		mov	r1, #0
 132 009e 4FF00C02 		mov	r2, #12
 133 00a2 FFF7FEFF 		bl	GPIO_PinAFConfig
 134 00a6 4FF44060 		mov	r0, #3072
 135 00aa C4F20200 		movt	r0, 16386
 136 00ae 4FF00101 		mov	r1, #1
 137 00b2 4FF00C02 		mov	r2, #12
 138 00b6 FFF7FEFF 		bl	GPIO_PinAFConfig
 139 00ba 4FF44060 		mov	r0, #3072
 140 00be C4F20200 		movt	r0, 16386
 141 00c2 4FF00801 		mov	r1, #8
 142 00c6 4FF00C02 		mov	r2, #12
 143 00ca FFF7FEFF 		bl	GPIO_PinAFConfig
 144 00ce 4FF44060 		mov	r0, #3072
 145 00d2 C4F20200 		movt	r0, 16386
 146 00d6 4FF00901 		mov	r1, #9
 147 00da 4FF00C02 		mov	r2, #12
 148 00de FFF7FEFF 		bl	GPIO_PinAFConfig
 149 00e2 4FF44060 		mov	r0, #3072
 150 00e6 C4F20200 		movt	r0, 16386
 151 00ea 4FF00A01 		mov	r1, #10
 152 00ee 4FF00C02 		mov	r2, #12
 153 00f2 FFF7FEFF 		bl	GPIO_PinAFConfig
 154 00f6 4FF44060 		mov	r0, #3072
 155 00fa C4F20200 		movt	r0, 16386
 156 00fe 4FF00E01 		mov	r1, #14
 157 0102 4FF00C02 		mov	r2, #12
 158 0106 FFF7FEFF 		bl	GPIO_PinAFConfig
 159 010a 4FF44060 		mov	r0, #3072
 160 010e C4F20200 		movt	r0, 16386
 161 0112 4FF00F01 		mov	r1, #15
 162 0116 4FF00C02 		mov	r2, #12
 163 011a FFF7FEFF 		bl	GPIO_PinAFConfig
 164 011e 4CF20373 		movw	r3, #50947
 165 0122 3B60     		str	r3, [r7, #0]
 166 0124 3B46     		mov	r3, r7
 167 0126 4FF44060 		mov	r0, #3072
 168 012a C4F20200 		movt	r0, 16386
 169 012e 1946     		mov	r1, r3
 170 0130 FFF7FEFF 		bl	GPIO_Init
 171 0134 4FF48050 		mov	r0, #4096
 172 0138 C4F20200 		movt	r0, 16386
 173 013c 4FF00001 		mov	r1, #0
 174 0140 4FF00C02 		mov	r2, #12
 175 0144 FFF7FEFF 		bl	GPIO_PinAFConfig
 176 0148 4FF48050 		mov	r0, #4096
 177 014c C4F20200 		movt	r0, 16386
 178 0150 4FF00101 		mov	r1, #1
 179 0154 4FF00C02 		mov	r2, #12
 180 0158 FFF7FEFF 		bl	GPIO_PinAFConfig
 181 015c 4FF48050 		mov	r0, #4096
 182 0160 C4F20200 		movt	r0, 16386
 183 0164 4FF00701 		mov	r1, #7
 184 0168 4FF00C02 		mov	r2, #12
 185 016c FFF7FEFF 		bl	GPIO_PinAFConfig
 186 0170 4FF48050 		mov	r0, #4096
 187 0174 C4F20200 		movt	r0, 16386
 188 0178 4FF00801 		mov	r1, #8
 189 017c 4FF00C02 		mov	r2, #12
 190 0180 FFF7FEFF 		bl	GPIO_PinAFConfig
 191 0184 4FF48050 		mov	r0, #4096
 192 0188 C4F20200 		movt	r0, 16386
 193 018c 4FF00901 		mov	r1, #9
 194 0190 4FF00C02 		mov	r2, #12
 195 0194 FFF7FEFF 		bl	GPIO_PinAFConfig
 196 0198 4FF48050 		mov	r0, #4096
 197 019c C4F20200 		movt	r0, 16386
 198 01a0 4FF00A01 		mov	r1, #10
 199 01a4 4FF00C02 		mov	r2, #12
 200 01a8 FFF7FEFF 		bl	GPIO_PinAFConfig
 201 01ac 4FF48050 		mov	r0, #4096
 202 01b0 C4F20200 		movt	r0, 16386
 203 01b4 4FF00B01 		mov	r1, #11
 204 01b8 4FF00C02 		mov	r2, #12
 205 01bc FFF7FEFF 		bl	GPIO_PinAFConfig
 206 01c0 4FF48050 		mov	r0, #4096
 207 01c4 C4F20200 		movt	r0, 16386
 208 01c8 4FF00C01 		mov	r1, #12
 209 01cc 4FF00C02 		mov	r2, #12
 210 01d0 FFF7FEFF 		bl	GPIO_PinAFConfig
 211 01d4 4FF48050 		mov	r0, #4096
 212 01d8 C4F20200 		movt	r0, 16386
 213 01dc 4FF00D01 		mov	r1, #13
 214 01e0 4FF00C02 		mov	r2, #12
 215 01e4 FFF7FEFF 		bl	GPIO_PinAFConfig
 216 01e8 4FF48050 		mov	r0, #4096
 217 01ec C4F20200 		movt	r0, 16386
 218 01f0 4FF00E01 		mov	r1, #14
 219 01f4 4FF00C02 		mov	r2, #12
 220 01f8 FFF7FEFF 		bl	GPIO_PinAFConfig
 221 01fc 4FF48050 		mov	r0, #4096
 222 0200 C4F20200 		movt	r0, 16386
 223 0204 4FF00F01 		mov	r1, #15
 224 0208 4FF00C02 		mov	r2, #12
 225 020c FFF7FEFF 		bl	GPIO_PinAFConfig
 226 0210 4FF68373 		movw	r3, #65411
 227 0214 3B60     		str	r3, [r7, #0]
 228 0216 3B46     		mov	r3, r7
 229 0218 4FF48050 		mov	r0, #4096
 230 021c C4F20200 		movt	r0, 16386
 231 0220 1946     		mov	r1, r3
 232 0222 FFF7FEFF 		bl	GPIO_Init
 233 0226 4FF4A050 		mov	r0, #5120
 234 022a C4F20200 		movt	r0, 16386
 235 022e 4FF00001 		mov	r1, #0
 236 0232 4FF00C02 		mov	r2, #12
 237 0236 FFF7FEFF 		bl	GPIO_PinAFConfig
 238 023a 4FF4A050 		mov	r0, #5120
 239 023e C4F20200 		movt	r0, 16386
 240 0242 4FF00101 		mov	r1, #1
 241 0246 4FF00C02 		mov	r2, #12
 242 024a FFF7FEFF 		bl	GPIO_PinAFConfig
 243 024e 4FF4A050 		mov	r0, #5120
 244 0252 C4F20200 		movt	r0, 16386
 245 0256 4FF00201 		mov	r1, #2
 246 025a 4FF00C02 		mov	r2, #12
 247 025e FFF7FEFF 		bl	GPIO_PinAFConfig
 248 0262 4FF4A050 		mov	r0, #5120
 249 0266 C4F20200 		movt	r0, 16386
 250 026a 4FF00301 		mov	r1, #3
 251 026e 4FF00C02 		mov	r2, #12
 252 0272 FFF7FEFF 		bl	GPIO_PinAFConfig
 253 0276 4FF4A050 		mov	r0, #5120
 254 027a C4F20200 		movt	r0, 16386
 255 027e 4FF00401 		mov	r1, #4
 256 0282 4FF00C02 		mov	r2, #12
 257 0286 FFF7FEFF 		bl	GPIO_PinAFConfig
 258 028a 4FF4A050 		mov	r0, #5120
 259 028e C4F20200 		movt	r0, 16386
 260 0292 4FF00501 		mov	r1, #5
 261 0296 4FF00C02 		mov	r2, #12
 262 029a FFF7FEFF 		bl	GPIO_PinAFConfig
 263 029e 4FF4A050 		mov	r0, #5120
 264 02a2 C4F20200 		movt	r0, 16386
 265 02a6 4FF00B01 		mov	r1, #11
 266 02aa 4FF00C02 		mov	r2, #12
 267 02ae FFF7FEFF 		bl	GPIO_PinAFConfig
 268 02b2 4FF4A050 		mov	r0, #5120
 269 02b6 C4F20200 		movt	r0, 16386
 270 02ba 4FF00C01 		mov	r1, #12
 271 02be 4FF00C02 		mov	r2, #12
 272 02c2 FFF7FEFF 		bl	GPIO_PinAFConfig
 273 02c6 4FF4A050 		mov	r0, #5120
 274 02ca C4F20200 		movt	r0, 16386
 275 02ce 4FF00D01 		mov	r1, #13
 276 02d2 4FF00C02 		mov	r2, #12
 277 02d6 FFF7FEFF 		bl	GPIO_PinAFConfig
 278 02da 4FF4A050 		mov	r0, #5120
 279 02de C4F20200 		movt	r0, 16386
 280 02e2 4FF00E01 		mov	r1, #14
 281 02e6 4FF00C02 		mov	r2, #12
 282 02ea FFF7FEFF 		bl	GPIO_PinAFConfig
 283 02ee 4FF4A050 		mov	r0, #5120
 284 02f2 C4F20200 		movt	r0, 16386
 285 02f6 4FF00F01 		mov	r1, #15
 286 02fa 4FF00C02 		mov	r2, #12
 287 02fe FFF7FEFF 		bl	GPIO_PinAFConfig
 288 0302 4FF63F03 		movw	r3, #63551
 289 0306 3B60     		str	r3, [r7, #0]
 290 0308 3B46     		mov	r3, r7
 291 030a 4FF4A050 		mov	r0, #5120
 292 030e C4F20200 		movt	r0, 16386
 293 0312 1946     		mov	r1, r3
 294 0314 FFF7FEFF 		bl	GPIO_Init
 295 0318 4FF4C050 		mov	r0, #6144
 296 031c C4F20200 		movt	r0, 16386
 297 0320 4FF00001 		mov	r1, #0
 298 0324 4FF00C02 		mov	r2, #12
 299 0328 FFF7FEFF 		bl	GPIO_PinAFConfig
 300 032c 4FF4C050 		mov	r0, #6144
 301 0330 C4F20200 		movt	r0, 16386
 302 0334 4FF00101 		mov	r1, #1
 303 0338 4FF00C02 		mov	r2, #12
 304 033c FFF7FEFF 		bl	GPIO_PinAFConfig
 305 0340 4FF4C050 		mov	r0, #6144
 306 0344 C4F20200 		movt	r0, 16386
 307 0348 4FF00401 		mov	r1, #4
 308 034c 4FF00C02 		mov	r2, #12
 309 0350 FFF7FEFF 		bl	GPIO_PinAFConfig
 310 0354 4FF4C050 		mov	r0, #6144
 311 0358 C4F20200 		movt	r0, 16386
 312 035c 4FF00501 		mov	r1, #5
 313 0360 4FF00C02 		mov	r2, #12
 314 0364 FFF7FEFF 		bl	GPIO_PinAFConfig
 315 0368 4FF4C050 		mov	r0, #6144
 316 036c C4F20200 		movt	r0, 16386
 317 0370 4FF00801 		mov	r1, #8
 318 0374 4FF00C02 		mov	r2, #12
 319 0378 FFF7FEFF 		bl	GPIO_PinAFConfig
 320 037c 4FF4C050 		mov	r0, #6144
 321 0380 C4F20200 		movt	r0, 16386
 322 0384 4FF00F01 		mov	r1, #15
 323 0388 4FF00C02 		mov	r2, #12
 324 038c FFF7FEFF 		bl	GPIO_PinAFConfig
 325 0390 48F23313 		movw	r3, #33075
 326 0394 3B60     		str	r3, [r7, #0]
 327 0396 3B46     		mov	r3, r7
 328 0398 4FF4C050 		mov	r0, #6144
 329 039c C4F20200 		movt	r0, 16386
 330 03a0 1946     		mov	r1, r3
 331 03a2 FFF7FEFF 		bl	GPIO_Init
 332 03a6 07F10807 		add	r7, r7, #8
 333 03aa BD46     		mov	sp, r7
 334 03ac 80BD     		pop	{r7, pc}
 336 03ae 00BF     		.section	.text.SDRAM_InitSequence,"ax",%progbits
 337              		.align	2
 338              		.global	SDRAM_InitSequence
 339              		.thumb
 340              		.thumb_func
 342              	SDRAM_InitSequence:
 343              		@ args = 0, pretend = 0, frame = 24
 344              		@ frame_needed = 1, uses_anonymous_args = 0
 345 0000 80B5     		push	{r7, lr}
 346 0002 86B0     		sub	sp, sp, #24
 347 0004 00AF     		add	r7, sp, #0
 348 0006 4FF00003 		mov	r3, #0
 349 000a 7B61     		str	r3, [r7, #20]
 350 000c 4FF00103 		mov	r3, #1
 351 0010 7B60     		str	r3, [r7, #4]
 352 0012 4FF00803 		mov	r3, #8
 353 0016 BB60     		str	r3, [r7, #8]
 354 0018 4FF00103 		mov	r3, #1
 355 001c FB60     		str	r3, [r7, #12]
 356 001e 4FF00003 		mov	r3, #0
 357 0022 3B61     		str	r3, [r7, #16]
 358 0024 00BF     		nop
 359              	.L4:
 360 0026 4FF00100 		mov	r0, #1
 361 002a 4FF02001 		mov	r1, #32
 362 002e FFF7FEFF 		bl	FMC_GetFlagStatus
 363 0032 0346     		mov	r3, r0
 364 0034 002B     		cmp	r3, #0
 365 0036 F6D1     		bne	.L4
 366 0038 07F10403 		add	r3, r7, #4
 367 003c 1846     		mov	r0, r3
 368 003e FFF7FEFF 		bl	FMC_SDRAMCmdConfig
 369 0042 4FF00A00 		mov	r0, #10
 370 0046 FFF7FEFF 		bl	delay
 371 004a 4FF00203 		mov	r3, #2
 372 004e 7B60     		str	r3, [r7, #4]
 373 0050 4FF00803 		mov	r3, #8
 374 0054 BB60     		str	r3, [r7, #8]
 375 0056 4FF00103 		mov	r3, #1
 376 005a FB60     		str	r3, [r7, #12]
 377 005c 4FF00003 		mov	r3, #0
 378 0060 3B61     		str	r3, [r7, #16]
 379 0062 00BF     		nop
 380              	.L5:
 381 0064 4FF00100 		mov	r0, #1
 382 0068 4FF02001 		mov	r1, #32
 383 006c FFF7FEFF 		bl	FMC_GetFlagStatus
 384 0070 0346     		mov	r3, r0
 385 0072 002B     		cmp	r3, #0
 386 0074 F6D1     		bne	.L5
 387 0076 07F10403 		add	r3, r7, #4
 388 007a 1846     		mov	r0, r3
 389 007c FFF7FEFF 		bl	FMC_SDRAMCmdConfig
 390 0080 4FF00303 		mov	r3, #3
 391 0084 7B60     		str	r3, [r7, #4]
 392 0086 4FF00803 		mov	r3, #8
 393 008a BB60     		str	r3, [r7, #8]
 394 008c 4FF00403 		mov	r3, #4
 395 0090 FB60     		str	r3, [r7, #12]
 396 0092 4FF00003 		mov	r3, #0
 397 0096 3B61     		str	r3, [r7, #16]
 398 0098 00BF     		nop
 399              	.L6:
 400 009a 4FF00100 		mov	r0, #1
 401 009e 4FF02001 		mov	r1, #32
 402 00a2 FFF7FEFF 		bl	FMC_GetFlagStatus
 403 00a6 0346     		mov	r3, r0
 404 00a8 002B     		cmp	r3, #0
 405 00aa F6D1     		bne	.L6
 406 00ac 07F10403 		add	r3, r7, #4
 407 00b0 1846     		mov	r0, r3
 408 00b2 FFF7FEFF 		bl	FMC_SDRAMCmdConfig
 409 00b6 00BF     		nop
 410              	.L7:
 411 00b8 4FF00100 		mov	r0, #1
 412 00bc 4FF02001 		mov	r1, #32
 413 00c0 FFF7FEFF 		bl	FMC_GetFlagStatus
 414 00c4 0346     		mov	r3, r0
 415 00c6 002B     		cmp	r3, #0
 416 00c8 F6D1     		bne	.L7
 417 00ca 07F10403 		add	r3, r7, #4
 418 00ce 1846     		mov	r0, r3
 419 00d0 FFF7FEFF 		bl	FMC_SDRAMCmdConfig
 420 00d4 40F23123 		movw	r3, #561
 421 00d8 7B61     		str	r3, [r7, #20]
 422 00da 4FF00403 		mov	r3, #4
 423 00de 7B60     		str	r3, [r7, #4]
 424 00e0 4FF00803 		mov	r3, #8
 425 00e4 BB60     		str	r3, [r7, #8]
 426 00e6 4FF00103 		mov	r3, #1
 427 00ea FB60     		str	r3, [r7, #12]
 428 00ec 7B69     		ldr	r3, [r7, #20]
 429 00ee 3B61     		str	r3, [r7, #16]
 430 00f0 00BF     		nop
 431              	.L8:
 432 00f2 4FF00100 		mov	r0, #1
 433 00f6 4FF02001 		mov	r1, #32
 434 00fa FFF7FEFF 		bl	FMC_GetFlagStatus
 435 00fe 0346     		mov	r3, r0
 436 0100 002B     		cmp	r3, #0
 437 0102 F6D1     		bne	.L8
 438 0104 07F10403 		add	r3, r7, #4
 439 0108 1846     		mov	r0, r3
 440 010a FFF7FEFF 		bl	FMC_SDRAMCmdConfig
 441 010e 40F2AB20 		movw	r0, #683
 442 0112 FFF7FEFF 		bl	FMC_SetRefreshCount
 443 0116 00BF     		nop
 444              	.L9:
 445 0118 4FF00100 		mov	r0, #1
 446 011c 4FF02001 		mov	r1, #32
 447 0120 FFF7FEFF 		bl	FMC_GetFlagStatus
 448 0124 0346     		mov	r3, r0
 449 0126 002B     		cmp	r3, #0
 450 0128 F6D1     		bne	.L9
 451 012a 07F11807 		add	r7, r7, #24
 452 012e BD46     		mov	sp, r7
 453 0130 80BD     		pop	{r7, pc}
 455 0132 00BF     		.section	.text.SDRAM_WriteBuffer,"ax",%progbits
 456              		.align	2
 457              		.global	SDRAM_WriteBuffer
 458              		.thumb
 459              		.thumb_func
 461              	SDRAM_WriteBuffer:
 462              		@ args = 0, pretend = 0, frame = 24
 463              		@ frame_needed = 1, uses_anonymous_args = 0
 464 0000 80B5     		push	{r7, lr}
 465 0002 86B0     		sub	sp, sp, #24
 466 0004 00AF     		add	r7, sp, #0
 467 0006 F860     		str	r0, [r7, #12]
 468 0008 B960     		str	r1, [r7, #8]
 469 000a 7A60     		str	r2, [r7, #4]
 470 000c BB68     		ldr	r3, [r7, #8]
 471 000e 7B61     		str	r3, [r7, #20]
 472 0010 4FF00100 		mov	r0, #1
 473 0014 4FF00001 		mov	r1, #0
 474 0018 FFF7FEFF 		bl	FMC_SDRAMWriteProtectionConfig
 475 001c 00BF     		nop
 476              	.L11:
 477 001e 4FF00100 		mov	r0, #1
 478 0022 4FF02001 		mov	r1, #32
 479 0026 FFF7FEFF 		bl	FMC_GetFlagStatus
 480 002a 0346     		mov	r3, r0
 481 002c 002B     		cmp	r3, #0
 482 002e F6D1     		bne	.L11
 483 0030 11E0     		b	.L12
 484              	.L13:
 485 0032 7B69     		ldr	r3, [r7, #20]
 486 0034 03F15043 		add	r3, r3, #-805306368
 487 0038 FA68     		ldr	r2, [r7, #12]
 488 003a 1268     		ldr	r2, [r2, #0]
 489 003c 1A60     		str	r2, [r3, #0]
 490 003e FB68     		ldr	r3, [r7, #12]
 491 0040 03F10403 		add	r3, r3, #4
 492 0044 FB60     		str	r3, [r7, #12]
 493 0046 7B69     		ldr	r3, [r7, #20]
 494 0048 03F10403 		add	r3, r3, #4
 495 004c 7B61     		str	r3, [r7, #20]
 496 004e 7B68     		ldr	r3, [r7, #4]
 497 0050 03F1FF33 		add	r3, r3, #-1
 498 0054 7B60     		str	r3, [r7, #4]
 499              	.L12:
 500 0056 7B68     		ldr	r3, [r7, #4]
 501 0058 002B     		cmp	r3, #0
 502 005a EAD1     		bne	.L13
 503 005c 07F11807 		add	r7, r7, #24
 504 0060 BD46     		mov	sp, r7
 505 0062 80BD     		pop	{r7, pc}
 507              		.section	.text.SDRAM_ReadBuffer,"ax",%progbits
 508              		.align	2
 509              		.global	SDRAM_ReadBuffer
 510              		.thumb
 511              		.thumb_func
 513              	SDRAM_ReadBuffer:
 514              		@ args = 0, pretend = 0, frame = 24
 515              		@ frame_needed = 1, uses_anonymous_args = 0
 516 0000 80B5     		push	{r7, lr}
 517 0002 86B0     		sub	sp, sp, #24
 518 0004 00AF     		add	r7, sp, #0
 519 0006 F860     		str	r0, [r7, #12]
 520 0008 B960     		str	r1, [r7, #8]
 521 000a 7A60     		str	r2, [r7, #4]
 522 000c BB68     		ldr	r3, [r7, #8]
 523 000e 7B61     		str	r3, [r7, #20]
 524 0010 00BF     		nop
 525              	.L15:
 526 0012 4FF00100 		mov	r0, #1
 527 0016 4FF02001 		mov	r1, #32
 528 001a FFF7FEFF 		bl	FMC_GetFlagStatus
 529 001e 0346     		mov	r3, r0
 530 0020 002B     		cmp	r3, #0
 531 0022 F6D1     		bne	.L15
 532 0024 11E0     		b	.L16
 533              	.L17:
 534 0026 7B69     		ldr	r3, [r7, #20]
 535 0028 03F15043 		add	r3, r3, #-805306368
 536 002c 1A68     		ldr	r2, [r3, #0]
 537 002e FB68     		ldr	r3, [r7, #12]
 538 0030 1A60     		str	r2, [r3, #0]
 539 0032 FB68     		ldr	r3, [r7, #12]
 540 0034 03F10403 		add	r3, r3, #4
 541 0038 FB60     		str	r3, [r7, #12]
 542 003a 7B69     		ldr	r3, [r7, #20]
 543 003c 03F10403 		add	r3, r3, #4
 544 0040 7B61     		str	r3, [r7, #20]
 545 0042 7B68     		ldr	r3, [r7, #4]
 546 0044 03F1FF33 		add	r3, r3, #-1
 547 0048 7B60     		str	r3, [r7, #4]
 548              	.L16:
 549 004a 7B68     		ldr	r3, [r7, #4]
 550 004c 002B     		cmp	r3, #0
 551 004e EAD1     		bne	.L17
 552 0050 07F11807 		add	r7, r7, #24
 553 0054 BD46     		mov	sp, r7
 554 0056 80BD     		pop	{r7, pc}
 556              		.section	.text.delay,"ax",%progbits
 557              		.align	2
 558              		.thumb
 559              		.thumb_func
 561              	delay:
 562              		@ args = 0, pretend = 0, frame = 16
 563              		@ frame_needed = 1, uses_anonymous_args = 0
 564              		@ link register save eliminated.
 565 0000 80B4     		push	{r7}
 566 0002 85B0     		sub	sp, sp, #20
 567 0004 00AF     		add	r7, sp, #0
 568 0006 7860     		str	r0, [r7, #4]
 569 0008 4FF00003 		mov	r3, #0
 570 000c FB60     		str	r3, [r7, #12]
 571 000e 7A68     		ldr	r2, [r7, #4]
 572 0010 48F2A063 		movw	r3, #34464
 573 0014 C0F20103 		movt	r3, 1
 574 0018 03FB02F3 		mul	r3, r3, r2
 575 001c FB60     		str	r3, [r7, #12]
 576 001e 03E0     		b	.L19
 577              	.L20:
 578 0020 FB68     		ldr	r3, [r7, #12]
 579 0022 03F1FF33 		add	r3, r3, #-1
 580 0026 FB60     		str	r3, [r7, #12]
 581              	.L19:
 582 0028 FB68     		ldr	r3, [r7, #12]
 583 002a 002B     		cmp	r3, #0
 584 002c F8D1     		bne	.L20
 585 002e 07F11407 		add	r7, r7, #20
 586 0032 BD46     		mov	sp, r7
 587 0034 80BC     		pop	{r7}
 588 0036 7047     		bx	lr
 590              		.ident	"GCC: (GNU Tools for ARM Embedded Processors) 4.7.3 20121207 (release) [ARM/embedded-4_7-br
DEFINED SYMBOLS
                            *ABS*:00000000 stm32f429i_discovery_sdram.c
C:\Users\tompul\AppData\Local\Temp\cctdt0xe.s:18     .text.SDRAM_Init:00000000 $t
C:\Users\tompul\AppData\Local\Temp\cctdt0xe.s:23     .text.SDRAM_Init:00000000 SDRAM_Init
C:\Users\tompul\AppData\Local\Temp\cctdt0xe.s:83     .text.SDRAM_GPIOConfig:00000000 SDRAM_GPIOConfig
C:\Users\tompul\AppData\Local\Temp\cctdt0xe.s:342    .text.SDRAM_InitSequence:00000000 SDRAM_InitSequence
C:\Users\tompul\AppData\Local\Temp\cctdt0xe.s:78     .text.SDRAM_GPIOConfig:00000000 $t
C:\Users\tompul\AppData\Local\Temp\cctdt0xe.s:337    .text.SDRAM_InitSequence:00000000 $t
C:\Users\tompul\AppData\Local\Temp\cctdt0xe.s:561    .text.delay:00000000 delay
C:\Users\tompul\AppData\Local\Temp\cctdt0xe.s:456    .text.SDRAM_WriteBuffer:00000000 $t
C:\Users\tompul\AppData\Local\Temp\cctdt0xe.s:461    .text.SDRAM_WriteBuffer:00000000 SDRAM_WriteBuffer
C:\Users\tompul\AppData\Local\Temp\cctdt0xe.s:508    .text.SDRAM_ReadBuffer:00000000 $t
C:\Users\tompul\AppData\Local\Temp\cctdt0xe.s:513    .text.SDRAM_ReadBuffer:00000000 SDRAM_ReadBuffer
C:\Users\tompul\AppData\Local\Temp\cctdt0xe.s:557    .text.delay:00000000 $t

UNDEFINED SYMBOLS
RCC_AHB3PeriphClockCmd
FMC_SDRAMInit
RCC_AHB1PeriphClockCmd
GPIO_PinAFConfig
GPIO_Init
FMC_GetFlagStatus
FMC_SDRAMCmdConfig
FMC_SetRefreshCount
FMC_SDRAMWriteProtectionConfig
