   1              		.syntax unified
   2              		.cpu cortex-m4
   3              		.eabi_attribute 27, 3
   4              		.eabi_attribute 28, 1
   5              		.fpu fpv4-sp-d16
   6              		.eabi_attribute 20, 1
   7              		.eabi_attribute 21, 1
   8              		.eabi_attribute 23, 3
   9              		.eabi_attribute 24, 1
  10              		.eabi_attribute 25, 1
  11              		.eabi_attribute 26, 1
  12              		.eabi_attribute 30, 6
  13              		.eabi_attribute 34, 1
  14              		.eabi_attribute 18, 4
  15              		.thumb
  16              		.file	"bsp.c"
  17              		.section	.text.NVIC_SetPriority,"ax",%progbits
  18              		.align	2
  19              		.thumb
  20              		.thumb_func
  22              	NVIC_SetPriority:
  23              		@ args = 0, pretend = 0, frame = 8
  24              		@ frame_needed = 1, uses_anonymous_args = 0
  25              		@ link register save eliminated.
  26 0000 80B4     		push	{r7}
  27 0002 83B0     		sub	sp, sp, #12
  28 0004 00AF     		add	r7, sp, #0
  29 0006 0346     		mov	r3, r0
  30 0008 3960     		str	r1, [r7, #0]
  31 000a FB71     		strb	r3, [r7, #7]
  32 000c 97F90730 		ldrsb	r3, [r7, #7]
  33 0010 002B     		cmp	r3, #0
  34 0012 10DA     		bge	.L2
  35 0014 4FF46D43 		mov	r3, #60672
  36 0018 CEF20003 		movt	r3, 57344
  37 001c FA79     		ldrb	r2, [r7, #7]	@ zero_extendqisi2
  38 001e 02F00F02 		and	r2, r2, #15
  39 0022 A2F10401 		sub	r1, r2, #4
  40 0026 3A68     		ldr	r2, [r7, #0]
  41 0028 D2B2     		uxtb	r2, r2
  42 002a 4FEA0212 		lsl	r2, r2, #4
  43 002e D2B2     		uxtb	r2, r2
  44 0030 5B18     		adds	r3, r3, r1
  45 0032 1A76     		strb	r2, [r3, #24]
  46 0034 0DE0     		b	.L1
  47              	.L2:
  48 0036 4FF46143 		mov	r3, #57600
  49 003a CEF20003 		movt	r3, 57344
  50 003e 97F90710 		ldrsb	r1, [r7, #7]
  51 0042 3A68     		ldr	r2, [r7, #0]
  52 0044 D2B2     		uxtb	r2, r2
  53 0046 4FEA0212 		lsl	r2, r2, #4
  54 004a D2B2     		uxtb	r2, r2
  55 004c 5B18     		adds	r3, r3, r1
  56 004e 83F80023 		strb	r2, [r3, #768]
  57              	.L1:
  58 0052 07F10C07 		add	r7, r7, #12
  59 0056 BD46     		mov	sp, r7
  60 0058 80BC     		pop	{r7}
  61 005a 7047     		bx	lr
  63              		.section	.text.SysTick_Config,"ax",%progbits
  64              		.align	2
  65              		.thumb
  66              		.thumb_func
  68              	SysTick_Config:
  69              		@ args = 0, pretend = 0, frame = 8
  70              		@ frame_needed = 1, uses_anonymous_args = 0
  71 0000 80B5     		push	{r7, lr}
  72 0002 82B0     		sub	sp, sp, #8
  73 0004 00AF     		add	r7, sp, #0
  74 0006 7860     		str	r0, [r7, #4]
  75 0008 7B68     		ldr	r3, [r7, #4]
  76 000a 03F1FF32 		add	r2, r3, #-1
  77 000e 6FF07F43 		mvn	r3, #-16777216
  78 0012 9A42     		cmp	r2, r3
  79 0014 02D9     		bls	.L5
  80 0016 4FF00103 		mov	r3, #1
  81 001a 1DE0     		b	.L6
  82              	.L5:
  83 001c 4EF21003 		movw	r3, #57360
  84 0020 CEF20003 		movt	r3, 57344
  85 0024 7A68     		ldr	r2, [r7, #4]
  86 0026 02F1FF32 		add	r2, r2, #-1
  87 002a 5A60     		str	r2, [r3, #4]
  88 002c 4FF0FF30 		mov	r0, #-1
  89 0030 4FF00F01 		mov	r1, #15
  90 0034 FFF7FEFF 		bl	NVIC_SetPriority
  91 0038 4EF21003 		movw	r3, #57360
  92 003c CEF20003 		movt	r3, 57344
  93 0040 4FF00002 		mov	r2, #0
  94 0044 9A60     		str	r2, [r3, #8]
  95 0046 4EF21003 		movw	r3, #57360
  96 004a CEF20003 		movt	r3, 57344
  97 004e 4FF00702 		mov	r2, #7
  98 0052 1A60     		str	r2, [r3, #0]
  99 0054 4FF00003 		mov	r3, #0
 100              	.L6:
 101 0058 1846     		mov	r0, r3
 102 005a 07F10807 		add	r7, r7, #8
 103 005e BD46     		mov	sp, r7
 104 0060 80BD     		pop	{r7, pc}
 106              		.comm	TS_Pressed,4,4
 107              		.global	TS_Orientation
 108 0062 00BF     		.section	.bss.TS_Orientation,"aw",%nobits
 109              		.align	2
 112              	TS_Orientation:
 113 0000 00000000 		.space	4
 114              		.section	.text.LowLevel_Init,"ax",%progbits
 115              		.align	2
 116              		.global	LowLevel_Init
 117              		.thumb
 118              		.thumb_func
 120              	LowLevel_Init:
 121              		@ args = 0, pretend = 0, frame = 0
 122              		@ frame_needed = 1, uses_anonymous_args = 0
 123 0000 80B5     		push	{r7, lr}
 124 0002 00AF     		add	r7, sp, #0
 125 0004 4FF00000 		mov	r0, #0
 126 0008 FFF7FEFF 		bl	STM_EVAL_LEDInit
 127 000c 4FF00100 		mov	r0, #1
 128 0010 FFF7FEFF 		bl	STM_EVAL_LEDInit
 129 0014 FFF7FEFF 		bl	SDRAM_Init
 130 0018 4FF00000 		mov	r0, #0
 131 001c 4FF00101 		mov	r1, #1
 132 0020 FFF7FEFF 		bl	STM_EVAL_PBInit
 133 0024 4FF48050 		mov	r0, #4096
 134 0028 4FF00101 		mov	r1, #1
 135 002c FFF7FEFF 		bl	RCC_AHB1PeriphClockCmd
 136 0030 40F20003 		movw	r3, #:lower16:SystemCoreClock
 137 0034 C0F20003 		movt	r3, #:upper16:SystemCoreClock
 138 0038 1A68     		ldr	r2, [r3, #0]
 139 003a 44F6D353 		movw	r3, #19923
 140 003e C1F26203 		movt	r3, 4194
 141 0042 A3FB0213 		umull	r1, r3, r3, r2
 142 0046 4FEA9313 		lsr	r3, r3, #6
 143 004a 1846     		mov	r0, r3
 144 004c FFF7FEFF 		bl	SysTick_Config
 145 0050 4FF00003 		mov	r3, #0
 146 0054 1846     		mov	r0, r3
 147 0056 80BD     		pop	{r7, pc}
 149              		.section	.text.BSP_TSC_Init,"ax",%progbits
 150              		.align	2
 151              		.global	BSP_TSC_Init
 152              		.thumb
 153              		.thumb_func
 155              	BSP_TSC_Init:
 156              		@ args = 0, pretend = 0, frame = 0
 157              		@ frame_needed = 1, uses_anonymous_args = 0
 158 0000 80B5     		push	{r7, lr}
 159 0002 00AF     		add	r7, sp, #0
 160              	@ 342 "C:\ARM\workspace\stm32f429_lcd2\base/core_cmFunc.h" 1
 161 0004 72B6     		cpsid i
 162              	@ 0 "" 2
 163              		.thumb
 164 0006 FFF7FEFF 		bl	IOE_Config
 165              	@ 331 "C:\ARM\workspace\stm32f429_lcd2\base/core_cmFunc.h" 1
 166 000a 62B6     		cpsie i
 167              	@ 0 "" 2
 168              		.thumb
 169 000c 4FF00003 		mov	r3, #0
 170 0010 1846     		mov	r0, r3
 171 0012 80BD     		pop	{r7, pc}
 173              		.section	.text.BSP_Pointer_Update,"ax",%progbits
 174              		.align	2
 175              		.global	BSP_Pointer_Update
 176              		.thumb
 177              		.thumb_func
 179              	BSP_Pointer_Update:
 180              		@ args = 0, pretend = 0, frame = 16
 181              		@ frame_needed = 1, uses_anonymous_args = 0
 182 0000 80B5     		push	{r7, lr}
 183 0002 84B0     		sub	sp, sp, #16
 184 0004 00AF     		add	r7, sp, #0
 185 0006 FFF7FEFF 		bl	IOE_TP_GetState
 186 000a F860     		str	r0, [r7, #12]
 187 000c 40F20003 		movw	r3, #:lower16:TS_Orientation
 188 0010 C0F20003 		movt	r3, #:upper16:TS_Orientation
 189 0014 1B68     		ldr	r3, [r3, #0]
 190 0016 002B     		cmp	r3, #0
 191 0018 06D1     		bne	.L12
 192 001a FB68     		ldr	r3, [r7, #12]
 193 001c 5B88     		ldrh	r3, [r3, #2]
 194 001e 3B60     		str	r3, [r7, #0]
 195 0020 FB68     		ldr	r3, [r7, #12]
 196 0022 9B88     		ldrh	r3, [r3, #4]
 197 0024 7B60     		str	r3, [r7, #4]
 198 0026 07E0     		b	.L13
 199              	.L12:
 200 0028 FB68     		ldr	r3, [r7, #12]
 201 002a 5B88     		ldrh	r3, [r3, #2]
 202 002c 7B60     		str	r3, [r7, #4]
 203 002e FB68     		ldr	r3, [r7, #12]
 204 0030 9B88     		ldrh	r3, [r3, #4]
 205 0032 C3F5A073 		rsb	r3, r3, #320
 206 0036 3B60     		str	r3, [r7, #0]
 207              	.L13:
 208 0038 FB68     		ldr	r3, [r7, #12]
 209 003a 1B88     		ldrh	r3, [r3, #0]
 210 003c 802B     		cmp	r3, #128
 211 003e 14BF     		ite	ne
 212 0040 0023     		movne	r3, #0
 213 0042 0123     		moveq	r3, #1
 214 0044 DBB2     		uxtb	r3, r3
 215 0046 3B72     		strb	r3, [r7, #8]
 216 0048 3A7A     		ldrb	r2, [r7, #8]	@ zero_extendqisi2
 217 004a 40F20003 		movw	r3, #:lower16:prev_state.15357
 218 004e C0F20003 		movt	r3, #:upper16:prev_state.15357
 219 0052 1B78     		ldrb	r3, [r3, #0]	@ zero_extendqisi2
 220 0054 9A42     		cmp	r2, r3
 221 0056 0CD0     		beq	.L11
 222 0058 3A7A     		ldrb	r2, [r7, #8]	@ zero_extendqisi2
 223 005a 40F20003 		movw	r3, #:lower16:prev_state.15357
 224 005e C0F20003 		movt	r3, #:upper16:prev_state.15357
 225 0062 1A70     		strb	r2, [r3, #0]
 226 0064 4FF00103 		mov	r3, #1
 227 0068 7B72     		strb	r3, [r7, #9]
 228 006a 3B46     		mov	r3, r7
 229 006c 1846     		mov	r0, r3
 230 006e FFF7FEFF 		bl	GUI_TOUCH_StoreStateEx
 231              	.L11:
 232 0072 07F11007 		add	r7, r7, #16
 233 0076 BD46     		mov	sp, r7
 234 0078 80BD     		pop	{r7, pc}
 236 007a 00BF     		.section	.text.Alarm_Init,"ax",%progbits
 237              		.align	2
 238              		.global	Alarm_Init
 239              		.thumb
 240              		.thumb_func
 242              	Alarm_Init:
 243              		@ args = 0, pretend = 0, frame = 16
 244              		@ frame_needed = 1, uses_anonymous_args = 0
 245 0000 80B5     		push	{r7, lr}
 246 0002 84B0     		sub	sp, sp, #16
 247 0004 00AF     		add	r7, sp, #0
 248              	@ 342 "C:\ARM\workspace\stm32f429_lcd2\base/core_cmFunc.h" 1
 249 0006 72B6     		cpsid i
 250              	@ 0 "" 2
 251              		.thumb
 252 0008 4FF40030 		mov	r0, #131072
 253 000c FFF7FEFF 		bl	EXTI_ClearITPendingBit
 254 0010 4FF40033 		mov	r3, #131072
 255 0014 7B60     		str	r3, [r7, #4]
 256 0016 4FF00003 		mov	r3, #0
 257 001a 3B72     		strb	r3, [r7, #8]
 258 001c 4FF00803 		mov	r3, #8
 259 0020 7B72     		strb	r3, [r7, #9]
 260 0022 4FF00103 		mov	r3, #1
 261 0026 BB72     		strb	r3, [r7, #10]
 262 0028 07F10403 		add	r3, r7, #4
 263 002c 1846     		mov	r0, r3
 264 002e FFF7FEFF 		bl	EXTI_Init
 265 0032 4FF02903 		mov	r3, #41
 266 0036 3B73     		strb	r3, [r7, #12]
 267 0038 4FF00003 		mov	r3, #0
 268 003c 7B73     		strb	r3, [r7, #13]
 269 003e 4FF00003 		mov	r3, #0
 270 0042 BB73     		strb	r3, [r7, #14]
 271 0044 4FF00103 		mov	r3, #1
 272 0048 FB73     		strb	r3, [r7, #15]
 273 004a 07F10C03 		add	r3, r7, #12
 274 004e 1846     		mov	r0, r3
 275 0050 FFF7FEFF 		bl	NVIC_Init
 276              	@ 331 "C:\ARM\workspace\stm32f429_lcd2\base/core_cmFunc.h" 1
 277 0054 62B6     		cpsie i
 278              	@ 0 "" 2
 279              		.thumb
 280 0056 07F11007 		add	r7, r7, #16
 281 005a BD46     		mov	sp, r7
 282 005c 80BD     		pop	{r7, pc}
 284 005e 00BF     		.section	.bss.prev_state.15357,"aw",%nobits
 287              	prev_state.15357:
 288 0000 00       		.space	1
 289              		.ident	"GCC: (GNU Tools for ARM Embedded Processors) 4.7.3 20121207 (release) [ARM/embedded-4_7-br
DEFINED SYMBOLS
                            *ABS*:00000000 bsp.c
C:\Users\tompul\AppData\Local\Temp\cc3c5nnS.s:18     .text.NVIC_SetPriority:00000000 $t
C:\Users\tompul\AppData\Local\Temp\cc3c5nnS.s:22     .text.NVIC_SetPriority:00000000 NVIC_SetPriority
C:\Users\tompul\AppData\Local\Temp\cc3c5nnS.s:64     .text.SysTick_Config:00000000 $t
C:\Users\tompul\AppData\Local\Temp\cc3c5nnS.s:68     .text.SysTick_Config:00000000 SysTick_Config
                            *COM*:00000004 TS_Pressed
C:\Users\tompul\AppData\Local\Temp\cc3c5nnS.s:112    .bss.TS_Orientation:00000000 TS_Orientation
C:\Users\tompul\AppData\Local\Temp\cc3c5nnS.s:109    .bss.TS_Orientation:00000000 $d
C:\Users\tompul\AppData\Local\Temp\cc3c5nnS.s:115    .text.LowLevel_Init:00000000 $t
C:\Users\tompul\AppData\Local\Temp\cc3c5nnS.s:120    .text.LowLevel_Init:00000000 LowLevel_Init
C:\Users\tompul\AppData\Local\Temp\cc3c5nnS.s:150    .text.BSP_TSC_Init:00000000 $t
C:\Users\tompul\AppData\Local\Temp\cc3c5nnS.s:155    .text.BSP_TSC_Init:00000000 BSP_TSC_Init
C:\Users\tompul\AppData\Local\Temp\cc3c5nnS.s:174    .text.BSP_Pointer_Update:00000000 $t
C:\Users\tompul\AppData\Local\Temp\cc3c5nnS.s:179    .text.BSP_Pointer_Update:00000000 BSP_Pointer_Update
C:\Users\tompul\AppData\Local\Temp\cc3c5nnS.s:287    .bss.prev_state.15357:00000000 prev_state.15357
C:\Users\tompul\AppData\Local\Temp\cc3c5nnS.s:237    .text.Alarm_Init:00000000 $t
C:\Users\tompul\AppData\Local\Temp\cc3c5nnS.s:242    .text.Alarm_Init:00000000 Alarm_Init
C:\Users\tompul\AppData\Local\Temp\cc3c5nnS.s:288    .bss.prev_state.15357:00000000 $d

UNDEFINED SYMBOLS
STM_EVAL_LEDInit
SDRAM_Init
STM_EVAL_PBInit
RCC_AHB1PeriphClockCmd
SystemCoreClock
IOE_Config
IOE_TP_GetState
GUI_TOUCH_StoreStateEx
EXTI_ClearITPendingBit
EXTI_Init
NVIC_Init
