   1              		.syntax unified
   2              		.cpu cortex-m4
   3              		.fpu softvfp
   4              		.eabi_attribute 20, 1
   5              		.eabi_attribute 21, 1
   6              		.eabi_attribute 23, 3
   7              		.eabi_attribute 24, 1
   8              		.eabi_attribute 25, 1
   9              		.eabi_attribute 26, 1
  10              		.eabi_attribute 30, 6
  11              		.eabi_attribute 34, 1
  12              		.eabi_attribute 18, 4
  13              		.thumb
  14              		.file	"stm32f4xx_hash_md5.c"
  15              		.text
  16              	.Ltext0:
  17              		.cfi_sections	.debug_frame
  18              		.section	.text.HASH_MD5,"ax",%progbits
  19              		.align	2
  20              		.global	HASH_MD5
  21              		.thumb
  22              		.thumb_func
  24              	HASH_MD5:
  25              	.LFB112:
  26              		.file 1 "../STM32F4xx_StdPeriph_Driver/src/stm32f4xx_hash_md5.c"
   1:../STM32F4xx_StdPeriph_Driver/src/stm32f4xx_hash_md5.c **** /**
   2:../STM32F4xx_StdPeriph_Driver/src/stm32f4xx_hash_md5.c ****   ******************************************************************************
   3:../STM32F4xx_StdPeriph_Driver/src/stm32f4xx_hash_md5.c ****   * @file    stm32f4xx_hash_md5.c
   4:../STM32F4xx_StdPeriph_Driver/src/stm32f4xx_hash_md5.c ****   * @author  MCD Application Team
   5:../STM32F4xx_StdPeriph_Driver/src/stm32f4xx_hash_md5.c ****   * @version V1.2.1
   6:../STM32F4xx_StdPeriph_Driver/src/stm32f4xx_hash_md5.c ****   * @date    19-September-2013
   7:../STM32F4xx_StdPeriph_Driver/src/stm32f4xx_hash_md5.c ****   * @brief   This file provides high level functions to compute the HASH MD5 and
   8:../STM32F4xx_StdPeriph_Driver/src/stm32f4xx_hash_md5.c ****   *          HMAC MD5 Digest of an input message.
   9:../STM32F4xx_StdPeriph_Driver/src/stm32f4xx_hash_md5.c ****   *          It uses the stm32f4xx_hash.c/.h drivers to access the STM32F4xx HASH
  10:../STM32F4xx_StdPeriph_Driver/src/stm32f4xx_hash_md5.c ****   *          peripheral.
  11:../STM32F4xx_StdPeriph_Driver/src/stm32f4xx_hash_md5.c ****   *
  12:../STM32F4xx_StdPeriph_Driver/src/stm32f4xx_hash_md5.c **** @verbatim
  13:../STM32F4xx_StdPeriph_Driver/src/stm32f4xx_hash_md5.c ****  ===================================================================
  14:../STM32F4xx_StdPeriph_Driver/src/stm32f4xx_hash_md5.c ****                   ##### How to use this driver #####
  15:../STM32F4xx_StdPeriph_Driver/src/stm32f4xx_hash_md5.c ****  ===================================================================
  16:../STM32F4xx_StdPeriph_Driver/src/stm32f4xx_hash_md5.c ****  [..]
  17:../STM32F4xx_StdPeriph_Driver/src/stm32f4xx_hash_md5.c ****    (#) Enable The HASH controller clock using 
  18:../STM32F4xx_StdPeriph_Driver/src/stm32f4xx_hash_md5.c ****        RCC_AHB2PeriphClockCmd(RCC_AHB2Periph_HASH, ENABLE); function.
  19:../STM32F4xx_StdPeriph_Driver/src/stm32f4xx_hash_md5.c ****   
  20:../STM32F4xx_StdPeriph_Driver/src/stm32f4xx_hash_md5.c ****    (#) Calculate the HASH MD5 Digest using HASH_MD5() function.
  21:../STM32F4xx_StdPeriph_Driver/src/stm32f4xx_hash_md5.c ****   
  22:../STM32F4xx_StdPeriph_Driver/src/stm32f4xx_hash_md5.c ****    (#) Calculate the HMAC MD5 Digest using HMAC_MD5() function.
  23:../STM32F4xx_StdPeriph_Driver/src/stm32f4xx_hash_md5.c ****   
  24:../STM32F4xx_StdPeriph_Driver/src/stm32f4xx_hash_md5.c **** @endverbatim
  25:../STM32F4xx_StdPeriph_Driver/src/stm32f4xx_hash_md5.c ****   *
  26:../STM32F4xx_StdPeriph_Driver/src/stm32f4xx_hash_md5.c ****   ******************************************************************************
  27:../STM32F4xx_StdPeriph_Driver/src/stm32f4xx_hash_md5.c ****   * @attention
  28:../STM32F4xx_StdPeriph_Driver/src/stm32f4xx_hash_md5.c ****   *
  29:../STM32F4xx_StdPeriph_Driver/src/stm32f4xx_hash_md5.c ****   * <h2><center>&copy; COPYRIGHT 2013 STMicroelectronics</center></h2>
  30:../STM32F4xx_StdPeriph_Driver/src/stm32f4xx_hash_md5.c ****   *
  31:../STM32F4xx_StdPeriph_Driver/src/stm32f4xx_hash_md5.c ****   * Licensed under MCD-ST Liberty SW License Agreement V2, (the "License");
  32:../STM32F4xx_StdPeriph_Driver/src/stm32f4xx_hash_md5.c ****   * You may not use this file except in compliance with the License.
  33:../STM32F4xx_StdPeriph_Driver/src/stm32f4xx_hash_md5.c ****   * You may obtain a copy of the License at:
  34:../STM32F4xx_StdPeriph_Driver/src/stm32f4xx_hash_md5.c ****   *
  35:../STM32F4xx_StdPeriph_Driver/src/stm32f4xx_hash_md5.c ****   *        http://www.st.com/software_license_agreement_liberty_v2
  36:../STM32F4xx_StdPeriph_Driver/src/stm32f4xx_hash_md5.c ****   *
  37:../STM32F4xx_StdPeriph_Driver/src/stm32f4xx_hash_md5.c ****   * Unless required by applicable law or agreed to in writing, software 
  38:../STM32F4xx_StdPeriph_Driver/src/stm32f4xx_hash_md5.c ****   * distributed under the License is distributed on an "AS IS" BASIS, 
  39:../STM32F4xx_StdPeriph_Driver/src/stm32f4xx_hash_md5.c ****   * WITHOUT WARRANTIES OR CONDITIONS OF ANY KIND, either express or implied.
  40:../STM32F4xx_StdPeriph_Driver/src/stm32f4xx_hash_md5.c ****   * See the License for the specific language governing permissions and
  41:../STM32F4xx_StdPeriph_Driver/src/stm32f4xx_hash_md5.c ****   * limitations under the License.
  42:../STM32F4xx_StdPeriph_Driver/src/stm32f4xx_hash_md5.c ****   *
  43:../STM32F4xx_StdPeriph_Driver/src/stm32f4xx_hash_md5.c ****   ******************************************************************************
  44:../STM32F4xx_StdPeriph_Driver/src/stm32f4xx_hash_md5.c ****   */
  45:../STM32F4xx_StdPeriph_Driver/src/stm32f4xx_hash_md5.c **** 
  46:../STM32F4xx_StdPeriph_Driver/src/stm32f4xx_hash_md5.c **** /* Includes ------------------------------------------------------------------*/
  47:../STM32F4xx_StdPeriph_Driver/src/stm32f4xx_hash_md5.c **** #include "stm32f4xx_hash.h"
  48:../STM32F4xx_StdPeriph_Driver/src/stm32f4xx_hash_md5.c **** 
  49:../STM32F4xx_StdPeriph_Driver/src/stm32f4xx_hash_md5.c **** /** @addtogroup STM32F4xx_StdPeriph_Driver
  50:../STM32F4xx_StdPeriph_Driver/src/stm32f4xx_hash_md5.c ****   * @{
  51:../STM32F4xx_StdPeriph_Driver/src/stm32f4xx_hash_md5.c ****   */
  52:../STM32F4xx_StdPeriph_Driver/src/stm32f4xx_hash_md5.c **** 
  53:../STM32F4xx_StdPeriph_Driver/src/stm32f4xx_hash_md5.c **** /** @defgroup HASH 
  54:../STM32F4xx_StdPeriph_Driver/src/stm32f4xx_hash_md5.c ****   * @brief HASH driver modules
  55:../STM32F4xx_StdPeriph_Driver/src/stm32f4xx_hash_md5.c ****   * @{
  56:../STM32F4xx_StdPeriph_Driver/src/stm32f4xx_hash_md5.c ****   */
  57:../STM32F4xx_StdPeriph_Driver/src/stm32f4xx_hash_md5.c **** 
  58:../STM32F4xx_StdPeriph_Driver/src/stm32f4xx_hash_md5.c **** /* Private typedef -----------------------------------------------------------*/
  59:../STM32F4xx_StdPeriph_Driver/src/stm32f4xx_hash_md5.c **** /* Private define ------------------------------------------------------------*/
  60:../STM32F4xx_StdPeriph_Driver/src/stm32f4xx_hash_md5.c **** #define MD5BUSY_TIMEOUT    ((uint32_t) 0x00010000)
  61:../STM32F4xx_StdPeriph_Driver/src/stm32f4xx_hash_md5.c **** 
  62:../STM32F4xx_StdPeriph_Driver/src/stm32f4xx_hash_md5.c **** /* Private macro -------------------------------------------------------------*/
  63:../STM32F4xx_StdPeriph_Driver/src/stm32f4xx_hash_md5.c **** /* Private variables ---------------------------------------------------------*/
  64:../STM32F4xx_StdPeriph_Driver/src/stm32f4xx_hash_md5.c **** /* Private function prototypes -----------------------------------------------*/
  65:../STM32F4xx_StdPeriph_Driver/src/stm32f4xx_hash_md5.c **** /* Private functions ---------------------------------------------------------*/
  66:../STM32F4xx_StdPeriph_Driver/src/stm32f4xx_hash_md5.c **** 
  67:../STM32F4xx_StdPeriph_Driver/src/stm32f4xx_hash_md5.c **** /** @defgroup HASH_Private_Functions
  68:../STM32F4xx_StdPeriph_Driver/src/stm32f4xx_hash_md5.c ****   * @{
  69:../STM32F4xx_StdPeriph_Driver/src/stm32f4xx_hash_md5.c ****   */ 
  70:../STM32F4xx_StdPeriph_Driver/src/stm32f4xx_hash_md5.c **** 
  71:../STM32F4xx_StdPeriph_Driver/src/stm32f4xx_hash_md5.c **** /** @defgroup HASH_Group7 High Level MD5 functions
  72:../STM32F4xx_StdPeriph_Driver/src/stm32f4xx_hash_md5.c ****  *  @brief   High Level MD5 Hash and HMAC functions 
  73:../STM32F4xx_StdPeriph_Driver/src/stm32f4xx_hash_md5.c ****  *
  74:../STM32F4xx_StdPeriph_Driver/src/stm32f4xx_hash_md5.c **** @verbatim   
  75:../STM32F4xx_StdPeriph_Driver/src/stm32f4xx_hash_md5.c ****  ===============================================================================
  76:../STM32F4xx_StdPeriph_Driver/src/stm32f4xx_hash_md5.c ****               ##### High Level MD5 Hash and HMAC functions #####
  77:../STM32F4xx_StdPeriph_Driver/src/stm32f4xx_hash_md5.c ****  ===============================================================================
  78:../STM32F4xx_StdPeriph_Driver/src/stm32f4xx_hash_md5.c **** 
  79:../STM32F4xx_StdPeriph_Driver/src/stm32f4xx_hash_md5.c **** 
  80:../STM32F4xx_StdPeriph_Driver/src/stm32f4xx_hash_md5.c **** @endverbatim
  81:../STM32F4xx_StdPeriph_Driver/src/stm32f4xx_hash_md5.c ****   * @{
  82:../STM32F4xx_StdPeriph_Driver/src/stm32f4xx_hash_md5.c ****   */
  83:../STM32F4xx_StdPeriph_Driver/src/stm32f4xx_hash_md5.c **** 
  84:../STM32F4xx_StdPeriph_Driver/src/stm32f4xx_hash_md5.c **** /**
  85:../STM32F4xx_StdPeriph_Driver/src/stm32f4xx_hash_md5.c ****   * @brief  Compute the HASH MD5 digest.
  86:../STM32F4xx_StdPeriph_Driver/src/stm32f4xx_hash_md5.c ****   * @param  Input: pointer to the Input buffer to be treated.
  87:../STM32F4xx_StdPeriph_Driver/src/stm32f4xx_hash_md5.c ****   * @param  Ilen: length of the Input buffer.
  88:../STM32F4xx_StdPeriph_Driver/src/stm32f4xx_hash_md5.c ****   * @param  Output: the returned digest
  89:../STM32F4xx_StdPeriph_Driver/src/stm32f4xx_hash_md5.c ****   * @retval An ErrorStatus enumeration value:
  90:../STM32F4xx_StdPeriph_Driver/src/stm32f4xx_hash_md5.c ****   *          - SUCCESS: digest computation done
  91:../STM32F4xx_StdPeriph_Driver/src/stm32f4xx_hash_md5.c ****   *          - ERROR: digest computation failed
  92:../STM32F4xx_StdPeriph_Driver/src/stm32f4xx_hash_md5.c ****   */
  93:../STM32F4xx_StdPeriph_Driver/src/stm32f4xx_hash_md5.c **** ErrorStatus HASH_MD5(uint8_t *Input, uint32_t Ilen, uint8_t Output[16])
  94:../STM32F4xx_StdPeriph_Driver/src/stm32f4xx_hash_md5.c **** {
  27              		.loc 1 94 0
  28              		.cfi_startproc
  29              		@ args = 0, pretend = 0, frame = 112
  30              		@ frame_needed = 1, uses_anonymous_args = 0
  31 0000 80B5     		push	{r7, lr}
  32              	.LCFI0:
  33              		.cfi_def_cfa_offset 8
  34              		.cfi_offset 7, -8
  35              		.cfi_offset 14, -4
  36 0002 9CB0     		sub	sp, sp, #112
  37              	.LCFI1:
  38              		.cfi_def_cfa_offset 120
  39 0004 00AF     		add	r7, sp, #0
  40              	.LCFI2:
  41              		.cfi_def_cfa_register 7
  42 0006 F860     		str	r0, [r7, #12]
  43 0008 B960     		str	r1, [r7, #8]
  44 000a 7A60     		str	r2, [r7, #4]
  95:../STM32F4xx_StdPeriph_Driver/src/stm32f4xx_hash_md5.c ****   HASH_InitTypeDef MD5_HASH_InitStructure;
  96:../STM32F4xx_StdPeriph_Driver/src/stm32f4xx_hash_md5.c ****   HASH_MsgDigest MD5_MessageDigest;
  97:../STM32F4xx_StdPeriph_Driver/src/stm32f4xx_hash_md5.c ****   __IO uint16_t nbvalidbitsdata = 0;
  45              		.loc 1 97 0
  46 000c 4FF00003 		mov	r3, #0
  47 0010 7B83     		strh	r3, [r7, #26]	@ movhi
  98:../STM32F4xx_StdPeriph_Driver/src/stm32f4xx_hash_md5.c ****   uint32_t i = 0;
  48              		.loc 1 98 0
  49 0012 4FF00003 		mov	r3, #0
  50 0016 FB66     		str	r3, [r7, #108]
  99:../STM32F4xx_StdPeriph_Driver/src/stm32f4xx_hash_md5.c ****   __IO uint32_t counter = 0;
  51              		.loc 1 99 0
  52 0018 4FF00003 		mov	r3, #0
  53 001c 7B61     		str	r3, [r7, #20]
 100:../STM32F4xx_StdPeriph_Driver/src/stm32f4xx_hash_md5.c ****   uint32_t busystatus = 0;
  54              		.loc 1 100 0
  55 001e 4FF00003 		mov	r3, #0
  56 0022 3B66     		str	r3, [r7, #96]
 101:../STM32F4xx_StdPeriph_Driver/src/stm32f4xx_hash_md5.c ****   ErrorStatus status = SUCCESS;
  57              		.loc 1 101 0
  58 0024 4FF00103 		mov	r3, #1
  59 0028 87F86B30 		strb	r3, [r7, #107]
 102:../STM32F4xx_StdPeriph_Driver/src/stm32f4xx_hash_md5.c ****   uint32_t inputaddr  = (uint32_t)Input;
  60              		.loc 1 102 0
  61 002c FB68     		ldr	r3, [r7, #12]
  62 002e 7B66     		str	r3, [r7, #100]
 103:../STM32F4xx_StdPeriph_Driver/src/stm32f4xx_hash_md5.c ****   uint32_t outputaddr = (uint32_t)Output;
  63              		.loc 1 103 0
  64 0030 7B68     		ldr	r3, [r7, #4]
  65 0032 FB65     		str	r3, [r7, #92]
 104:../STM32F4xx_StdPeriph_Driver/src/stm32f4xx_hash_md5.c **** 
 105:../STM32F4xx_StdPeriph_Driver/src/stm32f4xx_hash_md5.c **** 
 106:../STM32F4xx_StdPeriph_Driver/src/stm32f4xx_hash_md5.c ****   /* Number of valid bits in last word of the Input data */
 107:../STM32F4xx_StdPeriph_Driver/src/stm32f4xx_hash_md5.c ****   nbvalidbitsdata = 8 * (Ilen % 4);
  66              		.loc 1 107 0
  67 0034 BB68     		ldr	r3, [r7, #8]
  68 0036 9BB2     		uxth	r3, r3
  69 0038 03F00303 		and	r3, r3, #3
  70 003c 9BB2     		uxth	r3, r3
  71 003e 4FEAC303 		lsl	r3, r3, #3
  72 0042 9BB2     		uxth	r3, r3
  73 0044 7B83     		strh	r3, [r7, #26]	@ movhi
 108:../STM32F4xx_StdPeriph_Driver/src/stm32f4xx_hash_md5.c **** 
 109:../STM32F4xx_StdPeriph_Driver/src/stm32f4xx_hash_md5.c ****   /* HASH peripheral initialization */
 110:../STM32F4xx_StdPeriph_Driver/src/stm32f4xx_hash_md5.c ****   HASH_DeInit();
  74              		.loc 1 110 0
  75 0046 FFF7FEFF 		bl	HASH_DeInit
 111:../STM32F4xx_StdPeriph_Driver/src/stm32f4xx_hash_md5.c **** 
 112:../STM32F4xx_StdPeriph_Driver/src/stm32f4xx_hash_md5.c ****   /* HASH Configuration */
 113:../STM32F4xx_StdPeriph_Driver/src/stm32f4xx_hash_md5.c ****   MD5_HASH_InitStructure.HASH_AlgoSelection = HASH_AlgoSelection_MD5;
  76              		.loc 1 113 0
  77 004a 4FF08003 		mov	r3, #128
  78 004e FB63     		str	r3, [r7, #60]
 114:../STM32F4xx_StdPeriph_Driver/src/stm32f4xx_hash_md5.c ****   MD5_HASH_InitStructure.HASH_AlgoMode = HASH_AlgoMode_HASH;
  79              		.loc 1 114 0
  80 0050 4FF00003 		mov	r3, #0
  81 0054 3B64     		str	r3, [r7, #64]
 115:../STM32F4xx_StdPeriph_Driver/src/stm32f4xx_hash_md5.c ****   MD5_HASH_InitStructure.HASH_DataType = HASH_DataType_8b;
  82              		.loc 1 115 0
  83 0056 4FF02003 		mov	r3, #32
  84 005a 7B64     		str	r3, [r7, #68]
 116:../STM32F4xx_StdPeriph_Driver/src/stm32f4xx_hash_md5.c ****   HASH_Init(&MD5_HASH_InitStructure);
  85              		.loc 1 116 0
  86 005c 07F13C03 		add	r3, r7, #60
  87 0060 1846     		mov	r0, r3
  88 0062 FFF7FEFF 		bl	HASH_Init
 117:../STM32F4xx_StdPeriph_Driver/src/stm32f4xx_hash_md5.c **** 
 118:../STM32F4xx_StdPeriph_Driver/src/stm32f4xx_hash_md5.c ****   /* Configure the number of valid bits in last word of the data */
 119:../STM32F4xx_StdPeriph_Driver/src/stm32f4xx_hash_md5.c ****   HASH_SetLastWordValidBitsNbr(nbvalidbitsdata);
  89              		.loc 1 119 0
  90 0066 7B8B     		ldrh	r3, [r7, #26]	@ movhi
  91 0068 9BB2     		uxth	r3, r3
  92 006a 1846     		mov	r0, r3
  93 006c FFF7FEFF 		bl	HASH_SetLastWordValidBitsNbr
 120:../STM32F4xx_StdPeriph_Driver/src/stm32f4xx_hash_md5.c **** 
 121:../STM32F4xx_StdPeriph_Driver/src/stm32f4xx_hash_md5.c ****   /* Write the Input block in the IN FIFO */
 122:../STM32F4xx_StdPeriph_Driver/src/stm32f4xx_hash_md5.c ****   for(i=0; i<Ilen; i+=4)
  94              		.loc 1 122 0
  95 0070 4FF00003 		mov	r3, #0
  96 0074 FB66     		str	r3, [r7, #108]
  97 0076 0CE0     		b	.L2
  98              	.L3:
 123:../STM32F4xx_StdPeriph_Driver/src/stm32f4xx_hash_md5.c ****   {
 124:../STM32F4xx_StdPeriph_Driver/src/stm32f4xx_hash_md5.c ****     HASH_DataIn(*(uint32_t*)inputaddr);
  99              		.loc 1 124 0 discriminator 2
 100 0078 7B6E     		ldr	r3, [r7, #100]
 101 007a 1B68     		ldr	r3, [r3, #0]
 102 007c 1846     		mov	r0, r3
 103 007e FFF7FEFF 		bl	HASH_DataIn
 125:../STM32F4xx_StdPeriph_Driver/src/stm32f4xx_hash_md5.c ****     inputaddr+=4;
 104              		.loc 1 125 0 discriminator 2
 105 0082 7B6E     		ldr	r3, [r7, #100]
 106 0084 03F10403 		add	r3, r3, #4
 107 0088 7B66     		str	r3, [r7, #100]
 122:../STM32F4xx_StdPeriph_Driver/src/stm32f4xx_hash_md5.c ****   for(i=0; i<Ilen; i+=4)
 108              		.loc 1 122 0 discriminator 2
 109 008a FB6E     		ldr	r3, [r7, #108]
 110 008c 03F10403 		add	r3, r3, #4
 111 0090 FB66     		str	r3, [r7, #108]
 112              	.L2:
 122:../STM32F4xx_StdPeriph_Driver/src/stm32f4xx_hash_md5.c ****   for(i=0; i<Ilen; i+=4)
 113              		.loc 1 122 0 is_stmt 0 discriminator 1
 114 0092 FA6E     		ldr	r2, [r7, #108]
 115 0094 BB68     		ldr	r3, [r7, #8]
 116 0096 9A42     		cmp	r2, r3
 117 0098 EED3     		bcc	.L3
 126:../STM32F4xx_StdPeriph_Driver/src/stm32f4xx_hash_md5.c ****   }
 127:../STM32F4xx_StdPeriph_Driver/src/stm32f4xx_hash_md5.c **** 
 128:../STM32F4xx_StdPeriph_Driver/src/stm32f4xx_hash_md5.c ****   /* Start the HASH processor */
 129:../STM32F4xx_StdPeriph_Driver/src/stm32f4xx_hash_md5.c ****   HASH_StartDigest();
 118              		.loc 1 129 0 is_stmt 1
 119 009a FFF7FEFF 		bl	HASH_StartDigest
 120              	.L5:
 130:../STM32F4xx_StdPeriph_Driver/src/stm32f4xx_hash_md5.c **** 
 131:../STM32F4xx_StdPeriph_Driver/src/stm32f4xx_hash_md5.c ****   /* wait until the Busy flag is RESET */
 132:../STM32F4xx_StdPeriph_Driver/src/stm32f4xx_hash_md5.c ****   do
 133:../STM32F4xx_StdPeriph_Driver/src/stm32f4xx_hash_md5.c ****   {
 134:../STM32F4xx_StdPeriph_Driver/src/stm32f4xx_hash_md5.c ****     busystatus = HASH_GetFlagStatus(HASH_FLAG_BUSY);
 121              		.loc 1 134 0 discriminator 1
 122 009e 4FF00800 		mov	r0, #8
 123 00a2 FFF7FEFF 		bl	HASH_GetFlagStatus
 124 00a6 0346     		mov	r3, r0
 125 00a8 3B66     		str	r3, [r7, #96]
 135:../STM32F4xx_StdPeriph_Driver/src/stm32f4xx_hash_md5.c ****     counter++;
 126              		.loc 1 135 0 discriminator 1
 127 00aa 7B69     		ldr	r3, [r7, #20]
 128 00ac 03F10103 		add	r3, r3, #1
 129 00b0 7B61     		str	r3, [r7, #20]
 136:../STM32F4xx_StdPeriph_Driver/src/stm32f4xx_hash_md5.c ****   }while ((counter != MD5BUSY_TIMEOUT) && (busystatus != RESET));
 130              		.loc 1 136 0 discriminator 1
 131 00b2 7B69     		ldr	r3, [r7, #20]
 132 00b4 B3F5803F 		cmp	r3, #65536
 133 00b8 02D0     		beq	.L4
 134 00ba 3B6E     		ldr	r3, [r7, #96]
 135 00bc 002B     		cmp	r3, #0
 136 00be EED1     		bne	.L5
 137              	.L4:
 137:../STM32F4xx_StdPeriph_Driver/src/stm32f4xx_hash_md5.c **** 
 138:../STM32F4xx_StdPeriph_Driver/src/stm32f4xx_hash_md5.c ****   if (busystatus != RESET)
 138              		.loc 1 138 0
 139 00c0 3B6E     		ldr	r3, [r7, #96]
 140 00c2 002B     		cmp	r3, #0
 141 00c4 04D0     		beq	.L6
 139:../STM32F4xx_StdPeriph_Driver/src/stm32f4xx_hash_md5.c ****   {
 140:../STM32F4xx_StdPeriph_Driver/src/stm32f4xx_hash_md5.c ****      status = ERROR;
 142              		.loc 1 140 0
 143 00c6 4FF00003 		mov	r3, #0
 144 00ca 87F86B30 		strb	r3, [r7, #107]
 145 00ce 28E0     		b	.L7
 146              	.L6:
 141:../STM32F4xx_StdPeriph_Driver/src/stm32f4xx_hash_md5.c ****   }
 142:../STM32F4xx_StdPeriph_Driver/src/stm32f4xx_hash_md5.c ****   else
 143:../STM32F4xx_StdPeriph_Driver/src/stm32f4xx_hash_md5.c ****   {
 144:../STM32F4xx_StdPeriph_Driver/src/stm32f4xx_hash_md5.c ****     /* Read the message digest */
 145:../STM32F4xx_StdPeriph_Driver/src/stm32f4xx_hash_md5.c ****     HASH_GetDigest(&MD5_MessageDigest);
 147              		.loc 1 145 0
 148 00d0 07F11C03 		add	r3, r7, #28
 149 00d4 1846     		mov	r0, r3
 150 00d6 FFF7FEFF 		bl	HASH_GetDigest
 146:../STM32F4xx_StdPeriph_Driver/src/stm32f4xx_hash_md5.c ****     *(uint32_t*)(outputaddr)  = __REV(MD5_MessageDigest.Data[0]);
 151              		.loc 1 146 0
 152 00da FB6D     		ldr	r3, [r7, #92]
 153 00dc FA69     		ldr	r2, [r7, #28]
 154 00de BA65     		str	r2, [r7, #88]
 155              	.LBB18:
 156              	.LBB19:
 157              		.file 2 "C:\\ARM\\workspace\\stm32f429_lcd2\\base/core_cmInstr.h"
   1:C:\ARM\workspace\stm32f429_lcd2\base\core_cmInstr.h **** /**************************************************************************//**
   2:C:\ARM\workspace\stm32f429_lcd2\base\core_cmInstr.h ****  * @file     core_cmInstr.h
   3:C:\ARM\workspace\stm32f429_lcd2\base\core_cmInstr.h ****  * @brief    CMSIS Cortex-M Core Instruction Access Header File
   4:C:\ARM\workspace\stm32f429_lcd2\base\core_cmInstr.h ****  * @version  V3.20
   5:C:\ARM\workspace\stm32f429_lcd2\base\core_cmInstr.h ****  * @date     05. March 2013
   6:C:\ARM\workspace\stm32f429_lcd2\base\core_cmInstr.h ****  *
   7:C:\ARM\workspace\stm32f429_lcd2\base\core_cmInstr.h ****  * @note
   8:C:\ARM\workspace\stm32f429_lcd2\base\core_cmInstr.h ****  *
   9:C:\ARM\workspace\stm32f429_lcd2\base\core_cmInstr.h ****  ******************************************************************************/
  10:C:\ARM\workspace\stm32f429_lcd2\base\core_cmInstr.h **** /* Copyright (c) 2009 - 2013 ARM LIMITED
  11:C:\ARM\workspace\stm32f429_lcd2\base\core_cmInstr.h **** 
  12:C:\ARM\workspace\stm32f429_lcd2\base\core_cmInstr.h ****    All rights reserved.
  13:C:\ARM\workspace\stm32f429_lcd2\base\core_cmInstr.h ****    Redistribution and use in source and binary forms, with or without
  14:C:\ARM\workspace\stm32f429_lcd2\base\core_cmInstr.h ****    modification, are permitted provided that the following conditions are met:
  15:C:\ARM\workspace\stm32f429_lcd2\base\core_cmInstr.h ****    - Redistributions of source code must retain the above copyright
  16:C:\ARM\workspace\stm32f429_lcd2\base\core_cmInstr.h ****      notice, this list of conditions and the following disclaimer.
  17:C:\ARM\workspace\stm32f429_lcd2\base\core_cmInstr.h ****    - Redistributions in binary form must reproduce the above copyright
  18:C:\ARM\workspace\stm32f429_lcd2\base\core_cmInstr.h ****      notice, this list of conditions and the following disclaimer in the
  19:C:\ARM\workspace\stm32f429_lcd2\base\core_cmInstr.h ****      documentation and/or other materials provided with the distribution.
  20:C:\ARM\workspace\stm32f429_lcd2\base\core_cmInstr.h ****    - Neither the name of ARM nor the names of its contributors may be used
  21:C:\ARM\workspace\stm32f429_lcd2\base\core_cmInstr.h ****      to endorse or promote products derived from this software without
  22:C:\ARM\workspace\stm32f429_lcd2\base\core_cmInstr.h ****      specific prior written permission.
  23:C:\ARM\workspace\stm32f429_lcd2\base\core_cmInstr.h ****    *
  24:C:\ARM\workspace\stm32f429_lcd2\base\core_cmInstr.h ****    THIS SOFTWARE IS PROVIDED BY THE COPYRIGHT HOLDERS AND CONTRIBUTORS "AS IS"
  25:C:\ARM\workspace\stm32f429_lcd2\base\core_cmInstr.h ****    AND ANY EXPRESS OR IMPLIED WARRANTIES, INCLUDING, BUT NOT LIMITED TO, THE
  26:C:\ARM\workspace\stm32f429_lcd2\base\core_cmInstr.h ****    IMPLIED WARRANTIES OF MERCHANTABILITY AND FITNESS FOR A PARTICULAR PURPOSE
  27:C:\ARM\workspace\stm32f429_lcd2\base\core_cmInstr.h ****    ARE DISCLAIMED. IN NO EVENT SHALL COPYRIGHT HOLDERS AND CONTRIBUTORS BE
  28:C:\ARM\workspace\stm32f429_lcd2\base\core_cmInstr.h ****    LIABLE FOR ANY DIRECT, INDIRECT, INCIDENTAL, SPECIAL, EXEMPLARY, OR
  29:C:\ARM\workspace\stm32f429_lcd2\base\core_cmInstr.h ****    CONSEQUENTIAL DAMAGES (INCLUDING, BUT NOT LIMITED TO, PROCUREMENT OF
  30:C:\ARM\workspace\stm32f429_lcd2\base\core_cmInstr.h ****    SUBSTITUTE GOODS OR SERVICES; LOSS OF USE, DATA, OR PROFITS; OR BUSINESS
  31:C:\ARM\workspace\stm32f429_lcd2\base\core_cmInstr.h ****    INTERRUPTION) HOWEVER CAUSED AND ON ANY THEORY OF LIABILITY, WHETHER IN
  32:C:\ARM\workspace\stm32f429_lcd2\base\core_cmInstr.h ****    CONTRACT, STRICT LIABILITY, OR TORT (INCLUDING NEGLIGENCE OR OTHERWISE)
  33:C:\ARM\workspace\stm32f429_lcd2\base\core_cmInstr.h ****    ARISING IN ANY WAY OUT OF THE USE OF THIS SOFTWARE, EVEN IF ADVISED OF THE
  34:C:\ARM\workspace\stm32f429_lcd2\base\core_cmInstr.h ****    POSSIBILITY OF SUCH DAMAGE.
  35:C:\ARM\workspace\stm32f429_lcd2\base\core_cmInstr.h ****    ---------------------------------------------------------------------------*/
  36:C:\ARM\workspace\stm32f429_lcd2\base\core_cmInstr.h **** 
  37:C:\ARM\workspace\stm32f429_lcd2\base\core_cmInstr.h **** 
  38:C:\ARM\workspace\stm32f429_lcd2\base\core_cmInstr.h **** #ifndef __CORE_CMINSTR_H
  39:C:\ARM\workspace\stm32f429_lcd2\base\core_cmInstr.h **** #define __CORE_CMINSTR_H
  40:C:\ARM\workspace\stm32f429_lcd2\base\core_cmInstr.h **** 
  41:C:\ARM\workspace\stm32f429_lcd2\base\core_cmInstr.h **** 
  42:C:\ARM\workspace\stm32f429_lcd2\base\core_cmInstr.h **** /* ##########################  Core Instruction Access  ######################### */
  43:C:\ARM\workspace\stm32f429_lcd2\base\core_cmInstr.h **** /** \defgroup CMSIS_Core_InstructionInterface CMSIS Core Instruction Interface
  44:C:\ARM\workspace\stm32f429_lcd2\base\core_cmInstr.h ****   Access to dedicated instructions
  45:C:\ARM\workspace\stm32f429_lcd2\base\core_cmInstr.h ****   @{
  46:C:\ARM\workspace\stm32f429_lcd2\base\core_cmInstr.h **** */
  47:C:\ARM\workspace\stm32f429_lcd2\base\core_cmInstr.h **** 
  48:C:\ARM\workspace\stm32f429_lcd2\base\core_cmInstr.h **** #if   defined ( __CC_ARM ) /*------------------RealView Compiler -----------------*/
  49:C:\ARM\workspace\stm32f429_lcd2\base\core_cmInstr.h **** /* ARM armcc specific functions */
  50:C:\ARM\workspace\stm32f429_lcd2\base\core_cmInstr.h **** 
  51:C:\ARM\workspace\stm32f429_lcd2\base\core_cmInstr.h **** #if (__ARMCC_VERSION < 400677)
  52:C:\ARM\workspace\stm32f429_lcd2\base\core_cmInstr.h ****   #error "Please use ARM Compiler Toolchain V4.0.677 or later!"
  53:C:\ARM\workspace\stm32f429_lcd2\base\core_cmInstr.h **** #endif
  54:C:\ARM\workspace\stm32f429_lcd2\base\core_cmInstr.h **** 
  55:C:\ARM\workspace\stm32f429_lcd2\base\core_cmInstr.h **** 
  56:C:\ARM\workspace\stm32f429_lcd2\base\core_cmInstr.h **** /** \brief  No Operation
  57:C:\ARM\workspace\stm32f429_lcd2\base\core_cmInstr.h **** 
  58:C:\ARM\workspace\stm32f429_lcd2\base\core_cmInstr.h ****     No Operation does nothing. This instruction can be used for code alignment purposes.
  59:C:\ARM\workspace\stm32f429_lcd2\base\core_cmInstr.h ****  */
  60:C:\ARM\workspace\stm32f429_lcd2\base\core_cmInstr.h **** #define __NOP                             __nop
  61:C:\ARM\workspace\stm32f429_lcd2\base\core_cmInstr.h **** 
  62:C:\ARM\workspace\stm32f429_lcd2\base\core_cmInstr.h **** 
  63:C:\ARM\workspace\stm32f429_lcd2\base\core_cmInstr.h **** /** \brief  Wait For Interrupt
  64:C:\ARM\workspace\stm32f429_lcd2\base\core_cmInstr.h **** 
  65:C:\ARM\workspace\stm32f429_lcd2\base\core_cmInstr.h ****     Wait For Interrupt is a hint instruction that suspends execution
  66:C:\ARM\workspace\stm32f429_lcd2\base\core_cmInstr.h ****     until one of a number of events occurs.
  67:C:\ARM\workspace\stm32f429_lcd2\base\core_cmInstr.h ****  */
  68:C:\ARM\workspace\stm32f429_lcd2\base\core_cmInstr.h **** #define __WFI                             __wfi
  69:C:\ARM\workspace\stm32f429_lcd2\base\core_cmInstr.h **** 
  70:C:\ARM\workspace\stm32f429_lcd2\base\core_cmInstr.h **** 
  71:C:\ARM\workspace\stm32f429_lcd2\base\core_cmInstr.h **** /** \brief  Wait For Event
  72:C:\ARM\workspace\stm32f429_lcd2\base\core_cmInstr.h **** 
  73:C:\ARM\workspace\stm32f429_lcd2\base\core_cmInstr.h ****     Wait For Event is a hint instruction that permits the processor to enter
  74:C:\ARM\workspace\stm32f429_lcd2\base\core_cmInstr.h ****     a low-power state until one of a number of events occurs.
  75:C:\ARM\workspace\stm32f429_lcd2\base\core_cmInstr.h ****  */
  76:C:\ARM\workspace\stm32f429_lcd2\base\core_cmInstr.h **** #define __WFE                             __wfe
  77:C:\ARM\workspace\stm32f429_lcd2\base\core_cmInstr.h **** 
  78:C:\ARM\workspace\stm32f429_lcd2\base\core_cmInstr.h **** 
  79:C:\ARM\workspace\stm32f429_lcd2\base\core_cmInstr.h **** /** \brief  Send Event
  80:C:\ARM\workspace\stm32f429_lcd2\base\core_cmInstr.h **** 
  81:C:\ARM\workspace\stm32f429_lcd2\base\core_cmInstr.h ****     Send Event is a hint instruction. It causes an event to be signaled to the CPU.
  82:C:\ARM\workspace\stm32f429_lcd2\base\core_cmInstr.h ****  */
  83:C:\ARM\workspace\stm32f429_lcd2\base\core_cmInstr.h **** #define __SEV                             __sev
  84:C:\ARM\workspace\stm32f429_lcd2\base\core_cmInstr.h **** 
  85:C:\ARM\workspace\stm32f429_lcd2\base\core_cmInstr.h **** 
  86:C:\ARM\workspace\stm32f429_lcd2\base\core_cmInstr.h **** /** \brief  Instruction Synchronization Barrier
  87:C:\ARM\workspace\stm32f429_lcd2\base\core_cmInstr.h **** 
  88:C:\ARM\workspace\stm32f429_lcd2\base\core_cmInstr.h ****     Instruction Synchronization Barrier flushes the pipeline in the processor,
  89:C:\ARM\workspace\stm32f429_lcd2\base\core_cmInstr.h ****     so that all instructions following the ISB are fetched from cache or
  90:C:\ARM\workspace\stm32f429_lcd2\base\core_cmInstr.h ****     memory, after the instruction has been completed.
  91:C:\ARM\workspace\stm32f429_lcd2\base\core_cmInstr.h ****  */
  92:C:\ARM\workspace\stm32f429_lcd2\base\core_cmInstr.h **** #define __ISB()                           __isb(0xF)
  93:C:\ARM\workspace\stm32f429_lcd2\base\core_cmInstr.h **** 
  94:C:\ARM\workspace\stm32f429_lcd2\base\core_cmInstr.h **** 
  95:C:\ARM\workspace\stm32f429_lcd2\base\core_cmInstr.h **** /** \brief  Data Synchronization Barrier
  96:C:\ARM\workspace\stm32f429_lcd2\base\core_cmInstr.h **** 
  97:C:\ARM\workspace\stm32f429_lcd2\base\core_cmInstr.h ****     This function acts as a special kind of Data Memory Barrier.
  98:C:\ARM\workspace\stm32f429_lcd2\base\core_cmInstr.h ****     It completes when all explicit memory accesses before this instruction complete.
  99:C:\ARM\workspace\stm32f429_lcd2\base\core_cmInstr.h ****  */
 100:C:\ARM\workspace\stm32f429_lcd2\base\core_cmInstr.h **** #define __DSB()                           __dsb(0xF)
 101:C:\ARM\workspace\stm32f429_lcd2\base\core_cmInstr.h **** 
 102:C:\ARM\workspace\stm32f429_lcd2\base\core_cmInstr.h **** 
 103:C:\ARM\workspace\stm32f429_lcd2\base\core_cmInstr.h **** /** \brief  Data Memory Barrier
 104:C:\ARM\workspace\stm32f429_lcd2\base\core_cmInstr.h **** 
 105:C:\ARM\workspace\stm32f429_lcd2\base\core_cmInstr.h ****     This function ensures the apparent order of the explicit memory operations before
 106:C:\ARM\workspace\stm32f429_lcd2\base\core_cmInstr.h ****     and after the instruction, without ensuring their completion.
 107:C:\ARM\workspace\stm32f429_lcd2\base\core_cmInstr.h ****  */
 108:C:\ARM\workspace\stm32f429_lcd2\base\core_cmInstr.h **** #define __DMB()                           __dmb(0xF)
 109:C:\ARM\workspace\stm32f429_lcd2\base\core_cmInstr.h **** 
 110:C:\ARM\workspace\stm32f429_lcd2\base\core_cmInstr.h **** 
 111:C:\ARM\workspace\stm32f429_lcd2\base\core_cmInstr.h **** /** \brief  Reverse byte order (32 bit)
 112:C:\ARM\workspace\stm32f429_lcd2\base\core_cmInstr.h **** 
 113:C:\ARM\workspace\stm32f429_lcd2\base\core_cmInstr.h ****     This function reverses the byte order in integer value.
 114:C:\ARM\workspace\stm32f429_lcd2\base\core_cmInstr.h **** 
 115:C:\ARM\workspace\stm32f429_lcd2\base\core_cmInstr.h ****     \param [in]    value  Value to reverse
 116:C:\ARM\workspace\stm32f429_lcd2\base\core_cmInstr.h ****     \return               Reversed value
 117:C:\ARM\workspace\stm32f429_lcd2\base\core_cmInstr.h ****  */
 118:C:\ARM\workspace\stm32f429_lcd2\base\core_cmInstr.h **** #define __REV                             __rev
 119:C:\ARM\workspace\stm32f429_lcd2\base\core_cmInstr.h **** 
 120:C:\ARM\workspace\stm32f429_lcd2\base\core_cmInstr.h **** 
 121:C:\ARM\workspace\stm32f429_lcd2\base\core_cmInstr.h **** /** \brief  Reverse byte order (16 bit)
 122:C:\ARM\workspace\stm32f429_lcd2\base\core_cmInstr.h **** 
 123:C:\ARM\workspace\stm32f429_lcd2\base\core_cmInstr.h ****     This function reverses the byte order in two unsigned short values.
 124:C:\ARM\workspace\stm32f429_lcd2\base\core_cmInstr.h **** 
 125:C:\ARM\workspace\stm32f429_lcd2\base\core_cmInstr.h ****     \param [in]    value  Value to reverse
 126:C:\ARM\workspace\stm32f429_lcd2\base\core_cmInstr.h ****     \return               Reversed value
 127:C:\ARM\workspace\stm32f429_lcd2\base\core_cmInstr.h ****  */
 128:C:\ARM\workspace\stm32f429_lcd2\base\core_cmInstr.h **** #ifndef __NO_EMBEDDED_ASM
 129:C:\ARM\workspace\stm32f429_lcd2\base\core_cmInstr.h **** __attribute__((section(".rev16_text"))) __STATIC_INLINE __ASM uint32_t __REV16(uint32_t value)
 130:C:\ARM\workspace\stm32f429_lcd2\base\core_cmInstr.h **** {
 131:C:\ARM\workspace\stm32f429_lcd2\base\core_cmInstr.h ****   rev16 r0, r0
 132:C:\ARM\workspace\stm32f429_lcd2\base\core_cmInstr.h ****   bx lr
 133:C:\ARM\workspace\stm32f429_lcd2\base\core_cmInstr.h **** }
 134:C:\ARM\workspace\stm32f429_lcd2\base\core_cmInstr.h **** #endif
 135:C:\ARM\workspace\stm32f429_lcd2\base\core_cmInstr.h **** 
 136:C:\ARM\workspace\stm32f429_lcd2\base\core_cmInstr.h **** /** \brief  Reverse byte order in signed short value
 137:C:\ARM\workspace\stm32f429_lcd2\base\core_cmInstr.h **** 
 138:C:\ARM\workspace\stm32f429_lcd2\base\core_cmInstr.h ****     This function reverses the byte order in a signed short value with sign extension to integer.
 139:C:\ARM\workspace\stm32f429_lcd2\base\core_cmInstr.h **** 
 140:C:\ARM\workspace\stm32f429_lcd2\base\core_cmInstr.h ****     \param [in]    value  Value to reverse
 141:C:\ARM\workspace\stm32f429_lcd2\base\core_cmInstr.h ****     \return               Reversed value
 142:C:\ARM\workspace\stm32f429_lcd2\base\core_cmInstr.h ****  */
 143:C:\ARM\workspace\stm32f429_lcd2\base\core_cmInstr.h **** #ifndef __NO_EMBEDDED_ASM
 144:C:\ARM\workspace\stm32f429_lcd2\base\core_cmInstr.h **** __attribute__((section(".revsh_text"))) __STATIC_INLINE __ASM int32_t __REVSH(int32_t value)
 145:C:\ARM\workspace\stm32f429_lcd2\base\core_cmInstr.h **** {
 146:C:\ARM\workspace\stm32f429_lcd2\base\core_cmInstr.h ****   revsh r0, r0
 147:C:\ARM\workspace\stm32f429_lcd2\base\core_cmInstr.h ****   bx lr
 148:C:\ARM\workspace\stm32f429_lcd2\base\core_cmInstr.h **** }
 149:C:\ARM\workspace\stm32f429_lcd2\base\core_cmInstr.h **** #endif
 150:C:\ARM\workspace\stm32f429_lcd2\base\core_cmInstr.h **** 
 151:C:\ARM\workspace\stm32f429_lcd2\base\core_cmInstr.h **** 
 152:C:\ARM\workspace\stm32f429_lcd2\base\core_cmInstr.h **** /** \brief  Rotate Right in unsigned value (32 bit)
 153:C:\ARM\workspace\stm32f429_lcd2\base\core_cmInstr.h **** 
 154:C:\ARM\workspace\stm32f429_lcd2\base\core_cmInstr.h ****     This function Rotate Right (immediate) provides the value of the contents of a register rotated
 155:C:\ARM\workspace\stm32f429_lcd2\base\core_cmInstr.h **** 
 156:C:\ARM\workspace\stm32f429_lcd2\base\core_cmInstr.h ****     \param [in]    value  Value to rotate
 157:C:\ARM\workspace\stm32f429_lcd2\base\core_cmInstr.h ****     \param [in]    value  Number of Bits to rotate
 158:C:\ARM\workspace\stm32f429_lcd2\base\core_cmInstr.h ****     \return               Rotated value
 159:C:\ARM\workspace\stm32f429_lcd2\base\core_cmInstr.h ****  */
 160:C:\ARM\workspace\stm32f429_lcd2\base\core_cmInstr.h **** #define __ROR                             __ror
 161:C:\ARM\workspace\stm32f429_lcd2\base\core_cmInstr.h **** 
 162:C:\ARM\workspace\stm32f429_lcd2\base\core_cmInstr.h **** 
 163:C:\ARM\workspace\stm32f429_lcd2\base\core_cmInstr.h **** /** \brief  Breakpoint
 164:C:\ARM\workspace\stm32f429_lcd2\base\core_cmInstr.h **** 
 165:C:\ARM\workspace\stm32f429_lcd2\base\core_cmInstr.h ****     This function causes the processor to enter Debug state.
 166:C:\ARM\workspace\stm32f429_lcd2\base\core_cmInstr.h ****     Debug tools can use this to investigate system state when the instruction at a particular addre
 167:C:\ARM\workspace\stm32f429_lcd2\base\core_cmInstr.h **** 
 168:C:\ARM\workspace\stm32f429_lcd2\base\core_cmInstr.h ****     \param [in]    value  is ignored by the processor.
 169:C:\ARM\workspace\stm32f429_lcd2\base\core_cmInstr.h ****                    If required, a debugger can use it to store additional information about the bre
 170:C:\ARM\workspace\stm32f429_lcd2\base\core_cmInstr.h ****  */
 171:C:\ARM\workspace\stm32f429_lcd2\base\core_cmInstr.h **** #define __BKPT(value)                       __breakpoint(value)
 172:C:\ARM\workspace\stm32f429_lcd2\base\core_cmInstr.h **** 
 173:C:\ARM\workspace\stm32f429_lcd2\base\core_cmInstr.h **** 
 174:C:\ARM\workspace\stm32f429_lcd2\base\core_cmInstr.h **** #if       (__CORTEX_M >= 0x03)
 175:C:\ARM\workspace\stm32f429_lcd2\base\core_cmInstr.h **** 
 176:C:\ARM\workspace\stm32f429_lcd2\base\core_cmInstr.h **** /** \brief  Reverse bit order of value
 177:C:\ARM\workspace\stm32f429_lcd2\base\core_cmInstr.h **** 
 178:C:\ARM\workspace\stm32f429_lcd2\base\core_cmInstr.h ****     This function reverses the bit order of the given value.
 179:C:\ARM\workspace\stm32f429_lcd2\base\core_cmInstr.h **** 
 180:C:\ARM\workspace\stm32f429_lcd2\base\core_cmInstr.h ****     \param [in]    value  Value to reverse
 181:C:\ARM\workspace\stm32f429_lcd2\base\core_cmInstr.h ****     \return               Reversed value
 182:C:\ARM\workspace\stm32f429_lcd2\base\core_cmInstr.h ****  */
 183:C:\ARM\workspace\stm32f429_lcd2\base\core_cmInstr.h **** #define __RBIT                            __rbit
 184:C:\ARM\workspace\stm32f429_lcd2\base\core_cmInstr.h **** 
 185:C:\ARM\workspace\stm32f429_lcd2\base\core_cmInstr.h **** 
 186:C:\ARM\workspace\stm32f429_lcd2\base\core_cmInstr.h **** /** \brief  LDR Exclusive (8 bit)
 187:C:\ARM\workspace\stm32f429_lcd2\base\core_cmInstr.h **** 
 188:C:\ARM\workspace\stm32f429_lcd2\base\core_cmInstr.h ****     This function performs a exclusive LDR command for 8 bit value.
 189:C:\ARM\workspace\stm32f429_lcd2\base\core_cmInstr.h **** 
 190:C:\ARM\workspace\stm32f429_lcd2\base\core_cmInstr.h ****     \param [in]    ptr  Pointer to data
 191:C:\ARM\workspace\stm32f429_lcd2\base\core_cmInstr.h ****     \return             value of type uint8_t at (*ptr)
 192:C:\ARM\workspace\stm32f429_lcd2\base\core_cmInstr.h ****  */
 193:C:\ARM\workspace\stm32f429_lcd2\base\core_cmInstr.h **** #define __LDREXB(ptr)                     ((uint8_t ) __ldrex(ptr))
 194:C:\ARM\workspace\stm32f429_lcd2\base\core_cmInstr.h **** 
 195:C:\ARM\workspace\stm32f429_lcd2\base\core_cmInstr.h **** 
 196:C:\ARM\workspace\stm32f429_lcd2\base\core_cmInstr.h **** /** \brief  LDR Exclusive (16 bit)
 197:C:\ARM\workspace\stm32f429_lcd2\base\core_cmInstr.h **** 
 198:C:\ARM\workspace\stm32f429_lcd2\base\core_cmInstr.h ****     This function performs a exclusive LDR command for 16 bit values.
 199:C:\ARM\workspace\stm32f429_lcd2\base\core_cmInstr.h **** 
 200:C:\ARM\workspace\stm32f429_lcd2\base\core_cmInstr.h ****     \param [in]    ptr  Pointer to data
 201:C:\ARM\workspace\stm32f429_lcd2\base\core_cmInstr.h ****     \return        value of type uint16_t at (*ptr)
 202:C:\ARM\workspace\stm32f429_lcd2\base\core_cmInstr.h ****  */
 203:C:\ARM\workspace\stm32f429_lcd2\base\core_cmInstr.h **** #define __LDREXH(ptr)                     ((uint16_t) __ldrex(ptr))
 204:C:\ARM\workspace\stm32f429_lcd2\base\core_cmInstr.h **** 
 205:C:\ARM\workspace\stm32f429_lcd2\base\core_cmInstr.h **** 
 206:C:\ARM\workspace\stm32f429_lcd2\base\core_cmInstr.h **** /** \brief  LDR Exclusive (32 bit)
 207:C:\ARM\workspace\stm32f429_lcd2\base\core_cmInstr.h **** 
 208:C:\ARM\workspace\stm32f429_lcd2\base\core_cmInstr.h ****     This function performs a exclusive LDR command for 32 bit values.
 209:C:\ARM\workspace\stm32f429_lcd2\base\core_cmInstr.h **** 
 210:C:\ARM\workspace\stm32f429_lcd2\base\core_cmInstr.h ****     \param [in]    ptr  Pointer to data
 211:C:\ARM\workspace\stm32f429_lcd2\base\core_cmInstr.h ****     \return        value of type uint32_t at (*ptr)
 212:C:\ARM\workspace\stm32f429_lcd2\base\core_cmInstr.h ****  */
 213:C:\ARM\workspace\stm32f429_lcd2\base\core_cmInstr.h **** #define __LDREXW(ptr)                     ((uint32_t ) __ldrex(ptr))
 214:C:\ARM\workspace\stm32f429_lcd2\base\core_cmInstr.h **** 
 215:C:\ARM\workspace\stm32f429_lcd2\base\core_cmInstr.h **** 
 216:C:\ARM\workspace\stm32f429_lcd2\base\core_cmInstr.h **** /** \brief  STR Exclusive (8 bit)
 217:C:\ARM\workspace\stm32f429_lcd2\base\core_cmInstr.h **** 
 218:C:\ARM\workspace\stm32f429_lcd2\base\core_cmInstr.h ****     This function performs a exclusive STR command for 8 bit values.
 219:C:\ARM\workspace\stm32f429_lcd2\base\core_cmInstr.h **** 
 220:C:\ARM\workspace\stm32f429_lcd2\base\core_cmInstr.h ****     \param [in]  value  Value to store
 221:C:\ARM\workspace\stm32f429_lcd2\base\core_cmInstr.h ****     \param [in]    ptr  Pointer to location
 222:C:\ARM\workspace\stm32f429_lcd2\base\core_cmInstr.h ****     \return          0  Function succeeded
 223:C:\ARM\workspace\stm32f429_lcd2\base\core_cmInstr.h ****     \return          1  Function failed
 224:C:\ARM\workspace\stm32f429_lcd2\base\core_cmInstr.h ****  */
 225:C:\ARM\workspace\stm32f429_lcd2\base\core_cmInstr.h **** #define __STREXB(value, ptr)              __strex(value, ptr)
 226:C:\ARM\workspace\stm32f429_lcd2\base\core_cmInstr.h **** 
 227:C:\ARM\workspace\stm32f429_lcd2\base\core_cmInstr.h **** 
 228:C:\ARM\workspace\stm32f429_lcd2\base\core_cmInstr.h **** /** \brief  STR Exclusive (16 bit)
 229:C:\ARM\workspace\stm32f429_lcd2\base\core_cmInstr.h **** 
 230:C:\ARM\workspace\stm32f429_lcd2\base\core_cmInstr.h ****     This function performs a exclusive STR command for 16 bit values.
 231:C:\ARM\workspace\stm32f429_lcd2\base\core_cmInstr.h **** 
 232:C:\ARM\workspace\stm32f429_lcd2\base\core_cmInstr.h ****     \param [in]  value  Value to store
 233:C:\ARM\workspace\stm32f429_lcd2\base\core_cmInstr.h ****     \param [in]    ptr  Pointer to location
 234:C:\ARM\workspace\stm32f429_lcd2\base\core_cmInstr.h ****     \return          0  Function succeeded
 235:C:\ARM\workspace\stm32f429_lcd2\base\core_cmInstr.h ****     \return          1  Function failed
 236:C:\ARM\workspace\stm32f429_lcd2\base\core_cmInstr.h ****  */
 237:C:\ARM\workspace\stm32f429_lcd2\base\core_cmInstr.h **** #define __STREXH(value, ptr)              __strex(value, ptr)
 238:C:\ARM\workspace\stm32f429_lcd2\base\core_cmInstr.h **** 
 239:C:\ARM\workspace\stm32f429_lcd2\base\core_cmInstr.h **** 
 240:C:\ARM\workspace\stm32f429_lcd2\base\core_cmInstr.h **** /** \brief  STR Exclusive (32 bit)
 241:C:\ARM\workspace\stm32f429_lcd2\base\core_cmInstr.h **** 
 242:C:\ARM\workspace\stm32f429_lcd2\base\core_cmInstr.h ****     This function performs a exclusive STR command for 32 bit values.
 243:C:\ARM\workspace\stm32f429_lcd2\base\core_cmInstr.h **** 
 244:C:\ARM\workspace\stm32f429_lcd2\base\core_cmInstr.h ****     \param [in]  value  Value to store
 245:C:\ARM\workspace\stm32f429_lcd2\base\core_cmInstr.h ****     \param [in]    ptr  Pointer to location
 246:C:\ARM\workspace\stm32f429_lcd2\base\core_cmInstr.h ****     \return          0  Function succeeded
 247:C:\ARM\workspace\stm32f429_lcd2\base\core_cmInstr.h ****     \return          1  Function failed
 248:C:\ARM\workspace\stm32f429_lcd2\base\core_cmInstr.h ****  */
 249:C:\ARM\workspace\stm32f429_lcd2\base\core_cmInstr.h **** #define __STREXW(value, ptr)              __strex(value, ptr)
 250:C:\ARM\workspace\stm32f429_lcd2\base\core_cmInstr.h **** 
 251:C:\ARM\workspace\stm32f429_lcd2\base\core_cmInstr.h **** 
 252:C:\ARM\workspace\stm32f429_lcd2\base\core_cmInstr.h **** /** \brief  Remove the exclusive lock
 253:C:\ARM\workspace\stm32f429_lcd2\base\core_cmInstr.h **** 
 254:C:\ARM\workspace\stm32f429_lcd2\base\core_cmInstr.h ****     This function removes the exclusive lock which is created by LDREX.
 255:C:\ARM\workspace\stm32f429_lcd2\base\core_cmInstr.h **** 
 256:C:\ARM\workspace\stm32f429_lcd2\base\core_cmInstr.h ****  */
 257:C:\ARM\workspace\stm32f429_lcd2\base\core_cmInstr.h **** #define __CLREX                           __clrex
 258:C:\ARM\workspace\stm32f429_lcd2\base\core_cmInstr.h **** 
 259:C:\ARM\workspace\stm32f429_lcd2\base\core_cmInstr.h **** 
 260:C:\ARM\workspace\stm32f429_lcd2\base\core_cmInstr.h **** /** \brief  Signed Saturate
 261:C:\ARM\workspace\stm32f429_lcd2\base\core_cmInstr.h **** 
 262:C:\ARM\workspace\stm32f429_lcd2\base\core_cmInstr.h ****     This function saturates a signed value.
 263:C:\ARM\workspace\stm32f429_lcd2\base\core_cmInstr.h **** 
 264:C:\ARM\workspace\stm32f429_lcd2\base\core_cmInstr.h ****     \param [in]  value  Value to be saturated
 265:C:\ARM\workspace\stm32f429_lcd2\base\core_cmInstr.h ****     \param [in]    sat  Bit position to saturate to (1..32)
 266:C:\ARM\workspace\stm32f429_lcd2\base\core_cmInstr.h ****     \return             Saturated value
 267:C:\ARM\workspace\stm32f429_lcd2\base\core_cmInstr.h ****  */
 268:C:\ARM\workspace\stm32f429_lcd2\base\core_cmInstr.h **** #define __SSAT                            __ssat
 269:C:\ARM\workspace\stm32f429_lcd2\base\core_cmInstr.h **** 
 270:C:\ARM\workspace\stm32f429_lcd2\base\core_cmInstr.h **** 
 271:C:\ARM\workspace\stm32f429_lcd2\base\core_cmInstr.h **** /** \brief  Unsigned Saturate
 272:C:\ARM\workspace\stm32f429_lcd2\base\core_cmInstr.h **** 
 273:C:\ARM\workspace\stm32f429_lcd2\base\core_cmInstr.h ****     This function saturates an unsigned value.
 274:C:\ARM\workspace\stm32f429_lcd2\base\core_cmInstr.h **** 
 275:C:\ARM\workspace\stm32f429_lcd2\base\core_cmInstr.h ****     \param [in]  value  Value to be saturated
 276:C:\ARM\workspace\stm32f429_lcd2\base\core_cmInstr.h ****     \param [in]    sat  Bit position to saturate to (0..31)
 277:C:\ARM\workspace\stm32f429_lcd2\base\core_cmInstr.h ****     \return             Saturated value
 278:C:\ARM\workspace\stm32f429_lcd2\base\core_cmInstr.h ****  */
 279:C:\ARM\workspace\stm32f429_lcd2\base\core_cmInstr.h **** #define __USAT                            __usat
 280:C:\ARM\workspace\stm32f429_lcd2\base\core_cmInstr.h **** 
 281:C:\ARM\workspace\stm32f429_lcd2\base\core_cmInstr.h **** 
 282:C:\ARM\workspace\stm32f429_lcd2\base\core_cmInstr.h **** /** \brief  Count leading zeros
 283:C:\ARM\workspace\stm32f429_lcd2\base\core_cmInstr.h **** 
 284:C:\ARM\workspace\stm32f429_lcd2\base\core_cmInstr.h ****     This function counts the number of leading zeros of a data value.
 285:C:\ARM\workspace\stm32f429_lcd2\base\core_cmInstr.h **** 
 286:C:\ARM\workspace\stm32f429_lcd2\base\core_cmInstr.h ****     \param [in]  value  Value to count the leading zeros
 287:C:\ARM\workspace\stm32f429_lcd2\base\core_cmInstr.h ****     \return             number of leading zeros in value
 288:C:\ARM\workspace\stm32f429_lcd2\base\core_cmInstr.h ****  */
 289:C:\ARM\workspace\stm32f429_lcd2\base\core_cmInstr.h **** #define __CLZ                             __clz
 290:C:\ARM\workspace\stm32f429_lcd2\base\core_cmInstr.h **** 
 291:C:\ARM\workspace\stm32f429_lcd2\base\core_cmInstr.h **** #endif /* (__CORTEX_M >= 0x03) */
 292:C:\ARM\workspace\stm32f429_lcd2\base\core_cmInstr.h **** 
 293:C:\ARM\workspace\stm32f429_lcd2\base\core_cmInstr.h **** 
 294:C:\ARM\workspace\stm32f429_lcd2\base\core_cmInstr.h **** 
 295:C:\ARM\workspace\stm32f429_lcd2\base\core_cmInstr.h **** #elif defined ( __ICCARM__ ) /*------------------ ICC Compiler -------------------*/
 296:C:\ARM\workspace\stm32f429_lcd2\base\core_cmInstr.h **** /* IAR iccarm specific functions */
 297:C:\ARM\workspace\stm32f429_lcd2\base\core_cmInstr.h **** 
 298:C:\ARM\workspace\stm32f429_lcd2\base\core_cmInstr.h **** #include <cmsis_iar.h>
 299:C:\ARM\workspace\stm32f429_lcd2\base\core_cmInstr.h **** 
 300:C:\ARM\workspace\stm32f429_lcd2\base\core_cmInstr.h **** 
 301:C:\ARM\workspace\stm32f429_lcd2\base\core_cmInstr.h **** #elif defined ( __TMS470__ ) /*---------------- TI CCS Compiler ------------------*/
 302:C:\ARM\workspace\stm32f429_lcd2\base\core_cmInstr.h **** /* TI CCS specific functions */
 303:C:\ARM\workspace\stm32f429_lcd2\base\core_cmInstr.h **** 
 304:C:\ARM\workspace\stm32f429_lcd2\base\core_cmInstr.h **** #include <cmsis_ccs.h>
 305:C:\ARM\workspace\stm32f429_lcd2\base\core_cmInstr.h **** 
 306:C:\ARM\workspace\stm32f429_lcd2\base\core_cmInstr.h **** 
 307:C:\ARM\workspace\stm32f429_lcd2\base\core_cmInstr.h **** #elif defined ( __GNUC__ ) /*------------------ GNU Compiler ---------------------*/
 308:C:\ARM\workspace\stm32f429_lcd2\base\core_cmInstr.h **** /* GNU gcc specific functions */
 309:C:\ARM\workspace\stm32f429_lcd2\base\core_cmInstr.h **** 
 310:C:\ARM\workspace\stm32f429_lcd2\base\core_cmInstr.h **** /* Define macros for porting to both thumb1 and thumb2.
 311:C:\ARM\workspace\stm32f429_lcd2\base\core_cmInstr.h ****  * For thumb1, use low register (r0-r7), specified by constrant "l"
 312:C:\ARM\workspace\stm32f429_lcd2\base\core_cmInstr.h ****  * Otherwise, use general registers, specified by constrant "r" */
 313:C:\ARM\workspace\stm32f429_lcd2\base\core_cmInstr.h **** #if defined (__thumb__) && !defined (__thumb2__)
 314:C:\ARM\workspace\stm32f429_lcd2\base\core_cmInstr.h **** #define __CMSIS_GCC_OUT_REG(r) "=l" (r)
 315:C:\ARM\workspace\stm32f429_lcd2\base\core_cmInstr.h **** #define __CMSIS_GCC_USE_REG(r) "l" (r)
 316:C:\ARM\workspace\stm32f429_lcd2\base\core_cmInstr.h **** #else
 317:C:\ARM\workspace\stm32f429_lcd2\base\core_cmInstr.h **** #define __CMSIS_GCC_OUT_REG(r) "=r" (r)
 318:C:\ARM\workspace\stm32f429_lcd2\base\core_cmInstr.h **** #define __CMSIS_GCC_USE_REG(r) "r" (r)
 319:C:\ARM\workspace\stm32f429_lcd2\base\core_cmInstr.h **** #endif
 320:C:\ARM\workspace\stm32f429_lcd2\base\core_cmInstr.h **** 
 321:C:\ARM\workspace\stm32f429_lcd2\base\core_cmInstr.h **** /** \brief  No Operation
 322:C:\ARM\workspace\stm32f429_lcd2\base\core_cmInstr.h **** 
 323:C:\ARM\workspace\stm32f429_lcd2\base\core_cmInstr.h ****     No Operation does nothing. This instruction can be used for code alignment purposes.
 324:C:\ARM\workspace\stm32f429_lcd2\base\core_cmInstr.h ****  */
 325:C:\ARM\workspace\stm32f429_lcd2\base\core_cmInstr.h **** __attribute__( ( always_inline ) ) __STATIC_INLINE void __NOP(void)
 326:C:\ARM\workspace\stm32f429_lcd2\base\core_cmInstr.h **** {
 327:C:\ARM\workspace\stm32f429_lcd2\base\core_cmInstr.h ****   __ASM volatile ("nop");
 328:C:\ARM\workspace\stm32f429_lcd2\base\core_cmInstr.h **** }
 329:C:\ARM\workspace\stm32f429_lcd2\base\core_cmInstr.h **** 
 330:C:\ARM\workspace\stm32f429_lcd2\base\core_cmInstr.h **** 
 331:C:\ARM\workspace\stm32f429_lcd2\base\core_cmInstr.h **** /** \brief  Wait For Interrupt
 332:C:\ARM\workspace\stm32f429_lcd2\base\core_cmInstr.h **** 
 333:C:\ARM\workspace\stm32f429_lcd2\base\core_cmInstr.h ****     Wait For Interrupt is a hint instruction that suspends execution
 334:C:\ARM\workspace\stm32f429_lcd2\base\core_cmInstr.h ****     until one of a number of events occurs.
 335:C:\ARM\workspace\stm32f429_lcd2\base\core_cmInstr.h ****  */
 336:C:\ARM\workspace\stm32f429_lcd2\base\core_cmInstr.h **** __attribute__( ( always_inline ) ) __STATIC_INLINE void __WFI(void)
 337:C:\ARM\workspace\stm32f429_lcd2\base\core_cmInstr.h **** {
 338:C:\ARM\workspace\stm32f429_lcd2\base\core_cmInstr.h ****   __ASM volatile ("wfi");
 339:C:\ARM\workspace\stm32f429_lcd2\base\core_cmInstr.h **** }
 340:C:\ARM\workspace\stm32f429_lcd2\base\core_cmInstr.h **** 
 341:C:\ARM\workspace\stm32f429_lcd2\base\core_cmInstr.h **** 
 342:C:\ARM\workspace\stm32f429_lcd2\base\core_cmInstr.h **** /** \brief  Wait For Event
 343:C:\ARM\workspace\stm32f429_lcd2\base\core_cmInstr.h **** 
 344:C:\ARM\workspace\stm32f429_lcd2\base\core_cmInstr.h ****     Wait For Event is a hint instruction that permits the processor to enter
 345:C:\ARM\workspace\stm32f429_lcd2\base\core_cmInstr.h ****     a low-power state until one of a number of events occurs.
 346:C:\ARM\workspace\stm32f429_lcd2\base\core_cmInstr.h ****  */
 347:C:\ARM\workspace\stm32f429_lcd2\base\core_cmInstr.h **** __attribute__( ( always_inline ) ) __STATIC_INLINE void __WFE(void)
 348:C:\ARM\workspace\stm32f429_lcd2\base\core_cmInstr.h **** {
 349:C:\ARM\workspace\stm32f429_lcd2\base\core_cmInstr.h ****   __ASM volatile ("wfe");
 350:C:\ARM\workspace\stm32f429_lcd2\base\core_cmInstr.h **** }
 351:C:\ARM\workspace\stm32f429_lcd2\base\core_cmInstr.h **** 
 352:C:\ARM\workspace\stm32f429_lcd2\base\core_cmInstr.h **** 
 353:C:\ARM\workspace\stm32f429_lcd2\base\core_cmInstr.h **** /** \brief  Send Event
 354:C:\ARM\workspace\stm32f429_lcd2\base\core_cmInstr.h **** 
 355:C:\ARM\workspace\stm32f429_lcd2\base\core_cmInstr.h ****     Send Event is a hint instruction. It causes an event to be signaled to the CPU.
 356:C:\ARM\workspace\stm32f429_lcd2\base\core_cmInstr.h ****  */
 357:C:\ARM\workspace\stm32f429_lcd2\base\core_cmInstr.h **** __attribute__( ( always_inline ) ) __STATIC_INLINE void __SEV(void)
 358:C:\ARM\workspace\stm32f429_lcd2\base\core_cmInstr.h **** {
 359:C:\ARM\workspace\stm32f429_lcd2\base\core_cmInstr.h ****   __ASM volatile ("sev");
 360:C:\ARM\workspace\stm32f429_lcd2\base\core_cmInstr.h **** }
 361:C:\ARM\workspace\stm32f429_lcd2\base\core_cmInstr.h **** 
 362:C:\ARM\workspace\stm32f429_lcd2\base\core_cmInstr.h **** 
 363:C:\ARM\workspace\stm32f429_lcd2\base\core_cmInstr.h **** /** \brief  Instruction Synchronization Barrier
 364:C:\ARM\workspace\stm32f429_lcd2\base\core_cmInstr.h **** 
 365:C:\ARM\workspace\stm32f429_lcd2\base\core_cmInstr.h ****     Instruction Synchronization Barrier flushes the pipeline in the processor,
 366:C:\ARM\workspace\stm32f429_lcd2\base\core_cmInstr.h ****     so that all instructions following the ISB are fetched from cache or
 367:C:\ARM\workspace\stm32f429_lcd2\base\core_cmInstr.h ****     memory, after the instruction has been completed.
 368:C:\ARM\workspace\stm32f429_lcd2\base\core_cmInstr.h ****  */
 369:C:\ARM\workspace\stm32f429_lcd2\base\core_cmInstr.h **** __attribute__( ( always_inline ) ) __STATIC_INLINE void __ISB(void)
 370:C:\ARM\workspace\stm32f429_lcd2\base\core_cmInstr.h **** {
 371:C:\ARM\workspace\stm32f429_lcd2\base\core_cmInstr.h ****   __ASM volatile ("isb");
 372:C:\ARM\workspace\stm32f429_lcd2\base\core_cmInstr.h **** }
 373:C:\ARM\workspace\stm32f429_lcd2\base\core_cmInstr.h **** 
 374:C:\ARM\workspace\stm32f429_lcd2\base\core_cmInstr.h **** 
 375:C:\ARM\workspace\stm32f429_lcd2\base\core_cmInstr.h **** /** \brief  Data Synchronization Barrier
 376:C:\ARM\workspace\stm32f429_lcd2\base\core_cmInstr.h **** 
 377:C:\ARM\workspace\stm32f429_lcd2\base\core_cmInstr.h ****     This function acts as a special kind of Data Memory Barrier.
 378:C:\ARM\workspace\stm32f429_lcd2\base\core_cmInstr.h ****     It completes when all explicit memory accesses before this instruction complete.
 379:C:\ARM\workspace\stm32f429_lcd2\base\core_cmInstr.h ****  */
 380:C:\ARM\workspace\stm32f429_lcd2\base\core_cmInstr.h **** __attribute__( ( always_inline ) ) __STATIC_INLINE void __DSB(void)
 381:C:\ARM\workspace\stm32f429_lcd2\base\core_cmInstr.h **** {
 382:C:\ARM\workspace\stm32f429_lcd2\base\core_cmInstr.h ****   __ASM volatile ("dsb");
 383:C:\ARM\workspace\stm32f429_lcd2\base\core_cmInstr.h **** }
 384:C:\ARM\workspace\stm32f429_lcd2\base\core_cmInstr.h **** 
 385:C:\ARM\workspace\stm32f429_lcd2\base\core_cmInstr.h **** 
 386:C:\ARM\workspace\stm32f429_lcd2\base\core_cmInstr.h **** /** \brief  Data Memory Barrier
 387:C:\ARM\workspace\stm32f429_lcd2\base\core_cmInstr.h **** 
 388:C:\ARM\workspace\stm32f429_lcd2\base\core_cmInstr.h ****     This function ensures the apparent order of the explicit memory operations before
 389:C:\ARM\workspace\stm32f429_lcd2\base\core_cmInstr.h ****     and after the instruction, without ensuring their completion.
 390:C:\ARM\workspace\stm32f429_lcd2\base\core_cmInstr.h ****  */
 391:C:\ARM\workspace\stm32f429_lcd2\base\core_cmInstr.h **** __attribute__( ( always_inline ) ) __STATIC_INLINE void __DMB(void)
 392:C:\ARM\workspace\stm32f429_lcd2\base\core_cmInstr.h **** {
 393:C:\ARM\workspace\stm32f429_lcd2\base\core_cmInstr.h ****   __ASM volatile ("dmb");
 394:C:\ARM\workspace\stm32f429_lcd2\base\core_cmInstr.h **** }
 395:C:\ARM\workspace\stm32f429_lcd2\base\core_cmInstr.h **** 
 396:C:\ARM\workspace\stm32f429_lcd2\base\core_cmInstr.h **** 
 397:C:\ARM\workspace\stm32f429_lcd2\base\core_cmInstr.h **** /** \brief  Reverse byte order (32 bit)
 398:C:\ARM\workspace\stm32f429_lcd2\base\core_cmInstr.h **** 
 399:C:\ARM\workspace\stm32f429_lcd2\base\core_cmInstr.h ****     This function reverses the byte order in integer value.
 400:C:\ARM\workspace\stm32f429_lcd2\base\core_cmInstr.h **** 
 401:C:\ARM\workspace\stm32f429_lcd2\base\core_cmInstr.h ****     \param [in]    value  Value to reverse
 402:C:\ARM\workspace\stm32f429_lcd2\base\core_cmInstr.h ****     \return               Reversed value
 403:C:\ARM\workspace\stm32f429_lcd2\base\core_cmInstr.h ****  */
 404:C:\ARM\workspace\stm32f429_lcd2\base\core_cmInstr.h **** __attribute__( ( always_inline ) ) __STATIC_INLINE uint32_t __REV(uint32_t value)
 405:C:\ARM\workspace\stm32f429_lcd2\base\core_cmInstr.h **** {
 406:C:\ARM\workspace\stm32f429_lcd2\base\core_cmInstr.h **** #if (__GNUC__ > 4) || (__GNUC__ == 4 && __GNUC_MINOR__ >= 5)
 407:C:\ARM\workspace\stm32f429_lcd2\base\core_cmInstr.h ****   return __builtin_bswap32(value);
 158              		.loc 2 407 0
 159 00e0 BA6D     		ldr	r2, [r7, #88]
 160 00e2 12BA     		rev	r2, r2
 161              	.LBE19:
 162              	.LBE18:
 163              		.loc 1 146 0
 164 00e4 1A60     		str	r2, [r3, #0]
 147:../STM32F4xx_StdPeriph_Driver/src/stm32f4xx_hash_md5.c ****     outputaddr+=4;
 165              		.loc 1 147 0
 166 00e6 FB6D     		ldr	r3, [r7, #92]
 167 00e8 03F10403 		add	r3, r3, #4
 168 00ec FB65     		str	r3, [r7, #92]
 148:../STM32F4xx_StdPeriph_Driver/src/stm32f4xx_hash_md5.c ****     *(uint32_t*)(outputaddr)  = __REV(MD5_MessageDigest.Data[1]);
 169              		.loc 1 148 0
 170 00ee FB6D     		ldr	r3, [r7, #92]
 171 00f0 3A6A     		ldr	r2, [r7, #32]
 172 00f2 7A65     		str	r2, [r7, #84]
 173              	.LBB20:
 174              	.LBB21:
 175              		.loc 2 407 0
 176 00f4 7A6D     		ldr	r2, [r7, #84]
 177 00f6 12BA     		rev	r2, r2
 178              	.LBE21:
 179              	.LBE20:
 180              		.loc 1 148 0
 181 00f8 1A60     		str	r2, [r3, #0]
 149:../STM32F4xx_StdPeriph_Driver/src/stm32f4xx_hash_md5.c ****     outputaddr+=4;
 182              		.loc 1 149 0
 183 00fa FB6D     		ldr	r3, [r7, #92]
 184 00fc 03F10403 		add	r3, r3, #4
 185 0100 FB65     		str	r3, [r7, #92]
 150:../STM32F4xx_StdPeriph_Driver/src/stm32f4xx_hash_md5.c ****     *(uint32_t*)(outputaddr)  = __REV(MD5_MessageDigest.Data[2]);
 186              		.loc 1 150 0
 187 0102 FB6D     		ldr	r3, [r7, #92]
 188 0104 7A6A     		ldr	r2, [r7, #36]
 189 0106 3A65     		str	r2, [r7, #80]
 190              	.LBB22:
 191              	.LBB23:
 192              		.loc 2 407 0
 193 0108 3A6D     		ldr	r2, [r7, #80]
 194 010a 12BA     		rev	r2, r2
 195              	.LBE23:
 196              	.LBE22:
 197              		.loc 1 150 0
 198 010c 1A60     		str	r2, [r3, #0]
 151:../STM32F4xx_StdPeriph_Driver/src/stm32f4xx_hash_md5.c ****     outputaddr+=4;
 199              		.loc 1 151 0
 200 010e FB6D     		ldr	r3, [r7, #92]
 201 0110 03F10403 		add	r3, r3, #4
 202 0114 FB65     		str	r3, [r7, #92]
 152:../STM32F4xx_StdPeriph_Driver/src/stm32f4xx_hash_md5.c ****     *(uint32_t*)(outputaddr)  = __REV(MD5_MessageDigest.Data[3]);
 203              		.loc 1 152 0
 204 0116 FB6D     		ldr	r3, [r7, #92]
 205 0118 BA6A     		ldr	r2, [r7, #40]
 206 011a FA64     		str	r2, [r7, #76]
 207              	.LBB24:
 208              	.LBB25:
 209              		.loc 2 407 0
 210 011c FA6C     		ldr	r2, [r7, #76]
 211 011e 12BA     		rev	r2, r2
 212              	.LBE25:
 213              	.LBE24:
 214              		.loc 1 152 0
 215 0120 1A60     		str	r2, [r3, #0]
 216              	.L7:
 153:../STM32F4xx_StdPeriph_Driver/src/stm32f4xx_hash_md5.c ****   }
 154:../STM32F4xx_StdPeriph_Driver/src/stm32f4xx_hash_md5.c ****   return status; 
 217              		.loc 1 154 0
 218 0122 97F86B30 		ldrb	r3, [r7, #107]	@ zero_extendqisi2
 155:../STM32F4xx_StdPeriph_Driver/src/stm32f4xx_hash_md5.c **** }
 219              		.loc 1 155 0
 220 0126 1846     		mov	r0, r3
 221 0128 07F17007 		add	r7, r7, #112
 222 012c BD46     		mov	sp, r7
 223 012e 80BD     		pop	{r7, pc}
 224              		.cfi_endproc
 225              	.LFE112:
 227              		.section	.text.HMAC_MD5,"ax",%progbits
 228              		.align	2
 229              		.global	HMAC_MD5
 230              		.thumb
 231              		.thumb_func
 233              	HMAC_MD5:
 234              	.LFB113:
 156:../STM32F4xx_StdPeriph_Driver/src/stm32f4xx_hash_md5.c **** 
 157:../STM32F4xx_StdPeriph_Driver/src/stm32f4xx_hash_md5.c **** /**
 158:../STM32F4xx_StdPeriph_Driver/src/stm32f4xx_hash_md5.c ****   * @brief  Compute the HMAC MD5 digest.
 159:../STM32F4xx_StdPeriph_Driver/src/stm32f4xx_hash_md5.c ****   * @param  Key: pointer to the Key used for HMAC.
 160:../STM32F4xx_StdPeriph_Driver/src/stm32f4xx_hash_md5.c ****   * @param  Keylen: length of the Key used for HMAC.
 161:../STM32F4xx_StdPeriph_Driver/src/stm32f4xx_hash_md5.c ****   * @param  Input: pointer to the Input buffer to be treated.
 162:../STM32F4xx_StdPeriph_Driver/src/stm32f4xx_hash_md5.c ****   * @param  Ilen: length of the Input buffer.
 163:../STM32F4xx_StdPeriph_Driver/src/stm32f4xx_hash_md5.c ****   * @param  Output: the returned digest  
 164:../STM32F4xx_StdPeriph_Driver/src/stm32f4xx_hash_md5.c ****   * @retval An ErrorStatus enumeration value:
 165:../STM32F4xx_StdPeriph_Driver/src/stm32f4xx_hash_md5.c ****   *          - SUCCESS: digest computation done
 166:../STM32F4xx_StdPeriph_Driver/src/stm32f4xx_hash_md5.c ****   *          - ERROR: digest computation failed
 167:../STM32F4xx_StdPeriph_Driver/src/stm32f4xx_hash_md5.c ****   */
 168:../STM32F4xx_StdPeriph_Driver/src/stm32f4xx_hash_md5.c **** ErrorStatus HMAC_MD5(uint8_t *Key, uint32_t Keylen, uint8_t *Input, 
 169:../STM32F4xx_StdPeriph_Driver/src/stm32f4xx_hash_md5.c ****                      uint32_t Ilen, uint8_t Output[16])
 170:../STM32F4xx_StdPeriph_Driver/src/stm32f4xx_hash_md5.c **** {
 235              		.loc 1 170 0
 236              		.cfi_startproc
 237              		@ args = 4, pretend = 0, frame = 112
 238              		@ frame_needed = 1, uses_anonymous_args = 0
 239 0000 80B5     		push	{r7, lr}
 240              	.LCFI3:
 241              		.cfi_def_cfa_offset 8
 242              		.cfi_offset 7, -8
 243              		.cfi_offset 14, -4
 244 0002 9CB0     		sub	sp, sp, #112
 245              	.LCFI4:
 246              		.cfi_def_cfa_offset 120
 247 0004 00AF     		add	r7, sp, #0
 248              	.LCFI5:
 249              		.cfi_def_cfa_register 7
 250 0006 F860     		str	r0, [r7, #12]
 251 0008 B960     		str	r1, [r7, #8]
 252 000a 7A60     		str	r2, [r7, #4]
 253 000c 3B60     		str	r3, [r7, #0]
 171:../STM32F4xx_StdPeriph_Driver/src/stm32f4xx_hash_md5.c ****   HASH_InitTypeDef MD5_HASH_InitStructure;
 172:../STM32F4xx_StdPeriph_Driver/src/stm32f4xx_hash_md5.c ****   HASH_MsgDigest MD5_MessageDigest;
 173:../STM32F4xx_StdPeriph_Driver/src/stm32f4xx_hash_md5.c ****   __IO uint16_t nbvalidbitsdata = 0;
 254              		.loc 1 173 0
 255 000e 4FF00003 		mov	r3, #0
 256 0012 FB82     		strh	r3, [r7, #22]	@ movhi
 174:../STM32F4xx_StdPeriph_Driver/src/stm32f4xx_hash_md5.c ****   __IO uint16_t nbvalidbitskey = 0;
 257              		.loc 1 174 0
 258 0014 4FF00003 		mov	r3, #0
 259 0018 BB82     		strh	r3, [r7, #20]	@ movhi
 175:../STM32F4xx_StdPeriph_Driver/src/stm32f4xx_hash_md5.c ****   uint32_t i = 0;
 260              		.loc 1 175 0
 261 001a 4FF00003 		mov	r3, #0
 262 001e FB66     		str	r3, [r7, #108]
 176:../STM32F4xx_StdPeriph_Driver/src/stm32f4xx_hash_md5.c ****   __IO uint32_t counter = 0;
 263              		.loc 1 176 0
 264 0020 4FF00003 		mov	r3, #0
 265 0024 3B61     		str	r3, [r7, #16]
 177:../STM32F4xx_StdPeriph_Driver/src/stm32f4xx_hash_md5.c ****   uint32_t busystatus = 0;
 266              		.loc 1 177 0
 267 0026 4FF00003 		mov	r3, #0
 268 002a FB65     		str	r3, [r7, #92]
 178:../STM32F4xx_StdPeriph_Driver/src/stm32f4xx_hash_md5.c ****   ErrorStatus status = SUCCESS;
 269              		.loc 1 178 0
 270 002c 4FF00103 		mov	r3, #1
 271 0030 87F86B30 		strb	r3, [r7, #107]
 179:../STM32F4xx_StdPeriph_Driver/src/stm32f4xx_hash_md5.c ****   uint32_t keyaddr    = (uint32_t)Key;
 272              		.loc 1 179 0
 273 0034 FB68     		ldr	r3, [r7, #12]
 274 0036 7B66     		str	r3, [r7, #100]
 180:../STM32F4xx_StdPeriph_Driver/src/stm32f4xx_hash_md5.c ****   uint32_t inputaddr  = (uint32_t)Input;
 275              		.loc 1 180 0
 276 0038 7B68     		ldr	r3, [r7, #4]
 277 003a 3B66     		str	r3, [r7, #96]
 181:../STM32F4xx_StdPeriph_Driver/src/stm32f4xx_hash_md5.c ****   uint32_t outputaddr = (uint32_t)Output;
 278              		.loc 1 181 0
 279 003c BB6F     		ldr	r3, [r7, #120]
 280 003e BB65     		str	r3, [r7, #88]
 182:../STM32F4xx_StdPeriph_Driver/src/stm32f4xx_hash_md5.c **** 
 183:../STM32F4xx_StdPeriph_Driver/src/stm32f4xx_hash_md5.c ****   /* Number of valid bits in last word of the Input data */
 184:../STM32F4xx_StdPeriph_Driver/src/stm32f4xx_hash_md5.c ****   nbvalidbitsdata = 8 * (Ilen % 4);
 281              		.loc 1 184 0
 282 0040 3B68     		ldr	r3, [r7, #0]
 283 0042 9BB2     		uxth	r3, r3
 284 0044 03F00303 		and	r3, r3, #3
 285 0048 9BB2     		uxth	r3, r3
 286 004a 4FEAC303 		lsl	r3, r3, #3
 287 004e 9BB2     		uxth	r3, r3
 288 0050 FB82     		strh	r3, [r7, #22]	@ movhi
 185:../STM32F4xx_StdPeriph_Driver/src/stm32f4xx_hash_md5.c **** 
 186:../STM32F4xx_StdPeriph_Driver/src/stm32f4xx_hash_md5.c ****   /* Number of valid bits in last word of the Key */
 187:../STM32F4xx_StdPeriph_Driver/src/stm32f4xx_hash_md5.c ****   nbvalidbitskey = 8 * (Keylen % 4);
 289              		.loc 1 187 0
 290 0052 BB68     		ldr	r3, [r7, #8]
 291 0054 9BB2     		uxth	r3, r3
 292 0056 03F00303 		and	r3, r3, #3
 293 005a 9BB2     		uxth	r3, r3
 294 005c 4FEAC303 		lsl	r3, r3, #3
 295 0060 9BB2     		uxth	r3, r3
 296 0062 BB82     		strh	r3, [r7, #20]	@ movhi
 188:../STM32F4xx_StdPeriph_Driver/src/stm32f4xx_hash_md5.c ****    
 189:../STM32F4xx_StdPeriph_Driver/src/stm32f4xx_hash_md5.c ****   /* HASH peripheral initialization */
 190:../STM32F4xx_StdPeriph_Driver/src/stm32f4xx_hash_md5.c ****   HASH_DeInit();
 297              		.loc 1 190 0
 298 0064 FFF7FEFF 		bl	HASH_DeInit
 191:../STM32F4xx_StdPeriph_Driver/src/stm32f4xx_hash_md5.c **** 
 192:../STM32F4xx_StdPeriph_Driver/src/stm32f4xx_hash_md5.c ****   /* HASH Configuration */
 193:../STM32F4xx_StdPeriph_Driver/src/stm32f4xx_hash_md5.c ****   MD5_HASH_InitStructure.HASH_AlgoSelection = HASH_AlgoSelection_MD5;
 299              		.loc 1 193 0
 300 0068 4FF08003 		mov	r3, #128
 301 006c BB63     		str	r3, [r7, #56]
 194:../STM32F4xx_StdPeriph_Driver/src/stm32f4xx_hash_md5.c ****   MD5_HASH_InitStructure.HASH_AlgoMode = HASH_AlgoMode_HMAC;
 302              		.loc 1 194 0
 303 006e 4FF04003 		mov	r3, #64
 304 0072 FB63     		str	r3, [r7, #60]
 195:../STM32F4xx_StdPeriph_Driver/src/stm32f4xx_hash_md5.c ****   MD5_HASH_InitStructure.HASH_DataType = HASH_DataType_8b;
 305              		.loc 1 195 0
 306 0074 4FF02003 		mov	r3, #32
 307 0078 3B64     		str	r3, [r7, #64]
 196:../STM32F4xx_StdPeriph_Driver/src/stm32f4xx_hash_md5.c ****   if(Keylen > 64)
 308              		.loc 1 196 0
 309 007a BB68     		ldr	r3, [r7, #8]
 310 007c 402B     		cmp	r3, #64
 311 007e 03D9     		bls	.L14
 197:../STM32F4xx_StdPeriph_Driver/src/stm32f4xx_hash_md5.c ****   {
 198:../STM32F4xx_StdPeriph_Driver/src/stm32f4xx_hash_md5.c ****     /* HMAC long Key */
 199:../STM32F4xx_StdPeriph_Driver/src/stm32f4xx_hash_md5.c ****     MD5_HASH_InitStructure.HASH_HMACKeyType = HASH_HMACKeyType_LongKey;
 312              		.loc 1 199 0
 313 0080 4FF48033 		mov	r3, #65536
 314 0084 7B64     		str	r3, [r7, #68]
 315 0086 02E0     		b	.L15
 316              	.L14:
 200:../STM32F4xx_StdPeriph_Driver/src/stm32f4xx_hash_md5.c ****   }
 201:../STM32F4xx_StdPeriph_Driver/src/stm32f4xx_hash_md5.c ****   else
 202:../STM32F4xx_StdPeriph_Driver/src/stm32f4xx_hash_md5.c ****   {
 203:../STM32F4xx_StdPeriph_Driver/src/stm32f4xx_hash_md5.c ****     /* HMAC short Key */
 204:../STM32F4xx_StdPeriph_Driver/src/stm32f4xx_hash_md5.c ****     MD5_HASH_InitStructure.HASH_HMACKeyType = HASH_HMACKeyType_ShortKey;
 317              		.loc 1 204 0
 318 0088 4FF00003 		mov	r3, #0
 319 008c 7B64     		str	r3, [r7, #68]
 320              	.L15:
 205:../STM32F4xx_StdPeriph_Driver/src/stm32f4xx_hash_md5.c ****   }
 206:../STM32F4xx_StdPeriph_Driver/src/stm32f4xx_hash_md5.c ****   HASH_Init(&MD5_HASH_InitStructure);
 321              		.loc 1 206 0
 322 008e 07F13803 		add	r3, r7, #56
 323 0092 1846     		mov	r0, r3
 324 0094 FFF7FEFF 		bl	HASH_Init
 207:../STM32F4xx_StdPeriph_Driver/src/stm32f4xx_hash_md5.c **** 
 208:../STM32F4xx_StdPeriph_Driver/src/stm32f4xx_hash_md5.c ****   /* Configure the number of valid bits in last word of the Key */
 209:../STM32F4xx_StdPeriph_Driver/src/stm32f4xx_hash_md5.c ****   HASH_SetLastWordValidBitsNbr(nbvalidbitskey);
 325              		.loc 1 209 0
 326 0098 BB8A     		ldrh	r3, [r7, #20]	@ movhi
 327 009a 9BB2     		uxth	r3, r3
 328 009c 1846     		mov	r0, r3
 329 009e FFF7FEFF 		bl	HASH_SetLastWordValidBitsNbr
 210:../STM32F4xx_StdPeriph_Driver/src/stm32f4xx_hash_md5.c **** 
 211:../STM32F4xx_StdPeriph_Driver/src/stm32f4xx_hash_md5.c ****   /* Write the Key */
 212:../STM32F4xx_StdPeriph_Driver/src/stm32f4xx_hash_md5.c ****   for(i=0; i<Keylen; i+=4)
 330              		.loc 1 212 0
 331 00a2 4FF00003 		mov	r3, #0
 332 00a6 FB66     		str	r3, [r7, #108]
 333 00a8 0CE0     		b	.L16
 334              	.L17:
 213:../STM32F4xx_StdPeriph_Driver/src/stm32f4xx_hash_md5.c ****   {
 214:../STM32F4xx_StdPeriph_Driver/src/stm32f4xx_hash_md5.c ****     HASH_DataIn(*(uint32_t*)keyaddr);
 335              		.loc 1 214 0 discriminator 2
 336 00aa 7B6E     		ldr	r3, [r7, #100]
 337 00ac 1B68     		ldr	r3, [r3, #0]
 338 00ae 1846     		mov	r0, r3
 339 00b0 FFF7FEFF 		bl	HASH_DataIn
 215:../STM32F4xx_StdPeriph_Driver/src/stm32f4xx_hash_md5.c ****     keyaddr+=4;
 340              		.loc 1 215 0 discriminator 2
 341 00b4 7B6E     		ldr	r3, [r7, #100]
 342 00b6 03F10403 		add	r3, r3, #4
 343 00ba 7B66     		str	r3, [r7, #100]
 212:../STM32F4xx_StdPeriph_Driver/src/stm32f4xx_hash_md5.c ****   for(i=0; i<Keylen; i+=4)
 344              		.loc 1 212 0 discriminator 2
 345 00bc FB6E     		ldr	r3, [r7, #108]
 346 00be 03F10403 		add	r3, r3, #4
 347 00c2 FB66     		str	r3, [r7, #108]
 348              	.L16:
 212:../STM32F4xx_StdPeriph_Driver/src/stm32f4xx_hash_md5.c ****   for(i=0; i<Keylen; i+=4)
 349              		.loc 1 212 0 is_stmt 0 discriminator 1
 350 00c4 FA6E     		ldr	r2, [r7, #108]
 351 00c6 BB68     		ldr	r3, [r7, #8]
 352 00c8 9A42     		cmp	r2, r3
 353 00ca EED3     		bcc	.L17
 216:../STM32F4xx_StdPeriph_Driver/src/stm32f4xx_hash_md5.c ****   }
 217:../STM32F4xx_StdPeriph_Driver/src/stm32f4xx_hash_md5.c ****   
 218:../STM32F4xx_StdPeriph_Driver/src/stm32f4xx_hash_md5.c ****   /* Start the HASH processor */
 219:../STM32F4xx_StdPeriph_Driver/src/stm32f4xx_hash_md5.c ****   HASH_StartDigest();
 354              		.loc 1 219 0 is_stmt 1
 355 00cc FFF7FEFF 		bl	HASH_StartDigest
 356              	.L19:
 220:../STM32F4xx_StdPeriph_Driver/src/stm32f4xx_hash_md5.c **** 
 221:../STM32F4xx_StdPeriph_Driver/src/stm32f4xx_hash_md5.c ****   /* wait until the Busy flag is RESET */
 222:../STM32F4xx_StdPeriph_Driver/src/stm32f4xx_hash_md5.c ****   do
 223:../STM32F4xx_StdPeriph_Driver/src/stm32f4xx_hash_md5.c ****   {
 224:../STM32F4xx_StdPeriph_Driver/src/stm32f4xx_hash_md5.c ****     busystatus = HASH_GetFlagStatus(HASH_FLAG_BUSY);
 357              		.loc 1 224 0 discriminator 1
 358 00d0 4FF00800 		mov	r0, #8
 359 00d4 FFF7FEFF 		bl	HASH_GetFlagStatus
 360 00d8 0346     		mov	r3, r0
 361 00da FB65     		str	r3, [r7, #92]
 225:../STM32F4xx_StdPeriph_Driver/src/stm32f4xx_hash_md5.c ****     counter++;
 362              		.loc 1 225 0 discriminator 1
 363 00dc 3B69     		ldr	r3, [r7, #16]
 364 00de 03F10103 		add	r3, r3, #1
 365 00e2 3B61     		str	r3, [r7, #16]
 226:../STM32F4xx_StdPeriph_Driver/src/stm32f4xx_hash_md5.c ****   }while ((counter != MD5BUSY_TIMEOUT) && (busystatus != RESET));
 366              		.loc 1 226 0 discriminator 1
 367 00e4 3B69     		ldr	r3, [r7, #16]
 368 00e6 B3F5803F 		cmp	r3, #65536
 369 00ea 02D0     		beq	.L18
 370 00ec FB6D     		ldr	r3, [r7, #92]
 371 00ee 002B     		cmp	r3, #0
 372 00f0 EED1     		bne	.L19
 373              	.L18:
 227:../STM32F4xx_StdPeriph_Driver/src/stm32f4xx_hash_md5.c **** 
 228:../STM32F4xx_StdPeriph_Driver/src/stm32f4xx_hash_md5.c ****   if (busystatus != RESET)
 374              		.loc 1 228 0
 375 00f2 FB6D     		ldr	r3, [r7, #92]
 376 00f4 002B     		cmp	r3, #0
 377 00f6 04D0     		beq	.L20
 229:../STM32F4xx_StdPeriph_Driver/src/stm32f4xx_hash_md5.c ****   {
 230:../STM32F4xx_StdPeriph_Driver/src/stm32f4xx_hash_md5.c ****      status = ERROR;
 378              		.loc 1 230 0
 379 00f8 4FF00003 		mov	r3, #0
 380 00fc 87F86B30 		strb	r3, [r7, #107]
 381 0100 9AE0     		b	.L21
 382              	.L20:
 231:../STM32F4xx_StdPeriph_Driver/src/stm32f4xx_hash_md5.c ****   }
 232:../STM32F4xx_StdPeriph_Driver/src/stm32f4xx_hash_md5.c ****   else
 233:../STM32F4xx_StdPeriph_Driver/src/stm32f4xx_hash_md5.c ****   {
 234:../STM32F4xx_StdPeriph_Driver/src/stm32f4xx_hash_md5.c ****     /* Configure the number of valid bits in last word of the Input data */
 235:../STM32F4xx_StdPeriph_Driver/src/stm32f4xx_hash_md5.c ****     HASH_SetLastWordValidBitsNbr(nbvalidbitsdata);
 383              		.loc 1 235 0
 384 0102 FB8A     		ldrh	r3, [r7, #22]	@ movhi
 385 0104 9BB2     		uxth	r3, r3
 386 0106 1846     		mov	r0, r3
 387 0108 FFF7FEFF 		bl	HASH_SetLastWordValidBitsNbr
 236:../STM32F4xx_StdPeriph_Driver/src/stm32f4xx_hash_md5.c **** 
 237:../STM32F4xx_StdPeriph_Driver/src/stm32f4xx_hash_md5.c ****     /* Write the Input block in the IN FIFO */
 238:../STM32F4xx_StdPeriph_Driver/src/stm32f4xx_hash_md5.c ****     for(i=0; i<Ilen; i+=4)
 388              		.loc 1 238 0
 389 010c 4FF00003 		mov	r3, #0
 390 0110 FB66     		str	r3, [r7, #108]
 391 0112 0CE0     		b	.L22
 392              	.L23:
 239:../STM32F4xx_StdPeriph_Driver/src/stm32f4xx_hash_md5.c ****     {
 240:../STM32F4xx_StdPeriph_Driver/src/stm32f4xx_hash_md5.c ****       HASH_DataIn(*(uint32_t*)inputaddr);
 393              		.loc 1 240 0 discriminator 2
 394 0114 3B6E     		ldr	r3, [r7, #96]
 395 0116 1B68     		ldr	r3, [r3, #0]
 396 0118 1846     		mov	r0, r3
 397 011a FFF7FEFF 		bl	HASH_DataIn
 241:../STM32F4xx_StdPeriph_Driver/src/stm32f4xx_hash_md5.c ****       inputaddr+=4;
 398              		.loc 1 241 0 discriminator 2
 399 011e 3B6E     		ldr	r3, [r7, #96]
 400 0120 03F10403 		add	r3, r3, #4
 401 0124 3B66     		str	r3, [r7, #96]
 238:../STM32F4xx_StdPeriph_Driver/src/stm32f4xx_hash_md5.c ****     for(i=0; i<Ilen; i+=4)
 402              		.loc 1 238 0 discriminator 2
 403 0126 FB6E     		ldr	r3, [r7, #108]
 404 0128 03F10403 		add	r3, r3, #4
 405 012c FB66     		str	r3, [r7, #108]
 406              	.L22:
 238:../STM32F4xx_StdPeriph_Driver/src/stm32f4xx_hash_md5.c ****     for(i=0; i<Ilen; i+=4)
 407              		.loc 1 238 0 is_stmt 0 discriminator 1
 408 012e FA6E     		ldr	r2, [r7, #108]
 409 0130 3B68     		ldr	r3, [r7, #0]
 410 0132 9A42     		cmp	r2, r3
 411 0134 EED3     		bcc	.L23
 242:../STM32F4xx_StdPeriph_Driver/src/stm32f4xx_hash_md5.c ****     }
 243:../STM32F4xx_StdPeriph_Driver/src/stm32f4xx_hash_md5.c **** 
 244:../STM32F4xx_StdPeriph_Driver/src/stm32f4xx_hash_md5.c ****     /* Start the HASH processor */
 245:../STM32F4xx_StdPeriph_Driver/src/stm32f4xx_hash_md5.c ****     HASH_StartDigest();
 412              		.loc 1 245 0 is_stmt 1
 413 0136 FFF7FEFF 		bl	HASH_StartDigest
 246:../STM32F4xx_StdPeriph_Driver/src/stm32f4xx_hash_md5.c **** 
 247:../STM32F4xx_StdPeriph_Driver/src/stm32f4xx_hash_md5.c ****     /* wait until the Busy flag is RESET */
 248:../STM32F4xx_StdPeriph_Driver/src/stm32f4xx_hash_md5.c ****     counter =0;
 414              		.loc 1 248 0
 415 013a 4FF00003 		mov	r3, #0
 416 013e 3B61     		str	r3, [r7, #16]
 417              	.L25:
 249:../STM32F4xx_StdPeriph_Driver/src/stm32f4xx_hash_md5.c ****     do
 250:../STM32F4xx_StdPeriph_Driver/src/stm32f4xx_hash_md5.c ****     {
 251:../STM32F4xx_StdPeriph_Driver/src/stm32f4xx_hash_md5.c ****        busystatus = HASH_GetFlagStatus(HASH_FLAG_BUSY);
 418              		.loc 1 251 0 discriminator 1
 419 0140 4FF00800 		mov	r0, #8
 420 0144 FFF7FEFF 		bl	HASH_GetFlagStatus
 421 0148 0346     		mov	r3, r0
 422 014a FB65     		str	r3, [r7, #92]
 252:../STM32F4xx_StdPeriph_Driver/src/stm32f4xx_hash_md5.c ****        counter++;
 423              		.loc 1 252 0 discriminator 1
 424 014c 3B69     		ldr	r3, [r7, #16]
 425 014e 03F10103 		add	r3, r3, #1
 426 0152 3B61     		str	r3, [r7, #16]
 253:../STM32F4xx_StdPeriph_Driver/src/stm32f4xx_hash_md5.c ****     }while ((counter != MD5BUSY_TIMEOUT) && (busystatus != RESET));
 427              		.loc 1 253 0 discriminator 1
 428 0154 3B69     		ldr	r3, [r7, #16]
 429 0156 B3F5803F 		cmp	r3, #65536
 430 015a 02D0     		beq	.L24
 431 015c FB6D     		ldr	r3, [r7, #92]
 432 015e 002B     		cmp	r3, #0
 433 0160 EED1     		bne	.L25
 434              	.L24:
 254:../STM32F4xx_StdPeriph_Driver/src/stm32f4xx_hash_md5.c **** 
 255:../STM32F4xx_StdPeriph_Driver/src/stm32f4xx_hash_md5.c ****     if (busystatus != RESET)
 435              		.loc 1 255 0
 436 0162 FB6D     		ldr	r3, [r7, #92]
 437 0164 002B     		cmp	r3, #0
 438 0166 04D0     		beq	.L26
 256:../STM32F4xx_StdPeriph_Driver/src/stm32f4xx_hash_md5.c ****     {
 257:../STM32F4xx_StdPeriph_Driver/src/stm32f4xx_hash_md5.c ****       status = ERROR;
 439              		.loc 1 257 0
 440 0168 4FF00003 		mov	r3, #0
 441 016c 87F86B30 		strb	r3, [r7, #107]
 442 0170 62E0     		b	.L21
 443              	.L26:
 258:../STM32F4xx_StdPeriph_Driver/src/stm32f4xx_hash_md5.c ****     }
 259:../STM32F4xx_StdPeriph_Driver/src/stm32f4xx_hash_md5.c ****     else
 260:../STM32F4xx_StdPeriph_Driver/src/stm32f4xx_hash_md5.c ****     {  
 261:../STM32F4xx_StdPeriph_Driver/src/stm32f4xx_hash_md5.c ****       /* Configure the number of valid bits in last word of the Key */
 262:../STM32F4xx_StdPeriph_Driver/src/stm32f4xx_hash_md5.c ****       HASH_SetLastWordValidBitsNbr(nbvalidbitskey);
 444              		.loc 1 262 0
 445 0172 BB8A     		ldrh	r3, [r7, #20]	@ movhi
 446 0174 9BB2     		uxth	r3, r3
 447 0176 1846     		mov	r0, r3
 448 0178 FFF7FEFF 		bl	HASH_SetLastWordValidBitsNbr
 263:../STM32F4xx_StdPeriph_Driver/src/stm32f4xx_hash_md5.c **** 
 264:../STM32F4xx_StdPeriph_Driver/src/stm32f4xx_hash_md5.c ****       /* Write the Key */
 265:../STM32F4xx_StdPeriph_Driver/src/stm32f4xx_hash_md5.c ****       keyaddr = (uint32_t)Key;
 449              		.loc 1 265 0
 450 017c FB68     		ldr	r3, [r7, #12]
 451 017e 7B66     		str	r3, [r7, #100]
 266:../STM32F4xx_StdPeriph_Driver/src/stm32f4xx_hash_md5.c ****       for(i=0; i<Keylen; i+=4)
 452              		.loc 1 266 0
 453 0180 4FF00003 		mov	r3, #0
 454 0184 FB66     		str	r3, [r7, #108]
 455 0186 0CE0     		b	.L27
 456              	.L28:
 267:../STM32F4xx_StdPeriph_Driver/src/stm32f4xx_hash_md5.c ****       {
 268:../STM32F4xx_StdPeriph_Driver/src/stm32f4xx_hash_md5.c ****         HASH_DataIn(*(uint32_t*)keyaddr);
 457              		.loc 1 268 0 discriminator 2
 458 0188 7B6E     		ldr	r3, [r7, #100]
 459 018a 1B68     		ldr	r3, [r3, #0]
 460 018c 1846     		mov	r0, r3
 461 018e FFF7FEFF 		bl	HASH_DataIn
 269:../STM32F4xx_StdPeriph_Driver/src/stm32f4xx_hash_md5.c ****         keyaddr+=4;
 462              		.loc 1 269 0 discriminator 2
 463 0192 7B6E     		ldr	r3, [r7, #100]
 464 0194 03F10403 		add	r3, r3, #4
 465 0198 7B66     		str	r3, [r7, #100]
 266:../STM32F4xx_StdPeriph_Driver/src/stm32f4xx_hash_md5.c ****       for(i=0; i<Keylen; i+=4)
 466              		.loc 1 266 0 discriminator 2
 467 019a FB6E     		ldr	r3, [r7, #108]
 468 019c 03F10403 		add	r3, r3, #4
 469 01a0 FB66     		str	r3, [r7, #108]
 470              	.L27:
 266:../STM32F4xx_StdPeriph_Driver/src/stm32f4xx_hash_md5.c ****       for(i=0; i<Keylen; i+=4)
 471              		.loc 1 266 0 is_stmt 0 discriminator 1
 472 01a2 FA6E     		ldr	r2, [r7, #108]
 473 01a4 BB68     		ldr	r3, [r7, #8]
 474 01a6 9A42     		cmp	r2, r3
 475 01a8 EED3     		bcc	.L28
 270:../STM32F4xx_StdPeriph_Driver/src/stm32f4xx_hash_md5.c ****       }
 271:../STM32F4xx_StdPeriph_Driver/src/stm32f4xx_hash_md5.c ****   
 272:../STM32F4xx_StdPeriph_Driver/src/stm32f4xx_hash_md5.c ****        /* Start the HASH processor */
 273:../STM32F4xx_StdPeriph_Driver/src/stm32f4xx_hash_md5.c ****        HASH_StartDigest();
 476              		.loc 1 273 0 is_stmt 1
 477 01aa FFF7FEFF 		bl	HASH_StartDigest
 274:../STM32F4xx_StdPeriph_Driver/src/stm32f4xx_hash_md5.c **** 
 275:../STM32F4xx_StdPeriph_Driver/src/stm32f4xx_hash_md5.c ****        /* wait until the Busy flag is RESET */
 276:../STM32F4xx_StdPeriph_Driver/src/stm32f4xx_hash_md5.c ****        counter =0;
 478              		.loc 1 276 0
 479 01ae 4FF00003 		mov	r3, #0
 480 01b2 3B61     		str	r3, [r7, #16]
 481              	.L30:
 277:../STM32F4xx_StdPeriph_Driver/src/stm32f4xx_hash_md5.c ****        do
 278:../STM32F4xx_StdPeriph_Driver/src/stm32f4xx_hash_md5.c ****        {
 279:../STM32F4xx_StdPeriph_Driver/src/stm32f4xx_hash_md5.c ****           busystatus = HASH_GetFlagStatus(HASH_FLAG_BUSY);
 482              		.loc 1 279 0 discriminator 1
 483 01b4 4FF00800 		mov	r0, #8
 484 01b8 FFF7FEFF 		bl	HASH_GetFlagStatus
 485 01bc 0346     		mov	r3, r0
 486 01be FB65     		str	r3, [r7, #92]
 280:../STM32F4xx_StdPeriph_Driver/src/stm32f4xx_hash_md5.c ****           counter++;
 487              		.loc 1 280 0 discriminator 1
 488 01c0 3B69     		ldr	r3, [r7, #16]
 489 01c2 03F10103 		add	r3, r3, #1
 490 01c6 3B61     		str	r3, [r7, #16]
 281:../STM32F4xx_StdPeriph_Driver/src/stm32f4xx_hash_md5.c ****       }while ((counter != MD5BUSY_TIMEOUT) && (busystatus != RESET));
 491              		.loc 1 281 0 discriminator 1
 492 01c8 3B69     		ldr	r3, [r7, #16]
 493 01ca B3F5803F 		cmp	r3, #65536
 494 01ce 02D0     		beq	.L29
 495 01d0 FB6D     		ldr	r3, [r7, #92]
 496 01d2 002B     		cmp	r3, #0
 497 01d4 EED1     		bne	.L30
 498              	.L29:
 282:../STM32F4xx_StdPeriph_Driver/src/stm32f4xx_hash_md5.c **** 
 283:../STM32F4xx_StdPeriph_Driver/src/stm32f4xx_hash_md5.c ****       if (busystatus != RESET)
 499              		.loc 1 283 0
 500 01d6 FB6D     		ldr	r3, [r7, #92]
 501 01d8 002B     		cmp	r3, #0
 502 01da 04D0     		beq	.L31
 284:../STM32F4xx_StdPeriph_Driver/src/stm32f4xx_hash_md5.c ****       {
 285:../STM32F4xx_StdPeriph_Driver/src/stm32f4xx_hash_md5.c ****          status = ERROR;
 503              		.loc 1 285 0
 504 01dc 4FF00003 		mov	r3, #0
 505 01e0 87F86B30 		strb	r3, [r7, #107]
 506 01e4 28E0     		b	.L21
 507              	.L31:
 286:../STM32F4xx_StdPeriph_Driver/src/stm32f4xx_hash_md5.c ****       }
 287:../STM32F4xx_StdPeriph_Driver/src/stm32f4xx_hash_md5.c ****       else
 288:../STM32F4xx_StdPeriph_Driver/src/stm32f4xx_hash_md5.c ****       {
 289:../STM32F4xx_StdPeriph_Driver/src/stm32f4xx_hash_md5.c ****          /* Read the message digest */
 290:../STM32F4xx_StdPeriph_Driver/src/stm32f4xx_hash_md5.c ****          HASH_GetDigest(&MD5_MessageDigest);
 508              		.loc 1 290 0
 509 01e6 07F11803 		add	r3, r7, #24
 510 01ea 1846     		mov	r0, r3
 511 01ec FFF7FEFF 		bl	HASH_GetDigest
 291:../STM32F4xx_StdPeriph_Driver/src/stm32f4xx_hash_md5.c ****          *(uint32_t*)(outputaddr)  = __REV(MD5_MessageDigest.Data[0]);
 512              		.loc 1 291 0
 513 01f0 BB6D     		ldr	r3, [r7, #88]
 514 01f2 BA69     		ldr	r2, [r7, #24]
 515 01f4 7A65     		str	r2, [r7, #84]
 516              	.LBB26:
 517              	.LBB27:
 518              		.loc 2 407 0
 519 01f6 7A6D     		ldr	r2, [r7, #84]
 520 01f8 12BA     		rev	r2, r2
 521              	.LBE27:
 522              	.LBE26:
 523              		.loc 1 291 0
 524 01fa 1A60     		str	r2, [r3, #0]
 292:../STM32F4xx_StdPeriph_Driver/src/stm32f4xx_hash_md5.c ****          outputaddr+=4;
 525              		.loc 1 292 0
 526 01fc BB6D     		ldr	r3, [r7, #88]
 527 01fe 03F10403 		add	r3, r3, #4
 528 0202 BB65     		str	r3, [r7, #88]
 293:../STM32F4xx_StdPeriph_Driver/src/stm32f4xx_hash_md5.c ****          *(uint32_t*)(outputaddr)  = __REV(MD5_MessageDigest.Data[1]);
 529              		.loc 1 293 0
 530 0204 BB6D     		ldr	r3, [r7, #88]
 531 0206 FA69     		ldr	r2, [r7, #28]
 532 0208 3A65     		str	r2, [r7, #80]
 533              	.LBB28:
 534              	.LBB29:
 535              		.loc 2 407 0
 536 020a 3A6D     		ldr	r2, [r7, #80]
 537 020c 12BA     		rev	r2, r2
 538              	.LBE29:
 539              	.LBE28:
 540              		.loc 1 293 0
 541 020e 1A60     		str	r2, [r3, #0]
 294:../STM32F4xx_StdPeriph_Driver/src/stm32f4xx_hash_md5.c ****          outputaddr+=4;
 542              		.loc 1 294 0
 543 0210 BB6D     		ldr	r3, [r7, #88]
 544 0212 03F10403 		add	r3, r3, #4
 545 0216 BB65     		str	r3, [r7, #88]
 295:../STM32F4xx_StdPeriph_Driver/src/stm32f4xx_hash_md5.c ****          *(uint32_t*)(outputaddr)  = __REV(MD5_MessageDigest.Data[2]);
 546              		.loc 1 295 0
 547 0218 BB6D     		ldr	r3, [r7, #88]
 548 021a 3A6A     		ldr	r2, [r7, #32]
 549 021c FA64     		str	r2, [r7, #76]
 550              	.LBB30:
 551              	.LBB31:
 552              		.loc 2 407 0
 553 021e FA6C     		ldr	r2, [r7, #76]
 554 0220 12BA     		rev	r2, r2
 555              	.LBE31:
 556              	.LBE30:
 557              		.loc 1 295 0
 558 0222 1A60     		str	r2, [r3, #0]
 296:../STM32F4xx_StdPeriph_Driver/src/stm32f4xx_hash_md5.c ****          outputaddr+=4;
 559              		.loc 1 296 0
 560 0224 BB6D     		ldr	r3, [r7, #88]
 561 0226 03F10403 		add	r3, r3, #4
 562 022a BB65     		str	r3, [r7, #88]
 297:../STM32F4xx_StdPeriph_Driver/src/stm32f4xx_hash_md5.c ****          *(uint32_t*)(outputaddr)  = __REV(MD5_MessageDigest.Data[3]);
 563              		.loc 1 297 0
 564 022c BB6D     		ldr	r3, [r7, #88]
 565 022e 7A6A     		ldr	r2, [r7, #36]
 566 0230 BA64     		str	r2, [r7, #72]
 567              	.LBB32:
 568              	.LBB33:
 569              		.loc 2 407 0
 570 0232 BA6C     		ldr	r2, [r7, #72]
 571 0234 12BA     		rev	r2, r2
 572              	.LBE33:
 573              	.LBE32:
 574              		.loc 1 297 0
 575 0236 1A60     		str	r2, [r3, #0]
 576              	.L21:
 298:../STM32F4xx_StdPeriph_Driver/src/stm32f4xx_hash_md5.c ****       }
 299:../STM32F4xx_StdPeriph_Driver/src/stm32f4xx_hash_md5.c ****     }
 300:../STM32F4xx_StdPeriph_Driver/src/stm32f4xx_hash_md5.c ****   }
 301:../STM32F4xx_StdPeriph_Driver/src/stm32f4xx_hash_md5.c ****   return status;  
 577              		.loc 1 301 0
 578 0238 97F86B30 		ldrb	r3, [r7, #107]	@ zero_extendqisi2
 302:../STM32F4xx_StdPeriph_Driver/src/stm32f4xx_hash_md5.c **** }
 579              		.loc 1 302 0
 580 023c 1846     		mov	r0, r3
 581 023e 07F17007 		add	r7, r7, #112
 582 0242 BD46     		mov	sp, r7
 583 0244 80BD     		pop	{r7, pc}
 584              		.cfi_endproc
 585              	.LFE113:
 587 0246 00BF     		.text
 588              	.Letext0:
 589              		.file 3 "c:\\arm\\codesourcery\\bin\\../lib/gcc/arm-none-eabi/4.7.3/../../../../arm-none-eabi/incl
 590              		.file 4 "C:\\ARM\\workspace\\stm32f429_lcd2\\base/stm32f4xx.h"
 591              		.file 5 "C:\\ARM\\workspace\\stm32f429_lcd2\\STM32F4xx_StdPeriph_Driver\\inc/stm32f4xx_hash.h"
 592              		.file 6 "C:\\ARM\\workspace\\stm32f429_lcd2\\base/core_cm4.h"
DEFINED SYMBOLS
                            *ABS*:00000000 stm32f4xx_hash_md5.c
C:\Users\tompul\AppData\Local\Temp\ccW4RcO8.s:19     .text.HASH_MD5:00000000 $t
C:\Users\tompul\AppData\Local\Temp\ccW4RcO8.s:24     .text.HASH_MD5:00000000 HASH_MD5
C:\Users\tompul\AppData\Local\Temp\ccW4RcO8.s:228    .text.HMAC_MD5:00000000 $t
C:\Users\tompul\AppData\Local\Temp\ccW4RcO8.s:233    .text.HMAC_MD5:00000000 HMAC_MD5
                     .debug_frame:00000010 $d
                           .group:00000000 wm4.1.5ce194b057960c3b43452aae6bdebb38
                           .group:00000000 wm4.stm32f4xx.h.54.cadd754d3b3eb2607645d8267c364f87
                           .group:00000000 wm4.core_cm4.h.47.facd8ba456d1edc74a9cd34e5ef24231
                           .group:00000000 wm4.stdint.h.10.90b695f550ca6cc3fb08fa83baf01e05
                           .group:00000000 wm4.core_cmInstr.h.39.3d3d1b4a79aef37532666dc6ee87c6ac
                           .group:00000000 wm4.core_cm4_simd.h.43.b5d1d38735af6366227b4256d330cf13
                           .group:00000000 wm4.core_cm4.h.178.e5ef5ce66d198d7f00f9d0076e267c41
                           .group:00000000 wm4.stm32f4xx.h.505.9a2dbdb780d624d1367e362e017b51de
                           .group:00000000 wm4.stm32f4xx_conf.h.30.59d37146f7e5cf5f0ca80165c11975f9
                           .group:00000000 wm4.stm32f4xx.h.9120.1e0d406af3c3ed51a8187f6827e7f6d3
                           .group:00000000 wm4.stm32f4xx_hash.h.97.5c2fafd3cb3037cb4015d0bbcd811453

UNDEFINED SYMBOLS
HASH_DeInit
HASH_Init
HASH_SetLastWordValidBitsNbr
HASH_DataIn
HASH_StartDigest
HASH_GetFlagStatus
HASH_GetDigest
