   1              		.syntax unified
   2              		.cpu cortex-m4
   3              		.fpu softvfp
   4              		.eabi_attribute 20, 1
   5              		.eabi_attribute 21, 1
   6              		.eabi_attribute 23, 3
   7              		.eabi_attribute 24, 1
   8              		.eabi_attribute 25, 1
   9              		.eabi_attribute 26, 1
  10              		.eabi_attribute 30, 6
  11              		.eabi_attribute 34, 1
  12              		.eabi_attribute 18, 4
  13              		.thumb
  14              		.file	"stm32f4xx_syscfg.c"
  15              		.text
  16              	.Ltext0:
  17              		.cfi_sections	.debug_frame
  18              		.section	.text.SYSCFG_DeInit,"ax",%progbits
  19              		.align	2
  20              		.global	SYSCFG_DeInit
  21              		.thumb
  22              		.thumb_func
  24              	SYSCFG_DeInit:
  25              	.LFB112:
  26              		.file 1 "../STM32F4xx_StdPeriph_Driver/src/stm32f4xx_syscfg.c"
   1:../STM32F4xx_StdPeriph_Driver/src/stm32f4xx_syscfg.c **** /**
   2:../STM32F4xx_StdPeriph_Driver/src/stm32f4xx_syscfg.c ****   ******************************************************************************
   3:../STM32F4xx_StdPeriph_Driver/src/stm32f4xx_syscfg.c ****   * @file    stm32f4xx_syscfg.c
   4:../STM32F4xx_StdPeriph_Driver/src/stm32f4xx_syscfg.c ****   * @author  MCD Application Team
   5:../STM32F4xx_StdPeriph_Driver/src/stm32f4xx_syscfg.c ****   * @version V1.2.1
   6:../STM32F4xx_StdPeriph_Driver/src/stm32f4xx_syscfg.c ****   * @date    19-September-2013
   7:../STM32F4xx_StdPeriph_Driver/src/stm32f4xx_syscfg.c ****   * @brief   This file provides firmware functions to manage the SYSCFG peripheral.
   8:../STM32F4xx_StdPeriph_Driver/src/stm32f4xx_syscfg.c ****   *
   9:../STM32F4xx_StdPeriph_Driver/src/stm32f4xx_syscfg.c ****  @verbatim
  10:../STM32F4xx_StdPeriph_Driver/src/stm32f4xx_syscfg.c ****     
  11:../STM32F4xx_StdPeriph_Driver/src/stm32f4xx_syscfg.c ****  ===============================================================================
  12:../STM32F4xx_StdPeriph_Driver/src/stm32f4xx_syscfg.c ****                      ##### How to use this driver #####
  13:../STM32F4xx_StdPeriph_Driver/src/stm32f4xx_syscfg.c ****  ===============================================================================
  14:../STM32F4xx_StdPeriph_Driver/src/stm32f4xx_syscfg.c ****     [..] This driver provides functions for:
  15:../STM32F4xx_StdPeriph_Driver/src/stm32f4xx_syscfg.c ****             
  16:../STM32F4xx_StdPeriph_Driver/src/stm32f4xx_syscfg.c ****        (#) Remapping the memory accessible in the code area using SYSCFG_MemoryRemapConfig()
  17:../STM32F4xx_StdPeriph_Driver/src/stm32f4xx_syscfg.c ****             
  18:../STM32F4xx_StdPeriph_Driver/src/stm32f4xx_syscfg.c ****        (#) Swapping the internal flash Bank1 and Bank2 this features is only visible for 
  19:../STM32F4xx_StdPeriph_Driver/src/stm32f4xx_syscfg.c ****            STM32F42xxx/43xxx devices Devices. 
  20:../STM32F4xx_StdPeriph_Driver/src/stm32f4xx_syscfg.c ****                 
  21:../STM32F4xx_StdPeriph_Driver/src/stm32f4xx_syscfg.c ****        (#) Manage the EXTI lines connection to the GPIOs using SYSCFG_EXTILineConfig()
  22:../STM32F4xx_StdPeriph_Driver/src/stm32f4xx_syscfg.c ****               
  23:../STM32F4xx_StdPeriph_Driver/src/stm32f4xx_syscfg.c ****        (#) Select the ETHERNET media interface (RMII/RII) using SYSCFG_ETH_MediaInterfaceConfig()
  24:../STM32F4xx_StdPeriph_Driver/src/stm32f4xx_syscfg.c ****   
  25:../STM32F4xx_StdPeriph_Driver/src/stm32f4xx_syscfg.c ****        -@- SYSCFG APB clock must be enabled to get write access to SYSCFG registers,
  26:../STM32F4xx_StdPeriph_Driver/src/stm32f4xx_syscfg.c ****            using RCC_APB2PeriphClockCmd(RCC_APB2Periph_SYSCFG, ENABLE);
  27:../STM32F4xx_StdPeriph_Driver/src/stm32f4xx_syscfg.c ****                    
  28:../STM32F4xx_StdPeriph_Driver/src/stm32f4xx_syscfg.c ****  @endverbatim      
  29:../STM32F4xx_StdPeriph_Driver/src/stm32f4xx_syscfg.c ****   ******************************************************************************
  30:../STM32F4xx_StdPeriph_Driver/src/stm32f4xx_syscfg.c ****   * @attention
  31:../STM32F4xx_StdPeriph_Driver/src/stm32f4xx_syscfg.c ****   *
  32:../STM32F4xx_StdPeriph_Driver/src/stm32f4xx_syscfg.c ****   * <h2><center>&copy; COPYRIGHT 2013 STMicroelectronics</center></h2>
  33:../STM32F4xx_StdPeriph_Driver/src/stm32f4xx_syscfg.c ****   *
  34:../STM32F4xx_StdPeriph_Driver/src/stm32f4xx_syscfg.c ****   * Licensed under MCD-ST Liberty SW License Agreement V2, (the "License");
  35:../STM32F4xx_StdPeriph_Driver/src/stm32f4xx_syscfg.c ****   * You may not use this file except in compliance with the License.
  36:../STM32F4xx_StdPeriph_Driver/src/stm32f4xx_syscfg.c ****   * You may obtain a copy of the License at:
  37:../STM32F4xx_StdPeriph_Driver/src/stm32f4xx_syscfg.c ****   *
  38:../STM32F4xx_StdPeriph_Driver/src/stm32f4xx_syscfg.c ****   *        http://www.st.com/software_license_agreement_liberty_v2
  39:../STM32F4xx_StdPeriph_Driver/src/stm32f4xx_syscfg.c ****   *
  40:../STM32F4xx_StdPeriph_Driver/src/stm32f4xx_syscfg.c ****   * Unless required by applicable law or agreed to in writing, software 
  41:../STM32F4xx_StdPeriph_Driver/src/stm32f4xx_syscfg.c ****   * distributed under the License is distributed on an "AS IS" BASIS, 
  42:../STM32F4xx_StdPeriph_Driver/src/stm32f4xx_syscfg.c ****   * WITHOUT WARRANTIES OR CONDITIONS OF ANY KIND, either express or implied.
  43:../STM32F4xx_StdPeriph_Driver/src/stm32f4xx_syscfg.c ****   * See the License for the specific language governing permissions and
  44:../STM32F4xx_StdPeriph_Driver/src/stm32f4xx_syscfg.c ****   * limitations under the License.
  45:../STM32F4xx_StdPeriph_Driver/src/stm32f4xx_syscfg.c ****   *
  46:../STM32F4xx_StdPeriph_Driver/src/stm32f4xx_syscfg.c ****   ******************************************************************************
  47:../STM32F4xx_StdPeriph_Driver/src/stm32f4xx_syscfg.c ****   */
  48:../STM32F4xx_StdPeriph_Driver/src/stm32f4xx_syscfg.c **** 
  49:../STM32F4xx_StdPeriph_Driver/src/stm32f4xx_syscfg.c **** /* Includes ------------------------------------------------------------------*/
  50:../STM32F4xx_StdPeriph_Driver/src/stm32f4xx_syscfg.c **** #include "stm32f4xx_syscfg.h"
  51:../STM32F4xx_StdPeriph_Driver/src/stm32f4xx_syscfg.c **** #include "stm32f4xx_rcc.h"
  52:../STM32F4xx_StdPeriph_Driver/src/stm32f4xx_syscfg.c **** 
  53:../STM32F4xx_StdPeriph_Driver/src/stm32f4xx_syscfg.c **** /** @addtogroup STM32F4xx_StdPeriph_Driver
  54:../STM32F4xx_StdPeriph_Driver/src/stm32f4xx_syscfg.c ****   * @{
  55:../STM32F4xx_StdPeriph_Driver/src/stm32f4xx_syscfg.c ****   */
  56:../STM32F4xx_StdPeriph_Driver/src/stm32f4xx_syscfg.c **** 
  57:../STM32F4xx_StdPeriph_Driver/src/stm32f4xx_syscfg.c **** /** @defgroup SYSCFG 
  58:../STM32F4xx_StdPeriph_Driver/src/stm32f4xx_syscfg.c ****   * @brief SYSCFG driver modules
  59:../STM32F4xx_StdPeriph_Driver/src/stm32f4xx_syscfg.c ****   * @{
  60:../STM32F4xx_StdPeriph_Driver/src/stm32f4xx_syscfg.c ****   */ 
  61:../STM32F4xx_StdPeriph_Driver/src/stm32f4xx_syscfg.c **** 
  62:../STM32F4xx_StdPeriph_Driver/src/stm32f4xx_syscfg.c **** /* Private typedef -----------------------------------------------------------*/
  63:../STM32F4xx_StdPeriph_Driver/src/stm32f4xx_syscfg.c **** /* Private define ------------------------------------------------------------*/
  64:../STM32F4xx_StdPeriph_Driver/src/stm32f4xx_syscfg.c **** /* ------------ RCC registers bit address in the alias region ----------- */
  65:../STM32F4xx_StdPeriph_Driver/src/stm32f4xx_syscfg.c **** #define SYSCFG_OFFSET             (SYSCFG_BASE - PERIPH_BASE)
  66:../STM32F4xx_StdPeriph_Driver/src/stm32f4xx_syscfg.c **** /* ---  MEMRMP Register ---*/ 
  67:../STM32F4xx_StdPeriph_Driver/src/stm32f4xx_syscfg.c **** /* Alias word address of UFB_MODE bit */ 
  68:../STM32F4xx_StdPeriph_Driver/src/stm32f4xx_syscfg.c **** #define MEMRMP_OFFSET             SYSCFG_OFFSET 
  69:../STM32F4xx_StdPeriph_Driver/src/stm32f4xx_syscfg.c **** #define UFB_MODE_BitNumber        ((uint8_t)0x8) 
  70:../STM32F4xx_StdPeriph_Driver/src/stm32f4xx_syscfg.c **** #define UFB_MODE_BB               (PERIPH_BB_BASE + (MEMRMP_OFFSET * 32) + (UFB_MODE_BitNumber * 4)
  71:../STM32F4xx_StdPeriph_Driver/src/stm32f4xx_syscfg.c **** 
  72:../STM32F4xx_StdPeriph_Driver/src/stm32f4xx_syscfg.c **** 
  73:../STM32F4xx_StdPeriph_Driver/src/stm32f4xx_syscfg.c **** /* ---  PMC Register ---*/ 
  74:../STM32F4xx_StdPeriph_Driver/src/stm32f4xx_syscfg.c **** /* Alias word address of MII_RMII_SEL bit */ 
  75:../STM32F4xx_StdPeriph_Driver/src/stm32f4xx_syscfg.c **** #define PMC_OFFSET                (SYSCFG_OFFSET + 0x04) 
  76:../STM32F4xx_StdPeriph_Driver/src/stm32f4xx_syscfg.c **** #define MII_RMII_SEL_BitNumber    ((uint8_t)0x17) 
  77:../STM32F4xx_StdPeriph_Driver/src/stm32f4xx_syscfg.c **** #define PMC_MII_RMII_SEL_BB       (PERIPH_BB_BASE + (PMC_OFFSET * 32) + (MII_RMII_SEL_BitNumber * 4
  78:../STM32F4xx_StdPeriph_Driver/src/stm32f4xx_syscfg.c **** 
  79:../STM32F4xx_StdPeriph_Driver/src/stm32f4xx_syscfg.c **** /* ---  CMPCR Register ---*/ 
  80:../STM32F4xx_StdPeriph_Driver/src/stm32f4xx_syscfg.c **** /* Alias word address of CMP_PD bit */ 
  81:../STM32F4xx_StdPeriph_Driver/src/stm32f4xx_syscfg.c **** #define CMPCR_OFFSET              (SYSCFG_OFFSET + 0x20) 
  82:../STM32F4xx_StdPeriph_Driver/src/stm32f4xx_syscfg.c **** #define CMP_PD_BitNumber          ((uint8_t)0x00) 
  83:../STM32F4xx_StdPeriph_Driver/src/stm32f4xx_syscfg.c **** #define CMPCR_CMP_PD_BB           (PERIPH_BB_BASE + (CMPCR_OFFSET * 32) + (CMP_PD_BitNumber * 4)) 
  84:../STM32F4xx_StdPeriph_Driver/src/stm32f4xx_syscfg.c **** 
  85:../STM32F4xx_StdPeriph_Driver/src/stm32f4xx_syscfg.c **** /* Private macro -------------------------------------------------------------*/
  86:../STM32F4xx_StdPeriph_Driver/src/stm32f4xx_syscfg.c **** /* Private variables ---------------------------------------------------------*/
  87:../STM32F4xx_StdPeriph_Driver/src/stm32f4xx_syscfg.c **** /* Private function prototypes -----------------------------------------------*/
  88:../STM32F4xx_StdPeriph_Driver/src/stm32f4xx_syscfg.c **** /* Private functions ---------------------------------------------------------*/
  89:../STM32F4xx_StdPeriph_Driver/src/stm32f4xx_syscfg.c **** 
  90:../STM32F4xx_StdPeriph_Driver/src/stm32f4xx_syscfg.c **** /** @defgroup SYSCFG_Private_Functions
  91:../STM32F4xx_StdPeriph_Driver/src/stm32f4xx_syscfg.c ****   * @{
  92:../STM32F4xx_StdPeriph_Driver/src/stm32f4xx_syscfg.c ****   */ 
  93:../STM32F4xx_StdPeriph_Driver/src/stm32f4xx_syscfg.c **** 
  94:../STM32F4xx_StdPeriph_Driver/src/stm32f4xx_syscfg.c **** /**
  95:../STM32F4xx_StdPeriph_Driver/src/stm32f4xx_syscfg.c ****   * @brief  Deinitializes the Alternate Functions (remap and EXTI configuration)
  96:../STM32F4xx_StdPeriph_Driver/src/stm32f4xx_syscfg.c ****   *   registers to their default reset values.
  97:../STM32F4xx_StdPeriph_Driver/src/stm32f4xx_syscfg.c ****   * @param  None
  98:../STM32F4xx_StdPeriph_Driver/src/stm32f4xx_syscfg.c ****   * @retval None
  99:../STM32F4xx_StdPeriph_Driver/src/stm32f4xx_syscfg.c ****   */
 100:../STM32F4xx_StdPeriph_Driver/src/stm32f4xx_syscfg.c **** void SYSCFG_DeInit(void)
 101:../STM32F4xx_StdPeriph_Driver/src/stm32f4xx_syscfg.c **** {
  27              		.loc 1 101 0
  28              		.cfi_startproc
  29              		@ args = 0, pretend = 0, frame = 0
  30              		@ frame_needed = 1, uses_anonymous_args = 0
  31 0000 80B5     		push	{r7, lr}
  32              	.LCFI0:
  33              		.cfi_def_cfa_offset 8
  34              		.cfi_offset 7, -8
  35              		.cfi_offset 14, -4
  36 0002 00AF     		add	r7, sp, #0
  37              	.LCFI1:
  38              		.cfi_def_cfa_register 7
 102:../STM32F4xx_StdPeriph_Driver/src/stm32f4xx_syscfg.c ****    RCC_APB2PeriphResetCmd(RCC_APB2Periph_SYSCFG, ENABLE);
  39              		.loc 1 102 0
  40 0004 4FF48040 		mov	r0, #16384
  41 0008 4FF00101 		mov	r1, #1
  42 000c FFF7FEFF 		bl	RCC_APB2PeriphResetCmd
 103:../STM32F4xx_StdPeriph_Driver/src/stm32f4xx_syscfg.c ****    RCC_APB2PeriphResetCmd(RCC_APB2Periph_SYSCFG, DISABLE);
  43              		.loc 1 103 0
  44 0010 4FF48040 		mov	r0, #16384
  45 0014 4FF00001 		mov	r1, #0
  46 0018 FFF7FEFF 		bl	RCC_APB2PeriphResetCmd
 104:../STM32F4xx_StdPeriph_Driver/src/stm32f4xx_syscfg.c **** }
  47              		.loc 1 104 0
  48 001c 80BD     		pop	{r7, pc}
  49              		.cfi_endproc
  50              	.LFE112:
  52 001e 00BF     		.section	.text.SYSCFG_MemoryRemapConfig,"ax",%progbits
  53              		.align	2
  54              		.global	SYSCFG_MemoryRemapConfig
  55              		.thumb
  56              		.thumb_func
  58              	SYSCFG_MemoryRemapConfig:
  59              	.LFB113:
 105:../STM32F4xx_StdPeriph_Driver/src/stm32f4xx_syscfg.c **** 
 106:../STM32F4xx_StdPeriph_Driver/src/stm32f4xx_syscfg.c **** /**
 107:../STM32F4xx_StdPeriph_Driver/src/stm32f4xx_syscfg.c ****   * @brief  Changes the mapping of the specified pin.
 108:../STM32F4xx_StdPeriph_Driver/src/stm32f4xx_syscfg.c ****   * @param  SYSCFG_Memory: selects the memory remapping.
 109:../STM32F4xx_StdPeriph_Driver/src/stm32f4xx_syscfg.c ****   *         This parameter can be one of the following values:
 110:../STM32F4xx_StdPeriph_Driver/src/stm32f4xx_syscfg.c ****   *            @arg SYSCFG_MemoryRemap_Flash:       Main Flash memory mapped at 0x00000000  
 111:../STM32F4xx_StdPeriph_Driver/src/stm32f4xx_syscfg.c ****   *            @arg SYSCFG_MemoryRemap_SystemFlash: System Flash memory mapped at 0x00000000
 112:../STM32F4xx_StdPeriph_Driver/src/stm32f4xx_syscfg.c ****   *            @arg SYSCFG_MemoryRemap_FSMC:        FSMC (Bank1 (NOR/PSRAM 1 and 2) mapped at 0x000
 113:../STM32F4xx_StdPeriph_Driver/src/stm32f4xx_syscfg.c ****   *            @arg SYSCFG_MemoryRemap_FMC:         FMC (Bank1 (NOR/PSRAM 1 and 2) mapped at 0x0000
 114:../STM32F4xx_StdPeriph_Driver/src/stm32f4xx_syscfg.c ****   *            @arg SYSCFG_MemoryRemap_SRAM:        Embedded SRAM (112kB) mapped at 0x00000000
 115:../STM32F4xx_StdPeriph_Driver/src/stm32f4xx_syscfg.c ****   *            @arg SYSCFG_MemoryRemap_SDRAM:       FMC (External SDRAM)  mapped at 0x00000000 for 
 116:../STM32F4xx_StdPeriph_Driver/src/stm32f4xx_syscfg.c ****   * @retval None
 117:../STM32F4xx_StdPeriph_Driver/src/stm32f4xx_syscfg.c ****   */
 118:../STM32F4xx_StdPeriph_Driver/src/stm32f4xx_syscfg.c **** void SYSCFG_MemoryRemapConfig(uint8_t SYSCFG_MemoryRemap)
 119:../STM32F4xx_StdPeriph_Driver/src/stm32f4xx_syscfg.c **** {
  60              		.loc 1 119 0
  61              		.cfi_startproc
  62              		@ args = 0, pretend = 0, frame = 8
  63              		@ frame_needed = 1, uses_anonymous_args = 0
  64              		@ link register save eliminated.
  65 0000 80B4     		push	{r7}
  66              	.LCFI2:
  67              		.cfi_def_cfa_offset 4
  68              		.cfi_offset 7, -4
  69 0002 83B0     		sub	sp, sp, #12
  70              	.LCFI3:
  71              		.cfi_def_cfa_offset 16
  72 0004 00AF     		add	r7, sp, #0
  73              	.LCFI4:
  74              		.cfi_def_cfa_register 7
  75 0006 0346     		mov	r3, r0
  76 0008 FB71     		strb	r3, [r7, #7]
 120:../STM32F4xx_StdPeriph_Driver/src/stm32f4xx_syscfg.c ****   /* Check the parameters */
 121:../STM32F4xx_StdPeriph_Driver/src/stm32f4xx_syscfg.c ****   assert_param(IS_SYSCFG_MEMORY_REMAP_CONFING(SYSCFG_MemoryRemap));
 122:../STM32F4xx_StdPeriph_Driver/src/stm32f4xx_syscfg.c **** 
 123:../STM32F4xx_StdPeriph_Driver/src/stm32f4xx_syscfg.c ****   SYSCFG->MEMRMP = SYSCFG_MemoryRemap;
  77              		.loc 1 123 0
  78 000a 044B     		ldr	r3, .L3
  79 000c FA79     		ldrb	r2, [r7, #7]	@ zero_extendqisi2
  80 000e 1A60     		str	r2, [r3, #0]
 124:../STM32F4xx_StdPeriph_Driver/src/stm32f4xx_syscfg.c **** }
  81              		.loc 1 124 0
  82 0010 07F10C07 		add	r7, r7, #12
  83 0014 BD46     		mov	sp, r7
  84 0016 80BC     		pop	{r7}
  85 0018 7047     		bx	lr
  86              	.L4:
  87 001a 00BF     		.align	2
  88              	.L3:
  89 001c 00380140 		.word	1073821696
  90              		.cfi_endproc
  91              	.LFE113:
  93              		.section	.text.SYSCFG_MemorySwappingBank,"ax",%progbits
  94              		.align	2
  95              		.global	SYSCFG_MemorySwappingBank
  96              		.thumb
  97              		.thumb_func
  99              	SYSCFG_MemorySwappingBank:
 100              	.LFB114:
 125:../STM32F4xx_StdPeriph_Driver/src/stm32f4xx_syscfg.c **** 
 126:../STM32F4xx_StdPeriph_Driver/src/stm32f4xx_syscfg.c **** /**
 127:../STM32F4xx_StdPeriph_Driver/src/stm32f4xx_syscfg.c ****   * @brief  Enables or disables the Interal FLASH Bank Swapping.
 128:../STM32F4xx_StdPeriph_Driver/src/stm32f4xx_syscfg.c ****   *   
 129:../STM32F4xx_StdPeriph_Driver/src/stm32f4xx_syscfg.c ****   * @note   This function can be used only for STM32F42xxx/43xxx devices. 
 130:../STM32F4xx_StdPeriph_Driver/src/stm32f4xx_syscfg.c ****   *
 131:../STM32F4xx_StdPeriph_Driver/src/stm32f4xx_syscfg.c ****   * @param  NewState: new state of Interal FLASH Bank swapping.
 132:../STM32F4xx_StdPeriph_Driver/src/stm32f4xx_syscfg.c ****   *          This parameter can be one of the following values:
 133:../STM32F4xx_StdPeriph_Driver/src/stm32f4xx_syscfg.c ****   *            @arg ENABLE: Flash Bank2 mapped at 0x08000000 (and aliased @0x00000000) 
 134:../STM32F4xx_StdPeriph_Driver/src/stm32f4xx_syscfg.c ****   *                         and Flash Bank1 mapped at 0x08100000 (and aliased at 0x00100000)   
 135:../STM32F4xx_StdPeriph_Driver/src/stm32f4xx_syscfg.c ****   *            @arg DISABLE:(the default state) Flash Bank1 mapped at 0x08000000 (and aliased @0x00
 136:../STM32F4xx_StdPeriph_Driver/src/stm32f4xx_syscfg.c ****                             and Flash Bank2 mapped at 0x08100000 (and aliased at 0x00100000)  
 137:../STM32F4xx_StdPeriph_Driver/src/stm32f4xx_syscfg.c ****   * @retval None
 138:../STM32F4xx_StdPeriph_Driver/src/stm32f4xx_syscfg.c ****   */
 139:../STM32F4xx_StdPeriph_Driver/src/stm32f4xx_syscfg.c **** void SYSCFG_MemorySwappingBank(FunctionalState NewState)
 140:../STM32F4xx_StdPeriph_Driver/src/stm32f4xx_syscfg.c **** {
 101              		.loc 1 140 0
 102              		.cfi_startproc
 103              		@ args = 0, pretend = 0, frame = 8
 104              		@ frame_needed = 1, uses_anonymous_args = 0
 105              		@ link register save eliminated.
 106 0000 80B4     		push	{r7}
 107              	.LCFI5:
 108              		.cfi_def_cfa_offset 4
 109              		.cfi_offset 7, -4
 110 0002 83B0     		sub	sp, sp, #12
 111              	.LCFI6:
 112              		.cfi_def_cfa_offset 16
 113 0004 00AF     		add	r7, sp, #0
 114              	.LCFI7:
 115              		.cfi_def_cfa_register 7
 116 0006 0346     		mov	r3, r0
 117 0008 FB71     		strb	r3, [r7, #7]
 141:../STM32F4xx_StdPeriph_Driver/src/stm32f4xx_syscfg.c ****   /* Check the parameters */
 142:../STM32F4xx_StdPeriph_Driver/src/stm32f4xx_syscfg.c ****   assert_param(IS_FUNCTIONAL_STATE(NewState));
 143:../STM32F4xx_StdPeriph_Driver/src/stm32f4xx_syscfg.c **** 
 144:../STM32F4xx_StdPeriph_Driver/src/stm32f4xx_syscfg.c ****   *(__IO uint32_t *) UFB_MODE_BB = (uint32_t)NewState;
 118              		.loc 1 144 0
 119 000a 044B     		ldr	r3, .L6
 120 000c FA79     		ldrb	r2, [r7, #7]	@ zero_extendqisi2
 121 000e 1A60     		str	r2, [r3, #0]
 145:../STM32F4xx_StdPeriph_Driver/src/stm32f4xx_syscfg.c **** }
 122              		.loc 1 145 0
 123 0010 07F10C07 		add	r7, r7, #12
 124 0014 BD46     		mov	sp, r7
 125 0016 80BC     		pop	{r7}
 126 0018 7047     		bx	lr
 127              	.L7:
 128 001a 00BF     		.align	2
 129              	.L6:
 130 001c 20002742 		.word	1109852192
 131              		.cfi_endproc
 132              	.LFE114:
 134              		.section	.text.SYSCFG_EXTILineConfig,"ax",%progbits
 135              		.align	2
 136              		.global	SYSCFG_EXTILineConfig
 137              		.thumb
 138              		.thumb_func
 140              	SYSCFG_EXTILineConfig:
 141              	.LFB115:
 146:../STM32F4xx_StdPeriph_Driver/src/stm32f4xx_syscfg.c **** 
 147:../STM32F4xx_StdPeriph_Driver/src/stm32f4xx_syscfg.c **** /**
 148:../STM32F4xx_StdPeriph_Driver/src/stm32f4xx_syscfg.c ****   * @brief  Selects the GPIO pin used as EXTI Line.
 149:../STM32F4xx_StdPeriph_Driver/src/stm32f4xx_syscfg.c ****   * @param  EXTI_PortSourceGPIOx : selects the GPIO port to be used as source for
 150:../STM32F4xx_StdPeriph_Driver/src/stm32f4xx_syscfg.c ****   *          EXTI lines where x can be (A..K) for STM32F42xxx/43xxx devices, (A..I) 
 151:../STM32F4xx_StdPeriph_Driver/src/stm32f4xx_syscfg.c ****   *          for STM32F405xx/407xx and STM32F415xx/417xx devices or (A, B, C, D and H)
 152:../STM32F4xx_StdPeriph_Driver/src/stm32f4xx_syscfg.c ****   *          for STM32401xx devices.  
 153:../STM32F4xx_StdPeriph_Driver/src/stm32f4xx_syscfg.c ****   *            
 154:../STM32F4xx_StdPeriph_Driver/src/stm32f4xx_syscfg.c ****   * @param  EXTI_PinSourcex: specifies the EXTI line to be configured.
 155:../STM32F4xx_StdPeriph_Driver/src/stm32f4xx_syscfg.c ****   *           This parameter can be EXTI_PinSourcex where x can be (0..15, except
 156:../STM32F4xx_StdPeriph_Driver/src/stm32f4xx_syscfg.c ****   *           for EXTI_PortSourceGPIOI x can be (0..11) for STM32F405xx/407xx
 157:../STM32F4xx_StdPeriph_Driver/src/stm32f4xx_syscfg.c ****   *           and STM32F405xx/407xx devices and for EXTI_PortSourceGPIOK x can   
 158:../STM32F4xx_StdPeriph_Driver/src/stm32f4xx_syscfg.c ****   *           be (0..7) for STM32F42xxx/43xxx devices. 
 159:../STM32F4xx_StdPeriph_Driver/src/stm32f4xx_syscfg.c ****   *             
 160:../STM32F4xx_StdPeriph_Driver/src/stm32f4xx_syscfg.c ****   * @retval None
 161:../STM32F4xx_StdPeriph_Driver/src/stm32f4xx_syscfg.c ****   */
 162:../STM32F4xx_StdPeriph_Driver/src/stm32f4xx_syscfg.c **** void SYSCFG_EXTILineConfig(uint8_t EXTI_PortSourceGPIOx, uint8_t EXTI_PinSourcex)
 163:../STM32F4xx_StdPeriph_Driver/src/stm32f4xx_syscfg.c **** {
 142              		.loc 1 163 0
 143              		.cfi_startproc
 144              		@ args = 0, pretend = 0, frame = 16
 145              		@ frame_needed = 1, uses_anonymous_args = 0
 146              		@ link register save eliminated.
 147 0000 90B4     		push	{r4, r7}
 148              	.LCFI8:
 149              		.cfi_def_cfa_offset 8
 150              		.cfi_offset 4, -8
 151              		.cfi_offset 7, -4
 152 0002 84B0     		sub	sp, sp, #16
 153              	.LCFI9:
 154              		.cfi_def_cfa_offset 24
 155 0004 00AF     		add	r7, sp, #0
 156              	.LCFI10:
 157              		.cfi_def_cfa_register 7
 158 0006 0246     		mov	r2, r0
 159 0008 0B46     		mov	r3, r1
 160 000a FA71     		strb	r2, [r7, #7]
 161 000c BB71     		strb	r3, [r7, #6]
 164:../STM32F4xx_StdPeriph_Driver/src/stm32f4xx_syscfg.c ****   uint32_t tmp = 0x00;
 162              		.loc 1 164 0
 163 000e 4FF00003 		mov	r3, #0
 164 0012 FB60     		str	r3, [r7, #12]
 165:../STM32F4xx_StdPeriph_Driver/src/stm32f4xx_syscfg.c **** 
 166:../STM32F4xx_StdPeriph_Driver/src/stm32f4xx_syscfg.c ****   /* Check the parameters */
 167:../STM32F4xx_StdPeriph_Driver/src/stm32f4xx_syscfg.c ****   assert_param(IS_EXTI_PORT_SOURCE(EXTI_PortSourceGPIOx));
 168:../STM32F4xx_StdPeriph_Driver/src/stm32f4xx_syscfg.c ****   assert_param(IS_EXTI_PIN_SOURCE(EXTI_PinSourcex));
 169:../STM32F4xx_StdPeriph_Driver/src/stm32f4xx_syscfg.c **** 
 170:../STM32F4xx_StdPeriph_Driver/src/stm32f4xx_syscfg.c ****   tmp = ((uint32_t)0x0F) << (0x04 * (EXTI_PinSourcex & (uint8_t)0x03));
 165              		.loc 1 170 0
 166 0014 BB79     		ldrb	r3, [r7, #6]	@ zero_extendqisi2
 167 0016 03F00303 		and	r3, r3, #3
 168 001a 4FEA8303 		lsl	r3, r3, #2
 169 001e 4FF00F02 		mov	r2, #15
 170 0022 02FA03F3 		lsl	r3, r2, r3
 171 0026 FB60     		str	r3, [r7, #12]
 171:../STM32F4xx_StdPeriph_Driver/src/stm32f4xx_syscfg.c ****   SYSCFG->EXTICR[EXTI_PinSourcex >> 0x02] &= ~tmp;
 172              		.loc 1 171 0
 173 0028 1A4B     		ldr	r3, .L9
 174 002a BA79     		ldrb	r2, [r7, #6]	@ zero_extendqisi2
 175 002c 4FEA9202 		lsr	r2, r2, #2
 176 0030 D2B2     		uxtb	r2, r2
 177 0032 1849     		ldr	r1, .L9
 178 0034 B879     		ldrb	r0, [r7, #6]	@ zero_extendqisi2
 179 0036 4FEA9000 		lsr	r0, r0, #2
 180 003a C0B2     		uxtb	r0, r0
 181 003c 00F10200 		add	r0, r0, #2
 182 0040 51F82000 		ldr	r0, [r1, r0, lsl #2]
 183 0044 F968     		ldr	r1, [r7, #12]
 184 0046 6FEA0101 		mvn	r1, r1
 185 004a 0140     		ands	r1, r1, r0
 186 004c 02F10202 		add	r2, r2, #2
 187 0050 43F82210 		str	r1, [r3, r2, lsl #2]
 172:../STM32F4xx_StdPeriph_Driver/src/stm32f4xx_syscfg.c ****   SYSCFG->EXTICR[EXTI_PinSourcex >> 0x02] |= (((uint32_t)EXTI_PortSourceGPIOx) << (0x04 * (EXTI_Pin
 188              		.loc 1 172 0
 189 0054 0F4B     		ldr	r3, .L9
 190 0056 BA79     		ldrb	r2, [r7, #6]	@ zero_extendqisi2
 191 0058 4FEA9202 		lsr	r2, r2, #2
 192 005c D2B2     		uxtb	r2, r2
 193 005e 0D49     		ldr	r1, .L9
 194 0060 B879     		ldrb	r0, [r7, #6]	@ zero_extendqisi2
 195 0062 4FEA9000 		lsr	r0, r0, #2
 196 0066 C0B2     		uxtb	r0, r0
 197 0068 00F10200 		add	r0, r0, #2
 198 006c 51F82000 		ldr	r0, [r1, r0, lsl #2]
 199 0070 FC79     		ldrb	r4, [r7, #7]	@ zero_extendqisi2
 200 0072 B979     		ldrb	r1, [r7, #6]	@ zero_extendqisi2
 201 0074 01F00301 		and	r1, r1, #3
 202 0078 4FEA8101 		lsl	r1, r1, #2
 203 007c 04FA01F1 		lsl	r1, r4, r1
 204 0080 0143     		orrs	r1, r1, r0
 205 0082 02F10202 		add	r2, r2, #2
 206 0086 43F82210 		str	r1, [r3, r2, lsl #2]
 173:../STM32F4xx_StdPeriph_Driver/src/stm32f4xx_syscfg.c **** }
 207              		.loc 1 173 0
 208 008a 07F11007 		add	r7, r7, #16
 209 008e BD46     		mov	sp, r7
 210 0090 90BC     		pop	{r4, r7}
 211 0092 7047     		bx	lr
 212              	.L10:
 213              		.align	2
 214              	.L9:
 215 0094 00380140 		.word	1073821696
 216              		.cfi_endproc
 217              	.LFE115:
 219              		.section	.text.SYSCFG_ETH_MediaInterfaceConfig,"ax",%progbits
 220              		.align	2
 221              		.global	SYSCFG_ETH_MediaInterfaceConfig
 222              		.thumb
 223              		.thumb_func
 225              	SYSCFG_ETH_MediaInterfaceConfig:
 226              	.LFB116:
 174:../STM32F4xx_StdPeriph_Driver/src/stm32f4xx_syscfg.c **** 
 175:../STM32F4xx_StdPeriph_Driver/src/stm32f4xx_syscfg.c **** /**
 176:../STM32F4xx_StdPeriph_Driver/src/stm32f4xx_syscfg.c ****   * @brief  Selects the ETHERNET media interface 
 177:../STM32F4xx_StdPeriph_Driver/src/stm32f4xx_syscfg.c ****   * @param  SYSCFG_ETH_MediaInterface: specifies the Media Interface mode. 
 178:../STM32F4xx_StdPeriph_Driver/src/stm32f4xx_syscfg.c ****   *          This parameter can be one of the following values: 
 179:../STM32F4xx_StdPeriph_Driver/src/stm32f4xx_syscfg.c ****   *            @arg SYSCFG_ETH_MediaInterface_MII: MII mode selected
 180:../STM32F4xx_StdPeriph_Driver/src/stm32f4xx_syscfg.c ****   *            @arg SYSCFG_ETH_MediaInterface_RMII: RMII mode selected 
 181:../STM32F4xx_StdPeriph_Driver/src/stm32f4xx_syscfg.c ****   * @retval None 
 182:../STM32F4xx_StdPeriph_Driver/src/stm32f4xx_syscfg.c ****   */
 183:../STM32F4xx_StdPeriph_Driver/src/stm32f4xx_syscfg.c **** void SYSCFG_ETH_MediaInterfaceConfig(uint32_t SYSCFG_ETH_MediaInterface) 
 184:../STM32F4xx_StdPeriph_Driver/src/stm32f4xx_syscfg.c **** { 
 227              		.loc 1 184 0
 228              		.cfi_startproc
 229              		@ args = 0, pretend = 0, frame = 8
 230              		@ frame_needed = 1, uses_anonymous_args = 0
 231              		@ link register save eliminated.
 232 0000 80B4     		push	{r7}
 233              	.LCFI11:
 234              		.cfi_def_cfa_offset 4
 235              		.cfi_offset 7, -4
 236 0002 83B0     		sub	sp, sp, #12
 237              	.LCFI12:
 238              		.cfi_def_cfa_offset 16
 239 0004 00AF     		add	r7, sp, #0
 240              	.LCFI13:
 241              		.cfi_def_cfa_register 7
 242 0006 7860     		str	r0, [r7, #4]
 185:../STM32F4xx_StdPeriph_Driver/src/stm32f4xx_syscfg.c ****   assert_param(IS_SYSCFG_ETH_MEDIA_INTERFACE(SYSCFG_ETH_MediaInterface)); 
 186:../STM32F4xx_StdPeriph_Driver/src/stm32f4xx_syscfg.c ****   /* Configure MII_RMII selection bit */ 
 187:../STM32F4xx_StdPeriph_Driver/src/stm32f4xx_syscfg.c ****   *(__IO uint32_t *) PMC_MII_RMII_SEL_BB = SYSCFG_ETH_MediaInterface; 
 243              		.loc 1 187 0
 244 0008 034B     		ldr	r3, .L12
 245 000a 7A68     		ldr	r2, [r7, #4]
 246 000c 1A60     		str	r2, [r3, #0]
 188:../STM32F4xx_StdPeriph_Driver/src/stm32f4xx_syscfg.c **** }
 247              		.loc 1 188 0
 248 000e 07F10C07 		add	r7, r7, #12
 249 0012 BD46     		mov	sp, r7
 250 0014 80BC     		pop	{r7}
 251 0016 7047     		bx	lr
 252              	.L13:
 253              		.align	2
 254              	.L12:
 255 0018 DC002742 		.word	1109852380
 256              		.cfi_endproc
 257              	.LFE116:
 259              		.section	.text.SYSCFG_CompensationCellCmd,"ax",%progbits
 260              		.align	2
 261              		.global	SYSCFG_CompensationCellCmd
 262              		.thumb
 263              		.thumb_func
 265              	SYSCFG_CompensationCellCmd:
 266              	.LFB117:
 189:../STM32F4xx_StdPeriph_Driver/src/stm32f4xx_syscfg.c **** 
 190:../STM32F4xx_StdPeriph_Driver/src/stm32f4xx_syscfg.c **** /**
 191:../STM32F4xx_StdPeriph_Driver/src/stm32f4xx_syscfg.c ****   * @brief  Enables or disables the I/O Compensation Cell.
 192:../STM32F4xx_StdPeriph_Driver/src/stm32f4xx_syscfg.c ****   * @note   The I/O compensation cell can be used only when the device supply
 193:../STM32F4xx_StdPeriph_Driver/src/stm32f4xx_syscfg.c ****   *         voltage ranges from 2.4 to 3.6 V.  
 194:../STM32F4xx_StdPeriph_Driver/src/stm32f4xx_syscfg.c ****   * @param  NewState: new state of the I/O Compensation Cell.
 195:../STM32F4xx_StdPeriph_Driver/src/stm32f4xx_syscfg.c ****   *          This parameter can be one of the following values:
 196:../STM32F4xx_StdPeriph_Driver/src/stm32f4xx_syscfg.c ****   *            @arg ENABLE: I/O compensation cell enabled  
 197:../STM32F4xx_StdPeriph_Driver/src/stm32f4xx_syscfg.c ****   *            @arg DISABLE: I/O compensation cell power-down mode  
 198:../STM32F4xx_StdPeriph_Driver/src/stm32f4xx_syscfg.c ****   * @retval None
 199:../STM32F4xx_StdPeriph_Driver/src/stm32f4xx_syscfg.c ****   */
 200:../STM32F4xx_StdPeriph_Driver/src/stm32f4xx_syscfg.c **** void SYSCFG_CompensationCellCmd(FunctionalState NewState)
 201:../STM32F4xx_StdPeriph_Driver/src/stm32f4xx_syscfg.c **** {
 267              		.loc 1 201 0
 268              		.cfi_startproc
 269              		@ args = 0, pretend = 0, frame = 8
 270              		@ frame_needed = 1, uses_anonymous_args = 0
 271              		@ link register save eliminated.
 272 0000 80B4     		push	{r7}
 273              	.LCFI14:
 274              		.cfi_def_cfa_offset 4
 275              		.cfi_offset 7, -4
 276 0002 83B0     		sub	sp, sp, #12
 277              	.LCFI15:
 278              		.cfi_def_cfa_offset 16
 279 0004 00AF     		add	r7, sp, #0
 280              	.LCFI16:
 281              		.cfi_def_cfa_register 7
 282 0006 0346     		mov	r3, r0
 283 0008 FB71     		strb	r3, [r7, #7]
 202:../STM32F4xx_StdPeriph_Driver/src/stm32f4xx_syscfg.c ****   /* Check the parameters */
 203:../STM32F4xx_StdPeriph_Driver/src/stm32f4xx_syscfg.c ****   assert_param(IS_FUNCTIONAL_STATE(NewState));
 204:../STM32F4xx_StdPeriph_Driver/src/stm32f4xx_syscfg.c **** 
 205:../STM32F4xx_StdPeriph_Driver/src/stm32f4xx_syscfg.c ****   *(__IO uint32_t *) CMPCR_CMP_PD_BB = (uint32_t)NewState;
 284              		.loc 1 205 0
 285 000a 044B     		ldr	r3, .L15
 286 000c FA79     		ldrb	r2, [r7, #7]	@ zero_extendqisi2
 287 000e 1A60     		str	r2, [r3, #0]
 206:../STM32F4xx_StdPeriph_Driver/src/stm32f4xx_syscfg.c **** }
 288              		.loc 1 206 0
 289 0010 07F10C07 		add	r7, r7, #12
 290 0014 BD46     		mov	sp, r7
 291 0016 80BC     		pop	{r7}
 292 0018 7047     		bx	lr
 293              	.L16:
 294 001a 00BF     		.align	2
 295              	.L15:
 296 001c 00042742 		.word	1109853184
 297              		.cfi_endproc
 298              	.LFE117:
 300              		.section	.text.SYSCFG_GetCompensationCellStatus,"ax",%progbits
 301              		.align	2
 302              		.global	SYSCFG_GetCompensationCellStatus
 303              		.thumb
 304              		.thumb_func
 306              	SYSCFG_GetCompensationCellStatus:
 307              	.LFB118:
 207:../STM32F4xx_StdPeriph_Driver/src/stm32f4xx_syscfg.c **** 
 208:../STM32F4xx_StdPeriph_Driver/src/stm32f4xx_syscfg.c **** /**
 209:../STM32F4xx_StdPeriph_Driver/src/stm32f4xx_syscfg.c ****   * @brief  Checks whether the I/O Compensation Cell ready flag is set or not.
 210:../STM32F4xx_StdPeriph_Driver/src/stm32f4xx_syscfg.c ****   * @param  None
 211:../STM32F4xx_StdPeriph_Driver/src/stm32f4xx_syscfg.c ****   * @retval The new state of the I/O Compensation Cell ready flag (SET or RESET)
 212:../STM32F4xx_StdPeriph_Driver/src/stm32f4xx_syscfg.c ****   */
 213:../STM32F4xx_StdPeriph_Driver/src/stm32f4xx_syscfg.c **** FlagStatus SYSCFG_GetCompensationCellStatus(void)
 214:../STM32F4xx_StdPeriph_Driver/src/stm32f4xx_syscfg.c **** {
 308              		.loc 1 214 0
 309              		.cfi_startproc
 310              		@ args = 0, pretend = 0, frame = 8
 311              		@ frame_needed = 1, uses_anonymous_args = 0
 312              		@ link register save eliminated.
 313 0000 80B4     		push	{r7}
 314              	.LCFI17:
 315              		.cfi_def_cfa_offset 4
 316              		.cfi_offset 7, -4
 317 0002 83B0     		sub	sp, sp, #12
 318              	.LCFI18:
 319              		.cfi_def_cfa_offset 16
 320 0004 00AF     		add	r7, sp, #0
 321              	.LCFI19:
 322              		.cfi_def_cfa_register 7
 215:../STM32F4xx_StdPeriph_Driver/src/stm32f4xx_syscfg.c ****   FlagStatus bitstatus = RESET;
 323              		.loc 1 215 0
 324 0006 4FF00003 		mov	r3, #0
 325 000a FB71     		strb	r3, [r7, #7]
 216:../STM32F4xx_StdPeriph_Driver/src/stm32f4xx_syscfg.c ****     
 217:../STM32F4xx_StdPeriph_Driver/src/stm32f4xx_syscfg.c ****   if ((SYSCFG->CMPCR & SYSCFG_CMPCR_READY ) != (uint32_t)RESET)
 326              		.loc 1 217 0
 327 000c 094B     		ldr	r3, .L21
 328 000e 1B6A     		ldr	r3, [r3, #32]
 329 0010 03F48073 		and	r3, r3, #256
 330 0014 002B     		cmp	r3, #0
 331 0016 03D0     		beq	.L18
 218:../STM32F4xx_StdPeriph_Driver/src/stm32f4xx_syscfg.c ****   {
 219:../STM32F4xx_StdPeriph_Driver/src/stm32f4xx_syscfg.c ****     bitstatus = SET;
 332              		.loc 1 219 0
 333 0018 4FF00103 		mov	r3, #1
 334 001c FB71     		strb	r3, [r7, #7]
 335 001e 02E0     		b	.L19
 336              	.L18:
 220:../STM32F4xx_StdPeriph_Driver/src/stm32f4xx_syscfg.c ****   }
 221:../STM32F4xx_StdPeriph_Driver/src/stm32f4xx_syscfg.c ****   else
 222:../STM32F4xx_StdPeriph_Driver/src/stm32f4xx_syscfg.c ****   {
 223:../STM32F4xx_StdPeriph_Driver/src/stm32f4xx_syscfg.c ****     bitstatus = RESET;
 337              		.loc 1 223 0
 338 0020 4FF00003 		mov	r3, #0
 339 0024 FB71     		strb	r3, [r7, #7]
 340              	.L19:
 224:../STM32F4xx_StdPeriph_Driver/src/stm32f4xx_syscfg.c ****   }
 225:../STM32F4xx_StdPeriph_Driver/src/stm32f4xx_syscfg.c ****   return bitstatus;
 341              		.loc 1 225 0
 342 0026 FB79     		ldrb	r3, [r7, #7]	@ zero_extendqisi2
 226:../STM32F4xx_StdPeriph_Driver/src/stm32f4xx_syscfg.c **** }
 343              		.loc 1 226 0
 344 0028 1846     		mov	r0, r3
 345 002a 07F10C07 		add	r7, r7, #12
 346 002e BD46     		mov	sp, r7
 347 0030 80BC     		pop	{r7}
 348 0032 7047     		bx	lr
 349              	.L22:
 350              		.align	2
 351              	.L21:
 352 0034 00380140 		.word	1073821696
 353              		.cfi_endproc
 354              	.LFE118:
 356              		.text
 357              	.Letext0:
 358              		.file 2 "c:\\arm\\codesourcery\\bin\\../lib/gcc/arm-none-eabi/4.7.3/../../../../arm-none-eabi/incl
 359              		.file 3 "C:\\ARM\\workspace\\stm32f429_lcd2\\base/stm32f4xx.h"
 360              		.file 4 "C:\\ARM\\workspace\\stm32f429_lcd2\\base/core_cm4.h"
DEFINED SYMBOLS
                            *ABS*:00000000 stm32f4xx_syscfg.c
C:\Users\tompul\AppData\Local\Temp\ccrpVQNi.s:19     .text.SYSCFG_DeInit:00000000 $t
C:\Users\tompul\AppData\Local\Temp\ccrpVQNi.s:24     .text.SYSCFG_DeInit:00000000 SYSCFG_DeInit
C:\Users\tompul\AppData\Local\Temp\ccrpVQNi.s:53     .text.SYSCFG_MemoryRemapConfig:00000000 $t
C:\Users\tompul\AppData\Local\Temp\ccrpVQNi.s:58     .text.SYSCFG_MemoryRemapConfig:00000000 SYSCFG_MemoryRemapConfig
C:\Users\tompul\AppData\Local\Temp\ccrpVQNi.s:89     .text.SYSCFG_MemoryRemapConfig:0000001c $d
C:\Users\tompul\AppData\Local\Temp\ccrpVQNi.s:94     .text.SYSCFG_MemorySwappingBank:00000000 $t
C:\Users\tompul\AppData\Local\Temp\ccrpVQNi.s:99     .text.SYSCFG_MemorySwappingBank:00000000 SYSCFG_MemorySwappingBank
C:\Users\tompul\AppData\Local\Temp\ccrpVQNi.s:130    .text.SYSCFG_MemorySwappingBank:0000001c $d
C:\Users\tompul\AppData\Local\Temp\ccrpVQNi.s:135    .text.SYSCFG_EXTILineConfig:00000000 $t
C:\Users\tompul\AppData\Local\Temp\ccrpVQNi.s:140    .text.SYSCFG_EXTILineConfig:00000000 SYSCFG_EXTILineConfig
C:\Users\tompul\AppData\Local\Temp\ccrpVQNi.s:215    .text.SYSCFG_EXTILineConfig:00000094 $d
C:\Users\tompul\AppData\Local\Temp\ccrpVQNi.s:220    .text.SYSCFG_ETH_MediaInterfaceConfig:00000000 $t
C:\Users\tompul\AppData\Local\Temp\ccrpVQNi.s:225    .text.SYSCFG_ETH_MediaInterfaceConfig:00000000 SYSCFG_ETH_MediaInterfaceConfig
C:\Users\tompul\AppData\Local\Temp\ccrpVQNi.s:255    .text.SYSCFG_ETH_MediaInterfaceConfig:00000018 $d
C:\Users\tompul\AppData\Local\Temp\ccrpVQNi.s:260    .text.SYSCFG_CompensationCellCmd:00000000 $t
C:\Users\tompul\AppData\Local\Temp\ccrpVQNi.s:265    .text.SYSCFG_CompensationCellCmd:00000000 SYSCFG_CompensationCellCmd
C:\Users\tompul\AppData\Local\Temp\ccrpVQNi.s:296    .text.SYSCFG_CompensationCellCmd:0000001c $d
C:\Users\tompul\AppData\Local\Temp\ccrpVQNi.s:301    .text.SYSCFG_GetCompensationCellStatus:00000000 $t
C:\Users\tompul\AppData\Local\Temp\ccrpVQNi.s:306    .text.SYSCFG_GetCompensationCellStatus:00000000 SYSCFG_GetCompensationCellStatus
C:\Users\tompul\AppData\Local\Temp\ccrpVQNi.s:352    .text.SYSCFG_GetCompensationCellStatus:00000034 $d
                     .debug_frame:00000010 $d
                           .group:00000000 wm4.1.5ce194b057960c3b43452aae6bdebb38
                           .group:00000000 wm4.stm32f4xx.h.54.cadd754d3b3eb2607645d8267c364f87
                           .group:00000000 wm4.core_cm4.h.47.facd8ba456d1edc74a9cd34e5ef24231
                           .group:00000000 wm4.stdint.h.10.90b695f550ca6cc3fb08fa83baf01e05
                           .group:00000000 wm4.core_cmInstr.h.39.3d3d1b4a79aef37532666dc6ee87c6ac
                           .group:00000000 wm4.core_cm4_simd.h.43.b5d1d38735af6366227b4256d330cf13
                           .group:00000000 wm4.core_cm4.h.178.e5ef5ce66d198d7f00f9d0076e267c41
                           .group:00000000 wm4.stm32f4xx.h.505.9a2dbdb780d624d1367e362e017b51de
                           .group:00000000 wm4.stm32f4xx_conf.h.30.59d37146f7e5cf5f0ca80165c11975f9
                           .group:00000000 wm4.stm32f4xx.h.9120.1e0d406af3c3ed51a8187f6827e7f6d3
                           .group:00000000 wm4.stm32f4xx_syscfg.h.58.469a50e9fc3edf115c148b9083886501
                           .group:00000000 wm4.stm32f4xx_rcc.h.30.8175fd609ffb4698112814f23af38d96

UNDEFINED SYMBOLS
RCC_APB2PeriphResetCmd
