   1              		.syntax unified
   2              		.cpu cortex-m4
   3              		.eabi_attribute 27, 3
   4              		.eabi_attribute 28, 1
   5              		.fpu fpv4-sp-d16
   6              		.eabi_attribute 20, 1
   7              		.eabi_attribute 21, 1
   8              		.eabi_attribute 23, 3
   9              		.eabi_attribute 24, 1
  10              		.eabi_attribute 25, 1
  11              		.eabi_attribute 26, 1
  12              		.eabi_attribute 30, 6
  13              		.eabi_attribute 34, 1
  14              		.eabi_attribute 18, 4
  15              		.thumb
  16              		.file	"stm32f4xx_spi.c"
  17              		.section	.text.SPI_I2S_DeInit,"ax",%progbits
  18              		.align	2
  19              		.global	SPI_I2S_DeInit
  20              		.thumb
  21              		.thumb_func
  23              	SPI_I2S_DeInit:
  24              		@ args = 0, pretend = 0, frame = 8
  25              		@ frame_needed = 1, uses_anonymous_args = 0
  26 0000 80B5     		push	{r7, lr}
  27 0002 82B0     		sub	sp, sp, #8
  28 0004 00AF     		add	r7, sp, #0
  29 0006 7860     		str	r0, [r7, #4]
  30 0008 7A68     		ldr	r2, [r7, #4]
  31 000a 4FF44053 		mov	r3, #12288
  32 000e C4F20103 		movt	r3, 16385
  33 0012 9A42     		cmp	r2, r3
  34 0014 0CD1     		bne	.L2
  35 0016 4FF48050 		mov	r0, #4096
  36 001a 4FF00101 		mov	r1, #1
  37 001e FFF7FEFF 		bl	RCC_APB2PeriphResetCmd
  38 0022 4FF48050 		mov	r0, #4096
  39 0026 4FF00001 		mov	r1, #0
  40 002a FFF7FEFF 		bl	RCC_APB2PeriphResetCmd
  41 002e 62E0     		b	.L1
  42              	.L2:
  43 0030 7A68     		ldr	r2, [r7, #4]
  44 0032 4FF46053 		mov	r3, #14336
  45 0036 C4F20003 		movt	r3, 16384
  46 003a 9A42     		cmp	r2, r3
  47 003c 0CD1     		bne	.L4
  48 003e 4FF48040 		mov	r0, #16384
  49 0042 4FF00101 		mov	r1, #1
  50 0046 FFF7FEFF 		bl	RCC_APB1PeriphResetCmd
  51 004a 4FF48040 		mov	r0, #16384
  52 004e 4FF00001 		mov	r1, #0
  53 0052 FFF7FEFF 		bl	RCC_APB1PeriphResetCmd
  54 0056 4EE0     		b	.L1
  55              	.L4:
  56 0058 7A68     		ldr	r2, [r7, #4]
  57 005a 4FF47053 		mov	r3, #15360
  58 005e C4F20003 		movt	r3, 16384
  59 0062 9A42     		cmp	r2, r3
  60 0064 0CD1     		bne	.L5
  61 0066 4FF40040 		mov	r0, #32768
  62 006a 4FF00101 		mov	r1, #1
  63 006e FFF7FEFF 		bl	RCC_APB1PeriphResetCmd
  64 0072 4FF40040 		mov	r0, #32768
  65 0076 4FF00001 		mov	r1, #0
  66 007a FFF7FEFF 		bl	RCC_APB1PeriphResetCmd
  67 007e 3AE0     		b	.L1
  68              	.L5:
  69 0080 7A68     		ldr	r2, [r7, #4]
  70 0082 4FF45053 		mov	r3, #13312
  71 0086 C4F20103 		movt	r3, 16385
  72 008a 9A42     		cmp	r2, r3
  73 008c 0CD1     		bne	.L6
  74 008e 4FF40050 		mov	r0, #8192
  75 0092 4FF00101 		mov	r1, #1
  76 0096 FFF7FEFF 		bl	RCC_APB2PeriphResetCmd
  77 009a 4FF40050 		mov	r0, #8192
  78 009e 4FF00001 		mov	r1, #0
  79 00a2 FFF7FEFF 		bl	RCC_APB2PeriphResetCmd
  80 00a6 26E0     		b	.L1
  81              	.L6:
  82 00a8 7A68     		ldr	r2, [r7, #4]
  83 00aa 4FF4A043 		mov	r3, #20480
  84 00ae C4F20103 		movt	r3, 16385
  85 00b2 9A42     		cmp	r2, r3
  86 00b4 0CD1     		bne	.L7
  87 00b6 4FF48010 		mov	r0, #1048576
  88 00ba 4FF00101 		mov	r1, #1
  89 00be FFF7FEFF 		bl	RCC_APB2PeriphResetCmd
  90 00c2 4FF48010 		mov	r0, #1048576
  91 00c6 4FF00001 		mov	r1, #0
  92 00ca FFF7FEFF 		bl	RCC_APB2PeriphResetCmd
  93 00ce 12E0     		b	.L1
  94              	.L7:
  95 00d0 7A68     		ldr	r2, [r7, #4]
  96 00d2 4FF4A843 		mov	r3, #21504
  97 00d6 C4F20103 		movt	r3, 16385
  98 00da 9A42     		cmp	r2, r3
  99 00dc 0BD1     		bne	.L1
 100 00de 4FF40010 		mov	r0, #2097152
 101 00e2 4FF00101 		mov	r1, #1
 102 00e6 FFF7FEFF 		bl	RCC_APB2PeriphResetCmd
 103 00ea 4FF40010 		mov	r0, #2097152
 104 00ee 4FF00001 		mov	r1, #0
 105 00f2 FFF7FEFF 		bl	RCC_APB2PeriphResetCmd
 106              	.L1:
 107 00f6 07F10807 		add	r7, r7, #8
 108 00fa BD46     		mov	sp, r7
 109 00fc 80BD     		pop	{r7, pc}
 111 00fe 00BF     		.section	.text.SPI_Init,"ax",%progbits
 112              		.align	2
 113              		.global	SPI_Init
 114              		.thumb
 115              		.thumb_func
 117              	SPI_Init:
 118              		@ args = 0, pretend = 0, frame = 16
 119              		@ frame_needed = 1, uses_anonymous_args = 0
 120              		@ link register save eliminated.
 121 0000 80B4     		push	{r7}
 122 0002 85B0     		sub	sp, sp, #20
 123 0004 00AF     		add	r7, sp, #0
 124 0006 7860     		str	r0, [r7, #4]
 125 0008 3960     		str	r1, [r7, #0]
 126 000a 4FF00003 		mov	r3, #0
 127 000e FB81     		strh	r3, [r7, #14]	@ movhi
 128 0010 7B68     		ldr	r3, [r7, #4]
 129 0012 1B88     		ldrh	r3, [r3, #0]	@ movhi
 130 0014 FB81     		strh	r3, [r7, #14]	@ movhi
 131 0016 FB89     		ldrh	r3, [r7, #14]	@ movhi
 132 0018 03F44153 		and	r3, r3, #12352
 133 001c FB81     		strh	r3, [r7, #14]	@ movhi
 134 001e 3B68     		ldr	r3, [r7, #0]
 135 0020 1A88     		ldrh	r2, [r3, #0]
 136 0022 3B68     		ldr	r3, [r7, #0]
 137 0024 5B88     		ldrh	r3, [r3, #2]
 138 0026 1343     		orrs	r3, r3, r2
 139 0028 9AB2     		uxth	r2, r3
 140 002a 3B68     		ldr	r3, [r7, #0]
 141 002c 9B88     		ldrh	r3, [r3, #4]
 142 002e 1343     		orrs	r3, r3, r2
 143 0030 9AB2     		uxth	r2, r3
 144 0032 3B68     		ldr	r3, [r7, #0]
 145 0034 DB88     		ldrh	r3, [r3, #6]
 146 0036 1343     		orrs	r3, r3, r2
 147 0038 9AB2     		uxth	r2, r3
 148 003a 3B68     		ldr	r3, [r7, #0]
 149 003c 1B89     		ldrh	r3, [r3, #8]
 150 003e 1343     		orrs	r3, r3, r2
 151 0040 9AB2     		uxth	r2, r3
 152 0042 3B68     		ldr	r3, [r7, #0]
 153 0044 5B89     		ldrh	r3, [r3, #10]
 154 0046 1343     		orrs	r3, r3, r2
 155 0048 9AB2     		uxth	r2, r3
 156 004a 3B68     		ldr	r3, [r7, #0]
 157 004c 9B89     		ldrh	r3, [r3, #12]
 158 004e 1343     		orrs	r3, r3, r2
 159 0050 9AB2     		uxth	r2, r3
 160 0052 3B68     		ldr	r3, [r7, #0]
 161 0054 DB89     		ldrh	r3, [r3, #14]
 162 0056 1343     		orrs	r3, r3, r2
 163 0058 9AB2     		uxth	r2, r3
 164 005a FB89     		ldrh	r3, [r7, #14]	@ movhi
 165 005c 1343     		orrs	r3, r3, r2
 166 005e FB81     		strh	r3, [r7, #14]	@ movhi
 167 0060 7B68     		ldr	r3, [r7, #4]
 168 0062 FA89     		ldrh	r2, [r7, #14]	@ movhi
 169 0064 1A80     		strh	r2, [r3, #0]	@ movhi
 170 0066 7B68     		ldr	r3, [r7, #4]
 171 0068 9B8B     		ldrh	r3, [r3, #28]	@ movhi
 172 006a 9BB2     		uxth	r3, r3
 173 006c 23F40063 		bic	r3, r3, #2048
 174 0070 9AB2     		uxth	r2, r3
 175 0072 7B68     		ldr	r3, [r7, #4]
 176 0074 9A83     		strh	r2, [r3, #28]	@ movhi
 177 0076 3B68     		ldr	r3, [r7, #0]
 178 0078 1A8A     		ldrh	r2, [r3, #16]
 179 007a 7B68     		ldr	r3, [r7, #4]
 180 007c 1A82     		strh	r2, [r3, #16]	@ movhi
 181 007e 07F11407 		add	r7, r7, #20
 182 0082 BD46     		mov	sp, r7
 183 0084 80BC     		pop	{r7}
 184 0086 7047     		bx	lr
 186              		.section	.text.I2S_Init,"ax",%progbits
 187              		.align	2
 188              		.global	I2S_Init
 189              		.thumb
 190              		.thumb_func
 192              	I2S_Init:
 193              		@ args = 0, pretend = 0, frame = 40
 194              		@ frame_needed = 1, uses_anonymous_args = 0
 195              		@ link register save eliminated.
 196 0000 80B4     		push	{r7}
 197 0002 8BB0     		sub	sp, sp, #44
 198 0004 00AF     		add	r7, sp, #0
 199 0006 7860     		str	r0, [r7, #4]
 200 0008 3960     		str	r1, [r7, #0]
 201 000a 4FF00003 		mov	r3, #0
 202 000e 7B83     		strh	r3, [r7, #26]	@ movhi
 203 0010 4FF00203 		mov	r3, #2
 204 0014 FB84     		strh	r3, [r7, #38]	@ movhi
 205 0016 4FF00003 		mov	r3, #0
 206 001a BB84     		strh	r3, [r7, #36]	@ movhi
 207 001c 4FF00103 		mov	r3, #1
 208 0020 7B84     		strh	r3, [r7, #34]	@ movhi
 209 0022 4FF00003 		mov	r3, #0
 210 0026 FB61     		str	r3, [r7, #28]
 211 0028 4FF00003 		mov	r3, #0
 212 002c 7B61     		str	r3, [r7, #20]
 213 002e 4FF00003 		mov	r3, #0
 214 0032 3B61     		str	r3, [r7, #16]
 215 0034 4FF00003 		mov	r3, #0
 216 0038 FB60     		str	r3, [r7, #12]
 217 003a 4FF00003 		mov	r3, #0
 218 003e BB60     		str	r3, [r7, #8]
 219 0040 7B68     		ldr	r3, [r7, #4]
 220 0042 9B8B     		ldrh	r3, [r3, #28]	@ movhi
 221 0044 9BB2     		uxth	r3, r3
 222 0046 23F47B63 		bic	r3, r3, #4016
 223 004a 23F00F03 		bic	r3, r3, #15
 224 004e 9AB2     		uxth	r2, r3
 225 0050 7B68     		ldr	r3, [r7, #4]
 226 0052 9A83     		strh	r2, [r3, #28]	@ movhi
 227 0054 7B68     		ldr	r3, [r7, #4]
 228 0056 4FF00202 		mov	r2, #2
 229 005a 1A84     		strh	r2, [r3, #32]	@ movhi
 230 005c 7B68     		ldr	r3, [r7, #4]
 231 005e 9B8B     		ldrh	r3, [r3, #28]	@ movhi
 232 0060 7B83     		strh	r3, [r7, #26]	@ movhi
 233 0062 3B68     		ldr	r3, [r7, #0]
 234 0064 9B68     		ldr	r3, [r3, #8]
 235 0066 022B     		cmp	r3, #2
 236 0068 06D1     		bne	.L10
 237 006a 4FF00003 		mov	r3, #0
 238 006e BB84     		strh	r3, [r7, #36]	@ movhi
 239 0070 4FF00203 		mov	r3, #2
 240 0074 FB84     		strh	r3, [r7, #38]	@ movhi
 241 0076 9AE0     		b	.L11
 242              	.L10:
 243 0078 3B68     		ldr	r3, [r7, #0]
 244 007a 9B88     		ldrh	r3, [r3, #4]
 245 007c 002B     		cmp	r3, #0
 246 007e 03D1     		bne	.L12
 247 0080 4FF00103 		mov	r3, #1
 248 0084 7B84     		strh	r3, [r7, #34]	@ movhi
 249 0086 02E0     		b	.L13
 250              	.L12:
 251 0088 4FF00203 		mov	r3, #2
 252 008c 7B84     		strh	r3, [r7, #34]	@ movhi
 253              	.L13:
 254 008e 4FF46053 		mov	r3, #14336
 255 0092 C4F20203 		movt	r3, 16386
 256 0096 9B68     		ldr	r3, [r3, #8]
 257 0098 03F40003 		and	r3, r3, #8388608
 258 009c 002B     		cmp	r3, #0
 259 009e 0BD0     		beq	.L14
 260 00a0 4FF46053 		mov	r3, #14336
 261 00a4 C4F20203 		movt	r3, 16386
 262 00a8 4FF46052 		mov	r2, #14336
 263 00ac C4F20202 		movt	r2, 16386
 264 00b0 9268     		ldr	r2, [r2, #8]
 265 00b2 22F40002 		bic	r2, r2, #8388608
 266 00b6 9A60     		str	r2, [r3, #8]
 267              	.L14:
 268 00b8 4FF46053 		mov	r3, #14336
 269 00bc C4F20203 		movt	r3, 16386
 270 00c0 D3F88420 		ldr	r2, [r3, #132]
 271 00c4 47F6C073 		movw	r3, #32704
 272 00c8 1340     		ands	r3, r3, r2
 273 00ca 4FEA9313 		lsr	r3, r3, #6
 274 00ce 4FEAC353 		lsl	r3, r3, #23
 275 00d2 4FEAD353 		lsr	r3, r3, #23
 276 00d6 FB60     		str	r3, [r7, #12]
 277 00d8 4FF46053 		mov	r3, #14336
 278 00dc C4F20203 		movt	r3, 16386
 279 00e0 D3F88430 		ldr	r3, [r3, #132]
 280 00e4 03F0E043 		and	r3, r3, #1879048192
 281 00e8 4FEA1373 		lsr	r3, r3, #28
 282 00ec 03F00703 		and	r3, r3, #7
 283 00f0 BB60     		str	r3, [r7, #8]
 284 00f2 4FF46053 		mov	r3, #14336
 285 00f6 C4F20203 		movt	r3, 16386
 286 00fa 5B68     		ldr	r3, [r3, #4]
 287 00fc 03F03F03 		and	r3, r3, #63
 288 0100 3B61     		str	r3, [r7, #16]
 289 0102 4FF49053 		mov	r3, #4608
 290 0106 C0F27A03 		movt	r3, 122
 291 010a 3A69     		ldr	r2, [r7, #16]
 292 010c B3FBF2F3 		udiv	r3, r3, r2
 293 0110 FA68     		ldr	r2, [r7, #12]
 294 0112 02FB03F2 		mul	r2, r2, r3
 295 0116 BB68     		ldr	r3, [r7, #8]
 296 0118 B2FBF3F3 		udiv	r3, r2, r3
 297 011c 7B61     		str	r3, [r7, #20]
 298 011e 3B68     		ldr	r3, [r7, #0]
 299 0120 DB88     		ldrh	r3, [r3, #6]
 300 0122 B3F5007F 		cmp	r3, #512
 301 0126 13D1     		bne	.L15
 302 0128 7B69     		ldr	r3, [r7, #20]
 303 012a 4FEA1322 		lsr	r2, r3, #8
 304 012e 1346     		mov	r3, r2
 305 0130 4FEA8303 		lsl	r3, r3, #2
 306 0134 9B18     		adds	r3, r3, r2
 307 0136 4FEA4303 		lsl	r3, r3, #1
 308 013a 1A46     		mov	r2, r3
 309 013c 3B68     		ldr	r3, [r7, #0]
 310 013e 9B68     		ldr	r3, [r3, #8]
 311 0140 B2FBF3F3 		udiv	r3, r2, r3
 312 0144 9BB2     		uxth	r3, r3
 313 0146 03F10503 		add	r3, r3, #5
 314 014a 9BB2     		uxth	r3, r3
 315 014c FB61     		str	r3, [r7, #28]
 316 014e 15E0     		b	.L16
 317              	.L15:
 318 0150 7B8C     		ldrh	r3, [r7, #34]
 319 0152 4FEA4313 		lsl	r3, r3, #5
 320 0156 7A69     		ldr	r2, [r7, #20]
 321 0158 B2FBF3F2 		udiv	r2, r2, r3
 322 015c 1346     		mov	r3, r2
 323 015e 4FEA8303 		lsl	r3, r3, #2
 324 0162 9B18     		adds	r3, r3, r2
 325 0164 4FEA4303 		lsl	r3, r3, #1
 326 0168 1A46     		mov	r2, r3
 327 016a 3B68     		ldr	r3, [r7, #0]
 328 016c 9B68     		ldr	r3, [r3, #8]
 329 016e B2FBF3F3 		udiv	r3, r2, r3
 330 0172 9BB2     		uxth	r3, r3
 331 0174 03F10503 		add	r3, r3, #5
 332 0178 9BB2     		uxth	r3, r3
 333 017a FB61     		str	r3, [r7, #28]
 334              	.L16:
 335 017c FA69     		ldr	r2, [r7, #28]
 336 017e 4CF6CD43 		movw	r3, #52429
 337 0182 CCF6CC43 		movt	r3, 52428
 338 0186 A3FB0213 		umull	r1, r3, r3, r2
 339 018a 4FEAD303 		lsr	r3, r3, #3
 340 018e FB61     		str	r3, [r7, #28]
 341 0190 FB69     		ldr	r3, [r7, #28]
 342 0192 9BB2     		uxth	r3, r3
 343 0194 03F00103 		and	r3, r3, #1
 344 0198 BB84     		strh	r3, [r7, #36]	@ movhi
 345 019a BB8C     		ldrh	r3, [r7, #36]
 346 019c FA69     		ldr	r2, [r7, #28]
 347 019e D31A     		subs	r3, r2, r3
 348 01a0 4FEA5303 		lsr	r3, r3, #1
 349 01a4 FB84     		strh	r3, [r7, #38]	@ movhi
 350 01a6 BB8C     		ldrh	r3, [r7, #36]	@ movhi
 351 01a8 4FEA0323 		lsl	r3, r3, #8
 352 01ac BB84     		strh	r3, [r7, #36]	@ movhi
 353              	.L11:
 354 01ae FB8C     		ldrh	r3, [r7, #38]
 355 01b0 012B     		cmp	r3, #1
 356 01b2 02D9     		bls	.L17
 357 01b4 FB8C     		ldrh	r3, [r7, #38]
 358 01b6 FF2B     		cmp	r3, #255
 359 01b8 05D9     		bls	.L18
 360              	.L17:
 361 01ba 4FF00203 		mov	r3, #2
 362 01be FB84     		strh	r3, [r7, #38]	@ movhi
 363 01c0 4FF00003 		mov	r3, #0
 364 01c4 BB84     		strh	r3, [r7, #36]	@ movhi
 365              	.L18:
 366 01c6 3B68     		ldr	r3, [r7, #0]
 367 01c8 DA88     		ldrh	r2, [r3, #6]
 368 01ca BB8C     		ldrh	r3, [r7, #36]	@ movhi
 369 01cc 1343     		orrs	r3, r3, r2
 370 01ce 9AB2     		uxth	r2, r3
 371 01d0 FB8C     		ldrh	r3, [r7, #38]	@ movhi
 372 01d2 1343     		orrs	r3, r3, r2
 373 01d4 9AB2     		uxth	r2, r3
 374 01d6 7B68     		ldr	r3, [r7, #4]
 375 01d8 1A84     		strh	r2, [r3, #32]	@ movhi
 376 01da 3B68     		ldr	r3, [r7, #0]
 377 01dc 1A88     		ldrh	r2, [r3, #0]
 378 01de 3B68     		ldr	r3, [r7, #0]
 379 01e0 5988     		ldrh	r1, [r3, #2]
 380 01e2 3B68     		ldr	r3, [r7, #0]
 381 01e4 9888     		ldrh	r0, [r3, #4]
 382 01e6 3B68     		ldr	r3, [r7, #0]
 383 01e8 9B89     		ldrh	r3, [r3, #12]
 384 01ea 0343     		orrs	r3, r3, r0
 385 01ec 9BB2     		uxth	r3, r3
 386 01ee 0B43     		orrs	r3, r3, r1
 387 01f0 9BB2     		uxth	r3, r3
 388 01f2 1343     		orrs	r3, r3, r2
 389 01f4 9AB2     		uxth	r2, r3
 390 01f6 7B8B     		ldrh	r3, [r7, #26]	@ movhi
 391 01f8 1343     		orrs	r3, r3, r2
 392 01fa 9BB2     		uxth	r3, r3
 393 01fc 43F40063 		orr	r3, r3, #2048
 394 0200 7B83     		strh	r3, [r7, #26]	@ movhi
 395 0202 7B68     		ldr	r3, [r7, #4]
 396 0204 7A8B     		ldrh	r2, [r7, #26]	@ movhi
 397 0206 9A83     		strh	r2, [r3, #28]	@ movhi
 398 0208 07F12C07 		add	r7, r7, #44
 399 020c BD46     		mov	sp, r7
 400 020e 80BC     		pop	{r7}
 401 0210 7047     		bx	lr
 403 0212 00BF     		.section	.text.SPI_StructInit,"ax",%progbits
 404              		.align	2
 405              		.global	SPI_StructInit
 406              		.thumb
 407              		.thumb_func
 409              	SPI_StructInit:
 410              		@ args = 0, pretend = 0, frame = 8
 411              		@ frame_needed = 1, uses_anonymous_args = 0
 412              		@ link register save eliminated.
 413 0000 80B4     		push	{r7}
 414 0002 83B0     		sub	sp, sp, #12
 415 0004 00AF     		add	r7, sp, #0
 416 0006 7860     		str	r0, [r7, #4]
 417 0008 7B68     		ldr	r3, [r7, #4]
 418 000a 4FF00002 		mov	r2, #0
 419 000e 1A80     		strh	r2, [r3, #0]	@ movhi
 420 0010 7B68     		ldr	r3, [r7, #4]
 421 0012 4FF00002 		mov	r2, #0
 422 0016 5A80     		strh	r2, [r3, #2]	@ movhi
 423 0018 7B68     		ldr	r3, [r7, #4]
 424 001a 4FF00002 		mov	r2, #0
 425 001e 9A80     		strh	r2, [r3, #4]	@ movhi
 426 0020 7B68     		ldr	r3, [r7, #4]
 427 0022 4FF00002 		mov	r2, #0
 428 0026 DA80     		strh	r2, [r3, #6]	@ movhi
 429 0028 7B68     		ldr	r3, [r7, #4]
 430 002a 4FF00002 		mov	r2, #0
 431 002e 1A81     		strh	r2, [r3, #8]	@ movhi
 432 0030 7B68     		ldr	r3, [r7, #4]
 433 0032 4FF00002 		mov	r2, #0
 434 0036 5A81     		strh	r2, [r3, #10]	@ movhi
 435 0038 7B68     		ldr	r3, [r7, #4]
 436 003a 4FF00002 		mov	r2, #0
 437 003e 9A81     		strh	r2, [r3, #12]	@ movhi
 438 0040 7B68     		ldr	r3, [r7, #4]
 439 0042 4FF00002 		mov	r2, #0
 440 0046 DA81     		strh	r2, [r3, #14]	@ movhi
 441 0048 7B68     		ldr	r3, [r7, #4]
 442 004a 4FF00702 		mov	r2, #7
 443 004e 1A82     		strh	r2, [r3, #16]	@ movhi
 444 0050 07F10C07 		add	r7, r7, #12
 445 0054 BD46     		mov	sp, r7
 446 0056 80BC     		pop	{r7}
 447 0058 7047     		bx	lr
 449 005a 00BF     		.section	.text.I2S_StructInit,"ax",%progbits
 450              		.align	2
 451              		.global	I2S_StructInit
 452              		.thumb
 453              		.thumb_func
 455              	I2S_StructInit:
 456              		@ args = 0, pretend = 0, frame = 8
 457              		@ frame_needed = 1, uses_anonymous_args = 0
 458              		@ link register save eliminated.
 459 0000 80B4     		push	{r7}
 460 0002 83B0     		sub	sp, sp, #12
 461 0004 00AF     		add	r7, sp, #0
 462 0006 7860     		str	r0, [r7, #4]
 463 0008 7B68     		ldr	r3, [r7, #4]
 464 000a 4FF00002 		mov	r2, #0
 465 000e 1A80     		strh	r2, [r3, #0]	@ movhi
 466 0010 7B68     		ldr	r3, [r7, #4]
 467 0012 4FF00002 		mov	r2, #0
 468 0016 5A80     		strh	r2, [r3, #2]	@ movhi
 469 0018 7B68     		ldr	r3, [r7, #4]
 470 001a 4FF00002 		mov	r2, #0
 471 001e 9A80     		strh	r2, [r3, #4]	@ movhi
 472 0020 7B68     		ldr	r3, [r7, #4]
 473 0022 4FF00002 		mov	r2, #0
 474 0026 DA80     		strh	r2, [r3, #6]	@ movhi
 475 0028 7B68     		ldr	r3, [r7, #4]
 476 002a 4FF00202 		mov	r2, #2
 477 002e 9A60     		str	r2, [r3, #8]
 478 0030 7B68     		ldr	r3, [r7, #4]
 479 0032 4FF00002 		mov	r2, #0
 480 0036 9A81     		strh	r2, [r3, #12]	@ movhi
 481 0038 07F10C07 		add	r7, r7, #12
 482 003c BD46     		mov	sp, r7
 483 003e 80BC     		pop	{r7}
 484 0040 7047     		bx	lr
 486 0042 00BF     		.section	.text.SPI_Cmd,"ax",%progbits
 487              		.align	2
 488              		.global	SPI_Cmd
 489              		.thumb
 490              		.thumb_func
 492              	SPI_Cmd:
 493              		@ args = 0, pretend = 0, frame = 8
 494              		@ frame_needed = 1, uses_anonymous_args = 0
 495              		@ link register save eliminated.
 496 0000 80B4     		push	{r7}
 497 0002 83B0     		sub	sp, sp, #12
 498 0004 00AF     		add	r7, sp, #0
 499 0006 7860     		str	r0, [r7, #4]
 500 0008 0B46     		mov	r3, r1
 501 000a FB70     		strb	r3, [r7, #3]
 502 000c FB78     		ldrb	r3, [r7, #3]	@ zero_extendqisi2
 503 000e 002B     		cmp	r3, #0
 504 0010 08D0     		beq	.L22
 505 0012 7B68     		ldr	r3, [r7, #4]
 506 0014 1B88     		ldrh	r3, [r3, #0]	@ movhi
 507 0016 9BB2     		uxth	r3, r3
 508 0018 43F04003 		orr	r3, r3, #64
 509 001c 9AB2     		uxth	r2, r3
 510 001e 7B68     		ldr	r3, [r7, #4]
 511 0020 1A80     		strh	r2, [r3, #0]	@ movhi
 512 0022 07E0     		b	.L21
 513              	.L22:
 514 0024 7B68     		ldr	r3, [r7, #4]
 515 0026 1B88     		ldrh	r3, [r3, #0]	@ movhi
 516 0028 9BB2     		uxth	r3, r3
 517 002a 23F04003 		bic	r3, r3, #64
 518 002e 9AB2     		uxth	r2, r3
 519 0030 7B68     		ldr	r3, [r7, #4]
 520 0032 1A80     		strh	r2, [r3, #0]	@ movhi
 521              	.L21:
 522 0034 07F10C07 		add	r7, r7, #12
 523 0038 BD46     		mov	sp, r7
 524 003a 80BC     		pop	{r7}
 525 003c 7047     		bx	lr
 527 003e 00BF     		.section	.text.I2S_Cmd,"ax",%progbits
 528              		.align	2
 529              		.global	I2S_Cmd
 530              		.thumb
 531              		.thumb_func
 533              	I2S_Cmd:
 534              		@ args = 0, pretend = 0, frame = 8
 535              		@ frame_needed = 1, uses_anonymous_args = 0
 536              		@ link register save eliminated.
 537 0000 80B4     		push	{r7}
 538 0002 83B0     		sub	sp, sp, #12
 539 0004 00AF     		add	r7, sp, #0
 540 0006 7860     		str	r0, [r7, #4]
 541 0008 0B46     		mov	r3, r1
 542 000a FB70     		strb	r3, [r7, #3]
 543 000c FB78     		ldrb	r3, [r7, #3]	@ zero_extendqisi2
 544 000e 002B     		cmp	r3, #0
 545 0010 08D0     		beq	.L25
 546 0012 7B68     		ldr	r3, [r7, #4]
 547 0014 9B8B     		ldrh	r3, [r3, #28]	@ movhi
 548 0016 9BB2     		uxth	r3, r3
 549 0018 43F48063 		orr	r3, r3, #1024
 550 001c 9AB2     		uxth	r2, r3
 551 001e 7B68     		ldr	r3, [r7, #4]
 552 0020 9A83     		strh	r2, [r3, #28]	@ movhi
 553 0022 07E0     		b	.L24
 554              	.L25:
 555 0024 7B68     		ldr	r3, [r7, #4]
 556 0026 9B8B     		ldrh	r3, [r3, #28]	@ movhi
 557 0028 9BB2     		uxth	r3, r3
 558 002a 23F48063 		bic	r3, r3, #1024
 559 002e 9AB2     		uxth	r2, r3
 560 0030 7B68     		ldr	r3, [r7, #4]
 561 0032 9A83     		strh	r2, [r3, #28]	@ movhi
 562              	.L24:
 563 0034 07F10C07 		add	r7, r7, #12
 564 0038 BD46     		mov	sp, r7
 565 003a 80BC     		pop	{r7}
 566 003c 7047     		bx	lr
 568 003e 00BF     		.section	.text.SPI_DataSizeConfig,"ax",%progbits
 569              		.align	2
 570              		.global	SPI_DataSizeConfig
 571              		.thumb
 572              		.thumb_func
 574              	SPI_DataSizeConfig:
 575              		@ args = 0, pretend = 0, frame = 8
 576              		@ frame_needed = 1, uses_anonymous_args = 0
 577              		@ link register save eliminated.
 578 0000 80B4     		push	{r7}
 579 0002 83B0     		sub	sp, sp, #12
 580 0004 00AF     		add	r7, sp, #0
 581 0006 7860     		str	r0, [r7, #4]
 582 0008 0B46     		mov	r3, r1
 583 000a 7B80     		strh	r3, [r7, #2]	@ movhi
 584 000c 7B68     		ldr	r3, [r7, #4]
 585 000e 1B88     		ldrh	r3, [r3, #0]	@ movhi
 586 0010 9BB2     		uxth	r3, r3
 587 0012 23F40063 		bic	r3, r3, #2048
 588 0016 9AB2     		uxth	r2, r3
 589 0018 7B68     		ldr	r3, [r7, #4]
 590 001a 1A80     		strh	r2, [r3, #0]	@ movhi
 591 001c 7B68     		ldr	r3, [r7, #4]
 592 001e 1B88     		ldrh	r3, [r3, #0]	@ movhi
 593 0020 9AB2     		uxth	r2, r3
 594 0022 7B88     		ldrh	r3, [r7, #2]	@ movhi
 595 0024 1343     		orrs	r3, r3, r2
 596 0026 9AB2     		uxth	r2, r3
 597 0028 7B68     		ldr	r3, [r7, #4]
 598 002a 1A80     		strh	r2, [r3, #0]	@ movhi
 599 002c 07F10C07 		add	r7, r7, #12
 600 0030 BD46     		mov	sp, r7
 601 0032 80BC     		pop	{r7}
 602 0034 7047     		bx	lr
 604 0036 00BF     		.section	.text.SPI_BiDirectionalLineConfig,"ax",%progbits
 605              		.align	2
 606              		.global	SPI_BiDirectionalLineConfig
 607              		.thumb
 608              		.thumb_func
 610              	SPI_BiDirectionalLineConfig:
 611              		@ args = 0, pretend = 0, frame = 8
 612              		@ frame_needed = 1, uses_anonymous_args = 0
 613              		@ link register save eliminated.
 614 0000 80B4     		push	{r7}
 615 0002 83B0     		sub	sp, sp, #12
 616 0004 00AF     		add	r7, sp, #0
 617 0006 7860     		str	r0, [r7, #4]
 618 0008 0B46     		mov	r3, r1
 619 000a 7B80     		strh	r3, [r7, #2]	@ movhi
 620 000c 7B88     		ldrh	r3, [r7, #2]
 621 000e B3F5804F 		cmp	r3, #16384
 622 0012 08D1     		bne	.L29
 623 0014 7B68     		ldr	r3, [r7, #4]
 624 0016 1B88     		ldrh	r3, [r3, #0]	@ movhi
 625 0018 9BB2     		uxth	r3, r3
 626 001a 43F48043 		orr	r3, r3, #16384
 627 001e 9AB2     		uxth	r2, r3
 628 0020 7B68     		ldr	r3, [r7, #4]
 629 0022 1A80     		strh	r2, [r3, #0]	@ movhi
 630 0024 07E0     		b	.L28
 631              	.L29:
 632 0026 7B68     		ldr	r3, [r7, #4]
 633 0028 1B88     		ldrh	r3, [r3, #0]	@ movhi
 634 002a 9BB2     		uxth	r3, r3
 635 002c 23F48043 		bic	r3, r3, #16384
 636 0030 9AB2     		uxth	r2, r3
 637 0032 7B68     		ldr	r3, [r7, #4]
 638 0034 1A80     		strh	r2, [r3, #0]	@ movhi
 639              	.L28:
 640 0036 07F10C07 		add	r7, r7, #12
 641 003a BD46     		mov	sp, r7
 642 003c 80BC     		pop	{r7}
 643 003e 7047     		bx	lr
 645              		.section	.text.SPI_NSSInternalSoftwareConfig,"ax",%progbits
 646              		.align	2
 647              		.global	SPI_NSSInternalSoftwareConfig
 648              		.thumb
 649              		.thumb_func
 651              	SPI_NSSInternalSoftwareConfig:
 652              		@ args = 0, pretend = 0, frame = 8
 653              		@ frame_needed = 1, uses_anonymous_args = 0
 654              		@ link register save eliminated.
 655 0000 80B4     		push	{r7}
 656 0002 83B0     		sub	sp, sp, #12
 657 0004 00AF     		add	r7, sp, #0
 658 0006 7860     		str	r0, [r7, #4]
 659 0008 0B46     		mov	r3, r1
 660 000a 7B80     		strh	r3, [r7, #2]	@ movhi
 661 000c 7A88     		ldrh	r2, [r7, #2]
 662 000e 4FF6FF63 		movw	r3, #65279
 663 0012 9A42     		cmp	r2, r3
 664 0014 08D0     		beq	.L32
 665 0016 7B68     		ldr	r3, [r7, #4]
 666 0018 1B88     		ldrh	r3, [r3, #0]	@ movhi
 667 001a 9BB2     		uxth	r3, r3
 668 001c 43F48073 		orr	r3, r3, #256
 669 0020 9AB2     		uxth	r2, r3
 670 0022 7B68     		ldr	r3, [r7, #4]
 671 0024 1A80     		strh	r2, [r3, #0]	@ movhi
 672 0026 07E0     		b	.L31
 673              	.L32:
 674 0028 7B68     		ldr	r3, [r7, #4]
 675 002a 1B88     		ldrh	r3, [r3, #0]	@ movhi
 676 002c 9BB2     		uxth	r3, r3
 677 002e 23F48073 		bic	r3, r3, #256
 678 0032 9AB2     		uxth	r2, r3
 679 0034 7B68     		ldr	r3, [r7, #4]
 680 0036 1A80     		strh	r2, [r3, #0]	@ movhi
 681              	.L31:
 682 0038 07F10C07 		add	r7, r7, #12
 683 003c BD46     		mov	sp, r7
 684 003e 80BC     		pop	{r7}
 685 0040 7047     		bx	lr
 687 0042 00BF     		.section	.text.SPI_SSOutputCmd,"ax",%progbits
 688              		.align	2
 689              		.global	SPI_SSOutputCmd
 690              		.thumb
 691              		.thumb_func
 693              	SPI_SSOutputCmd:
 694              		@ args = 0, pretend = 0, frame = 8
 695              		@ frame_needed = 1, uses_anonymous_args = 0
 696              		@ link register save eliminated.
 697 0000 80B4     		push	{r7}
 698 0002 83B0     		sub	sp, sp, #12
 699 0004 00AF     		add	r7, sp, #0
 700 0006 7860     		str	r0, [r7, #4]
 701 0008 0B46     		mov	r3, r1
 702 000a FB70     		strb	r3, [r7, #3]
 703 000c FB78     		ldrb	r3, [r7, #3]	@ zero_extendqisi2
 704 000e 002B     		cmp	r3, #0
 705 0010 08D0     		beq	.L35
 706 0012 7B68     		ldr	r3, [r7, #4]
 707 0014 9B88     		ldrh	r3, [r3, #4]	@ movhi
 708 0016 9BB2     		uxth	r3, r3
 709 0018 43F00403 		orr	r3, r3, #4
 710 001c 9AB2     		uxth	r2, r3
 711 001e 7B68     		ldr	r3, [r7, #4]
 712 0020 9A80     		strh	r2, [r3, #4]	@ movhi
 713 0022 07E0     		b	.L34
 714              	.L35:
 715 0024 7B68     		ldr	r3, [r7, #4]
 716 0026 9B88     		ldrh	r3, [r3, #4]	@ movhi
 717 0028 9BB2     		uxth	r3, r3
 718 002a 23F00403 		bic	r3, r3, #4
 719 002e 9AB2     		uxth	r2, r3
 720 0030 7B68     		ldr	r3, [r7, #4]
 721 0032 9A80     		strh	r2, [r3, #4]	@ movhi
 722              	.L34:
 723 0034 07F10C07 		add	r7, r7, #12
 724 0038 BD46     		mov	sp, r7
 725 003a 80BC     		pop	{r7}
 726 003c 7047     		bx	lr
 728 003e 00BF     		.section	.text.SPI_TIModeCmd,"ax",%progbits
 729              		.align	2
 730              		.global	SPI_TIModeCmd
 731              		.thumb
 732              		.thumb_func
 734              	SPI_TIModeCmd:
 735              		@ args = 0, pretend = 0, frame = 8
 736              		@ frame_needed = 1, uses_anonymous_args = 0
 737              		@ link register save eliminated.
 738 0000 80B4     		push	{r7}
 739 0002 83B0     		sub	sp, sp, #12
 740 0004 00AF     		add	r7, sp, #0
 741 0006 7860     		str	r0, [r7, #4]
 742 0008 0B46     		mov	r3, r1
 743 000a FB70     		strb	r3, [r7, #3]
 744 000c FB78     		ldrb	r3, [r7, #3]	@ zero_extendqisi2
 745 000e 002B     		cmp	r3, #0
 746 0010 08D0     		beq	.L38
 747 0012 7B68     		ldr	r3, [r7, #4]
 748 0014 9B88     		ldrh	r3, [r3, #4]	@ movhi
 749 0016 9BB2     		uxth	r3, r3
 750 0018 43F01003 		orr	r3, r3, #16
 751 001c 9AB2     		uxth	r2, r3
 752 001e 7B68     		ldr	r3, [r7, #4]
 753 0020 9A80     		strh	r2, [r3, #4]	@ movhi
 754 0022 07E0     		b	.L37
 755              	.L38:
 756 0024 7B68     		ldr	r3, [r7, #4]
 757 0026 9B88     		ldrh	r3, [r3, #4]	@ movhi
 758 0028 9BB2     		uxth	r3, r3
 759 002a 23F01003 		bic	r3, r3, #16
 760 002e 9AB2     		uxth	r2, r3
 761 0030 7B68     		ldr	r3, [r7, #4]
 762 0032 9A80     		strh	r2, [r3, #4]	@ movhi
 763              	.L37:
 764 0034 07F10C07 		add	r7, r7, #12
 765 0038 BD46     		mov	sp, r7
 766 003a 80BC     		pop	{r7}
 767 003c 7047     		bx	lr
 769 003e 00BF     		.section	.text.I2S_FullDuplexConfig,"ax",%progbits
 770              		.align	2
 771              		.global	I2S_FullDuplexConfig
 772              		.thumb
 773              		.thumb_func
 775              	I2S_FullDuplexConfig:
 776              		@ args = 0, pretend = 0, frame = 16
 777              		@ frame_needed = 1, uses_anonymous_args = 0
 778              		@ link register save eliminated.
 779 0000 80B4     		push	{r7}
 780 0002 85B0     		sub	sp, sp, #20
 781 0004 00AF     		add	r7, sp, #0
 782 0006 7860     		str	r0, [r7, #4]
 783 0008 3960     		str	r1, [r7, #0]
 784 000a 4FF00003 		mov	r3, #0
 785 000e BB81     		strh	r3, [r7, #12]	@ movhi
 786 0010 4FF00003 		mov	r3, #0
 787 0014 FB81     		strh	r3, [r7, #14]	@ movhi
 788 0016 7B68     		ldr	r3, [r7, #4]
 789 0018 9B8B     		ldrh	r3, [r3, #28]	@ movhi
 790 001a 9BB2     		uxth	r3, r3
 791 001c 23F47B63 		bic	r3, r3, #4016
 792 0020 23F00F03 		bic	r3, r3, #15
 793 0024 9AB2     		uxth	r2, r3
 794 0026 7B68     		ldr	r3, [r7, #4]
 795 0028 9A83     		strh	r2, [r3, #28]	@ movhi
 796 002a 7B68     		ldr	r3, [r7, #4]
 797 002c 4FF00202 		mov	r2, #2
 798 0030 1A84     		strh	r2, [r3, #32]	@ movhi
 799 0032 7B68     		ldr	r3, [r7, #4]
 800 0034 9B8B     		ldrh	r3, [r3, #28]	@ movhi
 801 0036 BB81     		strh	r3, [r7, #12]	@ movhi
 802 0038 3B68     		ldr	r3, [r7, #0]
 803 003a 1B88     		ldrh	r3, [r3, #0]
 804 003c B3F5007F 		cmp	r3, #512
 805 0040 03D0     		beq	.L41
 806 0042 3B68     		ldr	r3, [r7, #0]
 807 0044 1B88     		ldrh	r3, [r3, #0]
 808 0046 002B     		cmp	r3, #0
 809 0048 03D1     		bne	.L42
 810              	.L41:
 811 004a 4FF48073 		mov	r3, #256
 812 004e FB81     		strh	r3, [r7, #14]	@ movhi
 813 0050 0CE0     		b	.L43
 814              	.L42:
 815 0052 3B68     		ldr	r3, [r7, #0]
 816 0054 1B88     		ldrh	r3, [r3, #0]
 817 0056 B3F5407F 		cmp	r3, #768
 818 005a 04D0     		beq	.L44
 819 005c 3B68     		ldr	r3, [r7, #0]
 820 005e 1B88     		ldrh	r3, [r3, #0]
 821 0060 B3F5807F 		cmp	r3, #256
 822 0064 02D1     		bne	.L43
 823              	.L44:
 824 0066 4FF00003 		mov	r3, #0
 825 006a FB81     		strh	r3, [r7, #14]	@ movhi
 826              	.L43:
 827 006c 3B68     		ldr	r3, [r7, #0]
 828 006e 5A88     		ldrh	r2, [r3, #2]
 829 0070 3B68     		ldr	r3, [r7, #0]
 830 0072 9988     		ldrh	r1, [r3, #4]
 831 0074 3B68     		ldr	r3, [r7, #0]
 832 0076 9B89     		ldrh	r3, [r3, #12]
 833 0078 0B43     		orrs	r3, r3, r1
 834 007a 9BB2     		uxth	r3, r3
 835 007c 1343     		orrs	r3, r3, r2
 836 007e 9AB2     		uxth	r2, r3
 837 0080 FB89     		ldrh	r3, [r7, #14]	@ movhi
 838 0082 1343     		orrs	r3, r3, r2
 839 0084 9AB2     		uxth	r2, r3
 840 0086 BB89     		ldrh	r3, [r7, #12]	@ movhi
 841 0088 1343     		orrs	r3, r3, r2
 842 008a 9BB2     		uxth	r3, r3
 843 008c 43F40063 		orr	r3, r3, #2048
 844 0090 BB81     		strh	r3, [r7, #12]	@ movhi
 845 0092 7B68     		ldr	r3, [r7, #4]
 846 0094 BA89     		ldrh	r2, [r7, #12]	@ movhi
 847 0096 9A83     		strh	r2, [r3, #28]	@ movhi
 848 0098 07F11407 		add	r7, r7, #20
 849 009c BD46     		mov	sp, r7
 850 009e 80BC     		pop	{r7}
 851 00a0 7047     		bx	lr
 853 00a2 00BF     		.section	.text.SPI_I2S_ReceiveData,"ax",%progbits
 854              		.align	2
 855              		.global	SPI_I2S_ReceiveData
 856              		.thumb
 857              		.thumb_func
 859              	SPI_I2S_ReceiveData:
 860              		@ args = 0, pretend = 0, frame = 8
 861              		@ frame_needed = 1, uses_anonymous_args = 0
 862              		@ link register save eliminated.
 863 0000 80B4     		push	{r7}
 864 0002 83B0     		sub	sp, sp, #12
 865 0004 00AF     		add	r7, sp, #0
 866 0006 7860     		str	r0, [r7, #4]
 867 0008 7B68     		ldr	r3, [r7, #4]
 868 000a 9B89     		ldrh	r3, [r3, #12]	@ movhi
 869 000c 9BB2     		uxth	r3, r3
 870 000e 1846     		mov	r0, r3
 871 0010 07F10C07 		add	r7, r7, #12
 872 0014 BD46     		mov	sp, r7
 873 0016 80BC     		pop	{r7}
 874 0018 7047     		bx	lr
 876 001a 00BF     		.section	.text.SPI_I2S_SendData,"ax",%progbits
 877              		.align	2
 878              		.global	SPI_I2S_SendData
 879              		.thumb
 880              		.thumb_func
 882              	SPI_I2S_SendData:
 883              		@ args = 0, pretend = 0, frame = 8
 884              		@ frame_needed = 1, uses_anonymous_args = 0
 885              		@ link register save eliminated.
 886 0000 80B4     		push	{r7}
 887 0002 83B0     		sub	sp, sp, #12
 888 0004 00AF     		add	r7, sp, #0
 889 0006 7860     		str	r0, [r7, #4]
 890 0008 0B46     		mov	r3, r1
 891 000a 7B80     		strh	r3, [r7, #2]	@ movhi
 892 000c 7B68     		ldr	r3, [r7, #4]
 893 000e 7A88     		ldrh	r2, [r7, #2]	@ movhi
 894 0010 9A81     		strh	r2, [r3, #12]	@ movhi
 895 0012 07F10C07 		add	r7, r7, #12
 896 0016 BD46     		mov	sp, r7
 897 0018 80BC     		pop	{r7}
 898 001a 7047     		bx	lr
 900              		.section	.text.SPI_CalculateCRC,"ax",%progbits
 901              		.align	2
 902              		.global	SPI_CalculateCRC
 903              		.thumb
 904              		.thumb_func
 906              	SPI_CalculateCRC:
 907              		@ args = 0, pretend = 0, frame = 8
 908              		@ frame_needed = 1, uses_anonymous_args = 0
 909              		@ link register save eliminated.
 910 0000 80B4     		push	{r7}
 911 0002 83B0     		sub	sp, sp, #12
 912 0004 00AF     		add	r7, sp, #0
 913 0006 7860     		str	r0, [r7, #4]
 914 0008 0B46     		mov	r3, r1
 915 000a FB70     		strb	r3, [r7, #3]
 916 000c FB78     		ldrb	r3, [r7, #3]	@ zero_extendqisi2
 917 000e 002B     		cmp	r3, #0
 918 0010 08D0     		beq	.L49
 919 0012 7B68     		ldr	r3, [r7, #4]
 920 0014 1B88     		ldrh	r3, [r3, #0]	@ movhi
 921 0016 9BB2     		uxth	r3, r3
 922 0018 43F40053 		orr	r3, r3, #8192
 923 001c 9AB2     		uxth	r2, r3
 924 001e 7B68     		ldr	r3, [r7, #4]
 925 0020 1A80     		strh	r2, [r3, #0]	@ movhi
 926 0022 07E0     		b	.L48
 927              	.L49:
 928 0024 7B68     		ldr	r3, [r7, #4]
 929 0026 1B88     		ldrh	r3, [r3, #0]	@ movhi
 930 0028 9BB2     		uxth	r3, r3
 931 002a 23F40053 		bic	r3, r3, #8192
 932 002e 9AB2     		uxth	r2, r3
 933 0030 7B68     		ldr	r3, [r7, #4]
 934 0032 1A80     		strh	r2, [r3, #0]	@ movhi
 935              	.L48:
 936 0034 07F10C07 		add	r7, r7, #12
 937 0038 BD46     		mov	sp, r7
 938 003a 80BC     		pop	{r7}
 939 003c 7047     		bx	lr
 941 003e 00BF     		.section	.text.SPI_TransmitCRC,"ax",%progbits
 942              		.align	2
 943              		.global	SPI_TransmitCRC
 944              		.thumb
 945              		.thumb_func
 947              	SPI_TransmitCRC:
 948              		@ args = 0, pretend = 0, frame = 8
 949              		@ frame_needed = 1, uses_anonymous_args = 0
 950              		@ link register save eliminated.
 951 0000 80B4     		push	{r7}
 952 0002 83B0     		sub	sp, sp, #12
 953 0004 00AF     		add	r7, sp, #0
 954 0006 7860     		str	r0, [r7, #4]
 955 0008 7B68     		ldr	r3, [r7, #4]
 956 000a 1B88     		ldrh	r3, [r3, #0]	@ movhi
 957 000c 9BB2     		uxth	r3, r3
 958 000e 43F48053 		orr	r3, r3, #4096
 959 0012 9AB2     		uxth	r2, r3
 960 0014 7B68     		ldr	r3, [r7, #4]
 961 0016 1A80     		strh	r2, [r3, #0]	@ movhi
 962 0018 07F10C07 		add	r7, r7, #12
 963 001c BD46     		mov	sp, r7
 964 001e 80BC     		pop	{r7}
 965 0020 7047     		bx	lr
 967 0022 00BF     		.section	.text.SPI_GetCRC,"ax",%progbits
 968              		.align	2
 969              		.global	SPI_GetCRC
 970              		.thumb
 971              		.thumb_func
 973              	SPI_GetCRC:
 974              		@ args = 0, pretend = 0, frame = 16
 975              		@ frame_needed = 1, uses_anonymous_args = 0
 976              		@ link register save eliminated.
 977 0000 80B4     		push	{r7}
 978 0002 85B0     		sub	sp, sp, #20
 979 0004 00AF     		add	r7, sp, #0
 980 0006 7860     		str	r0, [r7, #4]
 981 0008 0B46     		mov	r3, r1
 982 000a FB70     		strb	r3, [r7, #3]
 983 000c 4FF00003 		mov	r3, #0
 984 0010 FB81     		strh	r3, [r7, #14]	@ movhi
 985 0012 FB78     		ldrb	r3, [r7, #3]	@ zero_extendqisi2
 986 0014 012B     		cmp	r3, #1
 987 0016 03D0     		beq	.L53
 988 0018 7B68     		ldr	r3, [r7, #4]
 989 001a 1B8B     		ldrh	r3, [r3, #24]	@ movhi
 990 001c FB81     		strh	r3, [r7, #14]	@ movhi
 991 001e 02E0     		b	.L54
 992              	.L53:
 993 0020 7B68     		ldr	r3, [r7, #4]
 994 0022 9B8A     		ldrh	r3, [r3, #20]	@ movhi
 995 0024 FB81     		strh	r3, [r7, #14]	@ movhi
 996              	.L54:
 997 0026 FB89     		ldrh	r3, [r7, #14]
 998 0028 1846     		mov	r0, r3
 999 002a 07F11407 		add	r7, r7, #20
 1000 002e BD46     		mov	sp, r7
 1001 0030 80BC     		pop	{r7}
 1002 0032 7047     		bx	lr
 1004              		.section	.text.SPI_GetCRCPolynomial,"ax",%progbits
 1005              		.align	2
 1006              		.global	SPI_GetCRCPolynomial
 1007              		.thumb
 1008              		.thumb_func
 1010              	SPI_GetCRCPolynomial:
 1011              		@ args = 0, pretend = 0, frame = 8
 1012              		@ frame_needed = 1, uses_anonymous_args = 0
 1013              		@ link register save eliminated.
 1014 0000 80B4     		push	{r7}
 1015 0002 83B0     		sub	sp, sp, #12
 1016 0004 00AF     		add	r7, sp, #0
 1017 0006 7860     		str	r0, [r7, #4]
 1018 0008 7B68     		ldr	r3, [r7, #4]
 1019 000a 1B8A     		ldrh	r3, [r3, #16]	@ movhi
 1020 000c 9BB2     		uxth	r3, r3
 1021 000e 1846     		mov	r0, r3
 1022 0010 07F10C07 		add	r7, r7, #12
 1023 0014 BD46     		mov	sp, r7
 1024 0016 80BC     		pop	{r7}
 1025 0018 7047     		bx	lr
 1027 001a 00BF     		.section	.text.SPI_I2S_DMACmd,"ax",%progbits
 1028              		.align	2
 1029              		.global	SPI_I2S_DMACmd
 1030              		.thumb
 1031              		.thumb_func
 1033              	SPI_I2S_DMACmd:
 1034              		@ args = 0, pretend = 0, frame = 8
 1035              		@ frame_needed = 1, uses_anonymous_args = 0
 1036              		@ link register save eliminated.
 1037 0000 80B4     		push	{r7}
 1038 0002 83B0     		sub	sp, sp, #12
 1039 0004 00AF     		add	r7, sp, #0
 1040 0006 7860     		str	r0, [r7, #4]
 1041 0008 1346     		mov	r3, r2
 1042 000a 0A46     		mov	r2, r1	@ movhi
 1043 000c 7A80     		strh	r2, [r7, #2]	@ movhi
 1044 000e 7B70     		strb	r3, [r7, #1]
 1045 0010 7B78     		ldrb	r3, [r7, #1]	@ zero_extendqisi2
 1046 0012 002B     		cmp	r3, #0
 1047 0014 08D0     		beq	.L59
 1048 0016 7B68     		ldr	r3, [r7, #4]
 1049 0018 9B88     		ldrh	r3, [r3, #4]	@ movhi
 1050 001a 9AB2     		uxth	r2, r3
 1051 001c 7B88     		ldrh	r3, [r7, #2]	@ movhi
 1052 001e 1343     		orrs	r3, r3, r2
 1053 0020 9AB2     		uxth	r2, r3
 1054 0022 7B68     		ldr	r3, [r7, #4]
 1055 0024 9A80     		strh	r2, [r3, #4]	@ movhi
 1056 0026 0AE0     		b	.L58
 1057              	.L59:
 1058 0028 7B68     		ldr	r3, [r7, #4]
 1059 002a 9B88     		ldrh	r3, [r3, #4]	@ movhi
 1060 002c 9AB2     		uxth	r2, r3
 1061 002e 7B88     		ldrh	r3, [r7, #2]	@ movhi
 1062 0030 6FEA0303 		mvn	r3, r3
 1063 0034 9BB2     		uxth	r3, r3
 1064 0036 1340     		ands	r3, r3, r2
 1065 0038 9AB2     		uxth	r2, r3
 1066 003a 7B68     		ldr	r3, [r7, #4]
 1067 003c 9A80     		strh	r2, [r3, #4]	@ movhi
 1068              	.L58:
 1069 003e 07F10C07 		add	r7, r7, #12
 1070 0042 BD46     		mov	sp, r7
 1071 0044 80BC     		pop	{r7}
 1072 0046 7047     		bx	lr
 1074              		.section	.text.SPI_I2S_ITConfig,"ax",%progbits
 1075              		.align	2
 1076              		.global	SPI_I2S_ITConfig
 1077              		.thumb
 1078              		.thumb_func
 1080              	SPI_I2S_ITConfig:
 1081              		@ args = 0, pretend = 0, frame = 16
 1082              		@ frame_needed = 1, uses_anonymous_args = 0
 1083              		@ link register save eliminated.
 1084 0000 80B4     		push	{r7}
 1085 0002 85B0     		sub	sp, sp, #20
 1086 0004 00AF     		add	r7, sp, #0
 1087 0006 7860     		str	r0, [r7, #4]
 1088 0008 1346     		mov	r3, r2
 1089 000a 0A46     		mov	r2, r1
 1090 000c FA70     		strb	r2, [r7, #3]
 1091 000e BB70     		strb	r3, [r7, #2]
 1092 0010 4FF00003 		mov	r3, #0
 1093 0014 FB81     		strh	r3, [r7, #14]	@ movhi
 1094 0016 4FF00003 		mov	r3, #0
 1095 001a BB81     		strh	r3, [r7, #12]	@ movhi
 1096 001c FB78     		ldrb	r3, [r7, #3]	@ zero_extendqisi2
 1097 001e 4FEA1313 		lsr	r3, r3, #4
 1098 0022 DBB2     		uxtb	r3, r3
 1099 0024 FB81     		strh	r3, [r7, #14]	@ movhi
 1100 0026 FB89     		ldrh	r3, [r7, #14]
 1101 0028 4FF00102 		mov	r2, #1
 1102 002c 02FA03F3 		lsl	r3, r2, r3
 1103 0030 BB81     		strh	r3, [r7, #12]	@ movhi
 1104 0032 BB78     		ldrb	r3, [r7, #2]	@ zero_extendqisi2
 1105 0034 002B     		cmp	r3, #0
 1106 0036 08D0     		beq	.L62
 1107 0038 7B68     		ldr	r3, [r7, #4]
 1108 003a 9B88     		ldrh	r3, [r3, #4]	@ movhi
 1109 003c 9AB2     		uxth	r2, r3
 1110 003e BB89     		ldrh	r3, [r7, #12]	@ movhi
 1111 0040 1343     		orrs	r3, r3, r2
 1112 0042 9AB2     		uxth	r2, r3
 1113 0044 7B68     		ldr	r3, [r7, #4]
 1114 0046 9A80     		strh	r2, [r3, #4]	@ movhi
 1115 0048 0AE0     		b	.L61
 1116              	.L62:
 1117 004a 7B68     		ldr	r3, [r7, #4]
 1118 004c 9B88     		ldrh	r3, [r3, #4]	@ movhi
 1119 004e 9AB2     		uxth	r2, r3
 1120 0050 BB89     		ldrh	r3, [r7, #12]	@ movhi
 1121 0052 6FEA0303 		mvn	r3, r3
 1122 0056 9BB2     		uxth	r3, r3
 1123 0058 1340     		ands	r3, r3, r2
 1124 005a 9AB2     		uxth	r2, r3
 1125 005c 7B68     		ldr	r3, [r7, #4]
 1126 005e 9A80     		strh	r2, [r3, #4]	@ movhi
 1127              	.L61:
 1128 0060 07F11407 		add	r7, r7, #20
 1129 0064 BD46     		mov	sp, r7
 1130 0066 80BC     		pop	{r7}
 1131 0068 7047     		bx	lr
 1133 006a 00BF     		.section	.text.SPI_I2S_GetFlagStatus,"ax",%progbits
 1134              		.align	2
 1135              		.global	SPI_I2S_GetFlagStatus
 1136              		.thumb
 1137              		.thumb_func
 1139              	SPI_I2S_GetFlagStatus:
 1140              		@ args = 0, pretend = 0, frame = 16
 1141              		@ frame_needed = 1, uses_anonymous_args = 0
 1142              		@ link register save eliminated.
 1143 0000 80B4     		push	{r7}
 1144 0002 85B0     		sub	sp, sp, #20
 1145 0004 00AF     		add	r7, sp, #0
 1146 0006 7860     		str	r0, [r7, #4]
 1147 0008 0B46     		mov	r3, r1
 1148 000a 7B80     		strh	r3, [r7, #2]	@ movhi
 1149 000c 4FF00003 		mov	r3, #0
 1150 0010 FB73     		strb	r3, [r7, #15]
 1151 0012 7B68     		ldr	r3, [r7, #4]
 1152 0014 1B89     		ldrh	r3, [r3, #8]	@ movhi
 1153 0016 9AB2     		uxth	r2, r3
 1154 0018 7B88     		ldrh	r3, [r7, #2]	@ movhi
 1155 001a 1340     		ands	r3, r3, r2
 1156 001c 9BB2     		uxth	r3, r3
 1157 001e 002B     		cmp	r3, #0
 1158 0020 03D0     		beq	.L65
 1159 0022 4FF00103 		mov	r3, #1
 1160 0026 FB73     		strb	r3, [r7, #15]
 1161 0028 02E0     		b	.L66
 1162              	.L65:
 1163 002a 4FF00003 		mov	r3, #0
 1164 002e FB73     		strb	r3, [r7, #15]
 1165              	.L66:
 1166 0030 FB7B     		ldrb	r3, [r7, #15]	@ zero_extendqisi2
 1167 0032 1846     		mov	r0, r3
 1168 0034 07F11407 		add	r7, r7, #20
 1169 0038 BD46     		mov	sp, r7
 1170 003a 80BC     		pop	{r7}
 1171 003c 7047     		bx	lr
 1173 003e 00BF     		.section	.text.SPI_I2S_ClearFlag,"ax",%progbits
 1174              		.align	2
 1175              		.global	SPI_I2S_ClearFlag
 1176              		.thumb
 1177              		.thumb_func
 1179              	SPI_I2S_ClearFlag:
 1180              		@ args = 0, pretend = 0, frame = 8
 1181              		@ frame_needed = 1, uses_anonymous_args = 0
 1182              		@ link register save eliminated.
 1183 0000 80B4     		push	{r7}
 1184 0002 83B0     		sub	sp, sp, #12
 1185 0004 00AF     		add	r7, sp, #0
 1186 0006 7860     		str	r0, [r7, #4]
 1187 0008 0B46     		mov	r3, r1
 1188 000a 7B80     		strh	r3, [r7, #2]	@ movhi
 1189 000c 7B88     		ldrh	r3, [r7, #2]	@ movhi
 1190 000e 6FEA0303 		mvn	r3, r3
 1191 0012 9AB2     		uxth	r2, r3
 1192 0014 7B68     		ldr	r3, [r7, #4]
 1193 0016 1A81     		strh	r2, [r3, #8]	@ movhi
 1194 0018 07F10C07 		add	r7, r7, #12
 1195 001c BD46     		mov	sp, r7
 1196 001e 80BC     		pop	{r7}
 1197 0020 7047     		bx	lr
 1199 0022 00BF     		.section	.text.SPI_I2S_GetITStatus,"ax",%progbits
 1200              		.align	2
 1201              		.global	SPI_I2S_GetITStatus
 1202              		.thumb
 1203              		.thumb_func
 1205              	SPI_I2S_GetITStatus:
 1206              		@ args = 0, pretend = 0, frame = 16
 1207              		@ frame_needed = 1, uses_anonymous_args = 0
 1208              		@ link register save eliminated.
 1209 0000 80B4     		push	{r7}
 1210 0002 85B0     		sub	sp, sp, #20
 1211 0004 00AF     		add	r7, sp, #0
 1212 0006 7860     		str	r0, [r7, #4]
 1213 0008 0B46     		mov	r3, r1
 1214 000a FB70     		strb	r3, [r7, #3]
 1215 000c 4FF00003 		mov	r3, #0
 1216 0010 FB73     		strb	r3, [r7, #15]
 1217 0012 4FF00003 		mov	r3, #0
 1218 0016 BB81     		strh	r3, [r7, #12]	@ movhi
 1219 0018 4FF00003 		mov	r3, #0
 1220 001c 7B81     		strh	r3, [r7, #10]	@ movhi
 1221 001e 4FF00003 		mov	r3, #0
 1222 0022 3B81     		strh	r3, [r7, #8]	@ movhi
 1223 0024 FB78     		ldrb	r3, [r7, #3]	@ zero_extendqisi2
 1224 0026 03F00F03 		and	r3, r3, #15
 1225 002a 4FF00102 		mov	r2, #1
 1226 002e 02FA03F3 		lsl	r3, r2, r3
 1227 0032 BB81     		strh	r3, [r7, #12]	@ movhi
 1228 0034 FB78     		ldrb	r3, [r7, #3]	@ zero_extendqisi2
 1229 0036 4FEA1313 		lsr	r3, r3, #4
 1230 003a DBB2     		uxtb	r3, r3
 1231 003c 7B81     		strh	r3, [r7, #10]	@ movhi
 1232 003e 7B89     		ldrh	r3, [r7, #10]
 1233 0040 4FF00102 		mov	r2, #1
 1234 0044 02FA03F3 		lsl	r3, r2, r3
 1235 0048 7B81     		strh	r3, [r7, #10]	@ movhi
 1236 004a 7B68     		ldr	r3, [r7, #4]
 1237 004c 9B88     		ldrh	r3, [r3, #4]	@ movhi
 1238 004e 9AB2     		uxth	r2, r3
 1239 0050 7B89     		ldrh	r3, [r7, #10]	@ movhi
 1240 0052 1340     		ands	r3, r3, r2
 1241 0054 3B81     		strh	r3, [r7, #8]	@ movhi
 1242 0056 7B68     		ldr	r3, [r7, #4]
 1243 0058 1B89     		ldrh	r3, [r3, #8]	@ movhi
 1244 005a 9AB2     		uxth	r2, r3
 1245 005c BB89     		ldrh	r3, [r7, #12]	@ movhi
 1246 005e 1340     		ands	r3, r3, r2
 1247 0060 9BB2     		uxth	r3, r3
 1248 0062 002B     		cmp	r3, #0
 1249 0064 06D0     		beq	.L70
 1250 0066 3B89     		ldrh	r3, [r7, #8]
 1251 0068 002B     		cmp	r3, #0
 1252 006a 03D0     		beq	.L70
 1253 006c 4FF00103 		mov	r3, #1
 1254 0070 FB73     		strb	r3, [r7, #15]
 1255 0072 02E0     		b	.L71
 1256              	.L70:
 1257 0074 4FF00003 		mov	r3, #0
 1258 0078 FB73     		strb	r3, [r7, #15]
 1259              	.L71:
 1260 007a FB7B     		ldrb	r3, [r7, #15]	@ zero_extendqisi2
 1261 007c 1846     		mov	r0, r3
 1262 007e 07F11407 		add	r7, r7, #20
 1263 0082 BD46     		mov	sp, r7
 1264 0084 80BC     		pop	{r7}
 1265 0086 7047     		bx	lr
 1267              		.section	.text.SPI_I2S_ClearITPendingBit,"ax",%progbits
 1268              		.align	2
 1269              		.global	SPI_I2S_ClearITPendingBit
 1270              		.thumb
 1271              		.thumb_func
 1273              	SPI_I2S_ClearITPendingBit:
 1274              		@ args = 0, pretend = 0, frame = 16
 1275              		@ frame_needed = 1, uses_anonymous_args = 0
 1276              		@ link register save eliminated.
 1277 0000 80B4     		push	{r7}
 1278 0002 85B0     		sub	sp, sp, #20
 1279 0004 00AF     		add	r7, sp, #0
 1280 0006 7860     		str	r0, [r7, #4]
 1281 0008 0B46     		mov	r3, r1
 1282 000a FB70     		strb	r3, [r7, #3]
 1283 000c 4FF00003 		mov	r3, #0
 1284 0010 FB81     		strh	r3, [r7, #14]	@ movhi
 1285 0012 FB78     		ldrb	r3, [r7, #3]	@ zero_extendqisi2
 1286 0014 03F00F03 		and	r3, r3, #15
 1287 0018 4FF00102 		mov	r2, #1
 1288 001c 02FA03F3 		lsl	r3, r2, r3
 1289 0020 FB81     		strh	r3, [r7, #14]	@ movhi
 1290 0022 FB89     		ldrh	r3, [r7, #14]	@ movhi
 1291 0024 6FEA0303 		mvn	r3, r3
 1292 0028 9AB2     		uxth	r2, r3
 1293 002a 7B68     		ldr	r3, [r7, #4]
 1294 002c 1A81     		strh	r2, [r3, #8]	@ movhi
 1295 002e 07F11407 		add	r7, r7, #20
 1296 0032 BD46     		mov	sp, r7
 1297 0034 80BC     		pop	{r7}
 1298 0036 7047     		bx	lr
 1300              		.ident	"GCC: (GNU Tools for ARM Embedded Processors) 4.7.3 20121207 (release) [ARM/embedded-4_7-br
DEFINED SYMBOLS
                            *ABS*:00000000 stm32f4xx_spi.c
C:\Users\tompul\AppData\Local\Temp\ccSaVQiP.s:18     .text.SPI_I2S_DeInit:00000000 $t
C:\Users\tompul\AppData\Local\Temp\ccSaVQiP.s:23     .text.SPI_I2S_DeInit:00000000 SPI_I2S_DeInit
C:\Users\tompul\AppData\Local\Temp\ccSaVQiP.s:112    .text.SPI_Init:00000000 $t
C:\Users\tompul\AppData\Local\Temp\ccSaVQiP.s:117    .text.SPI_Init:00000000 SPI_Init
C:\Users\tompul\AppData\Local\Temp\ccSaVQiP.s:187    .text.I2S_Init:00000000 $t
C:\Users\tompul\AppData\Local\Temp\ccSaVQiP.s:192    .text.I2S_Init:00000000 I2S_Init
C:\Users\tompul\AppData\Local\Temp\ccSaVQiP.s:404    .text.SPI_StructInit:00000000 $t
C:\Users\tompul\AppData\Local\Temp\ccSaVQiP.s:409    .text.SPI_StructInit:00000000 SPI_StructInit
C:\Users\tompul\AppData\Local\Temp\ccSaVQiP.s:450    .text.I2S_StructInit:00000000 $t
C:\Users\tompul\AppData\Local\Temp\ccSaVQiP.s:455    .text.I2S_StructInit:00000000 I2S_StructInit
C:\Users\tompul\AppData\Local\Temp\ccSaVQiP.s:487    .text.SPI_Cmd:00000000 $t
C:\Users\tompul\AppData\Local\Temp\ccSaVQiP.s:492    .text.SPI_Cmd:00000000 SPI_Cmd
C:\Users\tompul\AppData\Local\Temp\ccSaVQiP.s:528    .text.I2S_Cmd:00000000 $t
C:\Users\tompul\AppData\Local\Temp\ccSaVQiP.s:533    .text.I2S_Cmd:00000000 I2S_Cmd
C:\Users\tompul\AppData\Local\Temp\ccSaVQiP.s:569    .text.SPI_DataSizeConfig:00000000 $t
C:\Users\tompul\AppData\Local\Temp\ccSaVQiP.s:574    .text.SPI_DataSizeConfig:00000000 SPI_DataSizeConfig
C:\Users\tompul\AppData\Local\Temp\ccSaVQiP.s:605    .text.SPI_BiDirectionalLineConfig:00000000 $t
C:\Users\tompul\AppData\Local\Temp\ccSaVQiP.s:610    .text.SPI_BiDirectionalLineConfig:00000000 SPI_BiDirectionalLineConfig
C:\Users\tompul\AppData\Local\Temp\ccSaVQiP.s:646    .text.SPI_NSSInternalSoftwareConfig:00000000 $t
C:\Users\tompul\AppData\Local\Temp\ccSaVQiP.s:651    .text.SPI_NSSInternalSoftwareConfig:00000000 SPI_NSSInternalSoftwareConfig
C:\Users\tompul\AppData\Local\Temp\ccSaVQiP.s:688    .text.SPI_SSOutputCmd:00000000 $t
C:\Users\tompul\AppData\Local\Temp\ccSaVQiP.s:693    .text.SPI_SSOutputCmd:00000000 SPI_SSOutputCmd
C:\Users\tompul\AppData\Local\Temp\ccSaVQiP.s:729    .text.SPI_TIModeCmd:00000000 $t
C:\Users\tompul\AppData\Local\Temp\ccSaVQiP.s:734    .text.SPI_TIModeCmd:00000000 SPI_TIModeCmd
C:\Users\tompul\AppData\Local\Temp\ccSaVQiP.s:770    .text.I2S_FullDuplexConfig:00000000 $t
C:\Users\tompul\AppData\Local\Temp\ccSaVQiP.s:775    .text.I2S_FullDuplexConfig:00000000 I2S_FullDuplexConfig
C:\Users\tompul\AppData\Local\Temp\ccSaVQiP.s:854    .text.SPI_I2S_ReceiveData:00000000 $t
C:\Users\tompul\AppData\Local\Temp\ccSaVQiP.s:859    .text.SPI_I2S_ReceiveData:00000000 SPI_I2S_ReceiveData
C:\Users\tompul\AppData\Local\Temp\ccSaVQiP.s:877    .text.SPI_I2S_SendData:00000000 $t
C:\Users\tompul\AppData\Local\Temp\ccSaVQiP.s:882    .text.SPI_I2S_SendData:00000000 SPI_I2S_SendData
C:\Users\tompul\AppData\Local\Temp\ccSaVQiP.s:901    .text.SPI_CalculateCRC:00000000 $t
C:\Users\tompul\AppData\Local\Temp\ccSaVQiP.s:906    .text.SPI_CalculateCRC:00000000 SPI_CalculateCRC
C:\Users\tompul\AppData\Local\Temp\ccSaVQiP.s:942    .text.SPI_TransmitCRC:00000000 $t
C:\Users\tompul\AppData\Local\Temp\ccSaVQiP.s:947    .text.SPI_TransmitCRC:00000000 SPI_TransmitCRC
C:\Users\tompul\AppData\Local\Temp\ccSaVQiP.s:968    .text.SPI_GetCRC:00000000 $t
C:\Users\tompul\AppData\Local\Temp\ccSaVQiP.s:973    .text.SPI_GetCRC:00000000 SPI_GetCRC
C:\Users\tompul\AppData\Local\Temp\ccSaVQiP.s:1005   .text.SPI_GetCRCPolynomial:00000000 $t
C:\Users\tompul\AppData\Local\Temp\ccSaVQiP.s:1010   .text.SPI_GetCRCPolynomial:00000000 SPI_GetCRCPolynomial
C:\Users\tompul\AppData\Local\Temp\ccSaVQiP.s:1028   .text.SPI_I2S_DMACmd:00000000 $t
C:\Users\tompul\AppData\Local\Temp\ccSaVQiP.s:1033   .text.SPI_I2S_DMACmd:00000000 SPI_I2S_DMACmd
C:\Users\tompul\AppData\Local\Temp\ccSaVQiP.s:1075   .text.SPI_I2S_ITConfig:00000000 $t
C:\Users\tompul\AppData\Local\Temp\ccSaVQiP.s:1080   .text.SPI_I2S_ITConfig:00000000 SPI_I2S_ITConfig
C:\Users\tompul\AppData\Local\Temp\ccSaVQiP.s:1134   .text.SPI_I2S_GetFlagStatus:00000000 $t
C:\Users\tompul\AppData\Local\Temp\ccSaVQiP.s:1139   .text.SPI_I2S_GetFlagStatus:00000000 SPI_I2S_GetFlagStatus
C:\Users\tompul\AppData\Local\Temp\ccSaVQiP.s:1174   .text.SPI_I2S_ClearFlag:00000000 $t
C:\Users\tompul\AppData\Local\Temp\ccSaVQiP.s:1179   .text.SPI_I2S_ClearFlag:00000000 SPI_I2S_ClearFlag
C:\Users\tompul\AppData\Local\Temp\ccSaVQiP.s:1200   .text.SPI_I2S_GetITStatus:00000000 $t
C:\Users\tompul\AppData\Local\Temp\ccSaVQiP.s:1205   .text.SPI_I2S_GetITStatus:00000000 SPI_I2S_GetITStatus
C:\Users\tompul\AppData\Local\Temp\ccSaVQiP.s:1268   .text.SPI_I2S_ClearITPendingBit:00000000 $t
C:\Users\tompul\AppData\Local\Temp\ccSaVQiP.s:1273   .text.SPI_I2S_ClearITPendingBit:00000000 SPI_I2S_ClearITPendingBit

UNDEFINED SYMBOLS
RCC_APB2PeriphResetCmd
RCC_APB1PeriphResetCmd
